<?xml version="1.0" encoding="utf-8"?>
<!-- Generator: Adobe Illustrator 19.0.0, SVG Export Plug-In . SVG Version: 6.00 Build 0)  -->
<svg version="1.1" id="Layer_1" xmlns="http://www.w3.org/2000/svg" xmlns:xlink="http://www.w3.org/1999/xlink" x="0px" y="0px"
	 viewBox="-107 109 72 72" style="enable-background:new -107 109 72 72;" xml:space="preserve">
<path id="XMLID_1_" d="M-71,111.2c-4.6,0-9.1,1-13.1,2.7s-7.7,4.2-10.7,7.3s-5.5,6.7-7.3,10.7c-1.7,4-2.7,8.5-2.7,13.1
	s0.9,9.1,2.7,13.1c1.7,4,4.2,7.7,7.2,10.7c3.1,3.1,6.7,5.5,10.7,7.3c4,1.7,8.5,2.7,13.2,2.7c4.6,0,9.1-0.9,13.1-2.7
	c4-1.7,7.7-4.2,10.7-7.2c3.1-3.1,5.5-6.7,7.3-10.7c1.7-4,2.7-8.5,2.7-13.2c0-4.6-0.9-9.1-2.7-13.1c-1.7-4-4.2-7.7-7.3-10.7
	s-6.7-5.5-10.7-7.3C-61.9,112.2-66.4,111.2-71,111.2L-71,111.2L-71,111.2L-71,111.2L-71,111.2z M-71,180.8c-4.9,0-9.7-1-13.9-2.8
	c-4.3-1.8-8.1-4.4-11.4-7.7s-5.9-7.1-7.7-11.4c-1.8-4.3-2.8-9-2.8-13.9s1-9.7,2.8-13.9c1.8-4.3,4.4-8.1,7.7-11.4s7.1-5.9,11.4-7.7
	c4.3-1.8,9-2.8,13.9-2.8s9.7,1,13.9,2.8c4.3,1.8,8.1,4.4,11.4,7.7c3.3,3.3,5.9,7.1,7.7,11.4c1.8,4.3,2.8,9,2.8,13.9s-1,9.7-2.8,13.9
	c-1.8,4.3-4.4,8.1-7.7,11.4s-7.1,5.9-11.4,7.7C-61.3,179.8-66.1,180.8-71,180.8L-71,180.8L-71,180.8L-71,180.8L-71,180.8z
	 M-71.1,153.1c0.5,0,1,0,1.4,0.1s0.9,0.1,1.4,0.2s0.9,0.2,1.4,0.3s0.9,0.3,1.4,0.5l1.5,0.5l1.5,0.6l1.5,0.6l1.5,0.6
	c-0.2-1.2-0.7-2.4-1.4-3.5s-1.6-2-2.6-2.8s-2.2-1.4-3.5-1.9s-2.7-0.7-4.1-0.7c-1.4,0-2.8,0.2-4.1,0.7s-2.5,1.1-3.5,1.9
	c-1,0.8-1.9,1.7-2.6,2.8s-1.2,2.2-1.4,3.5l1.5-0.6l1.5-0.6l1.5-0.6l1.5-0.5c0.4-0.2,0.9-0.3,1.4-0.5c0.5-0.1,0.9-0.2,1.4-0.3
	s1-0.1,1.4-0.2S-71.6,153.1-71.1,153.1L-71.1,153.1L-71.1,153.1L-71.1,153.1L-71.1,153.1z M-59.3,158.4c-0.1,0-0.1,0-0.2,0
	c-0.1,0-0.1,0-0.2,0c-0.1,0-0.1,0-0.2,0c-0.1,0-0.1,0-0.2-0.1l0,0l0,0l0,0l0,0l-1.6-0.6l-1.6-0.6l-1.5-0.6l-1.6-0.6
	c-0.8-0.3-1.6-0.5-2.4-0.7c-0.8-0.1-1.7-0.2-2.5-0.2s-1.7,0.1-2.5,0.2c-0.8,0.2-1.6,0.4-2.4,0.7l-1.5,0.6l-1.5,0.6l-1.5,0.6
	l-1.5,0.6c-0.2,0.1-0.3,0.1-0.5,0.1s-0.3,0-0.5,0s-0.3-0.1-0.5-0.1c-0.2-0.1-0.3-0.1-0.5-0.2c-0.1-0.1-0.2-0.2-0.3-0.4
	s-0.2-0.3-0.2-0.4s-0.1-0.3-0.1-0.5s0-0.3,0-0.5c0.2-1.6,0.8-3,1.6-4.3s1.8-2.5,3.1-3.4c1.2-1,2.6-1.7,4.2-2.3
	c1.5-0.5,3.2-0.8,4.9-0.8s3.4,0.3,4.9,0.8s3,1.3,4.2,2.3s2.3,2.1,3.1,3.4c0.8,1.3,1.3,2.7,1.6,4.3c0,0.2,0,0.4,0,0.5
	c0,0.2-0.1,0.3-0.1,0.5s-0.1,0.3-0.2,0.4s-0.2,0.3-0.3,0.4c-0.1,0.1-0.2,0.1-0.3,0.2c-0.1,0.1-0.2,0.1-0.3,0.1s-0.2,0.1-0.3,0.1
	C-59.1,158.4-59.2,158.4-59.3,158.4L-59.3,158.4L-59.3,158.4L-59.3,158.4L-59.3,158.4z M-84.1,132.5c-0.1,0-0.3,0.1-0.5,0.2
	c-0.2,0.2-0.4,0.4-0.5,0.7c-0.2,0.3-0.3,0.7-0.4,1.1c-0.1,0.4-0.2,0.9-0.2,1.4s0.1,1,0.2,1.4c0.1,0.4,0.2,0.8,0.4,1.1
	s0.3,0.5,0.5,0.7s0.4,0.2,0.5,0.2c0.2,0,0.3-0.1,0.5-0.2c0.2-0.2,0.4-0.4,0.5-0.7c0.2-0.3,0.3-0.7,0.4-1.1c0.1-0.4,0.2-0.9,0.2-1.4
	s-0.1-1-0.2-1.4c-0.1-0.4-0.2-0.8-0.4-1.1s-0.3-0.5-0.5-0.7S-83.9,132.5-84.1,132.5L-84.1,132.5L-84.1,132.5L-84.1,132.5
	L-84.1,132.5z M-84.1,141.4c-0.5,0-1-0.1-1.4-0.4c-0.4-0.3-0.8-0.7-1.2-1.2c-0.3-0.5-0.6-1.1-0.8-1.7c-0.2-0.6-0.3-1.4-0.3-2.1
	c0-0.8,0.1-1.5,0.3-2.2s0.4-1.2,0.8-1.7c0.3-0.5,0.7-0.9,1.2-1.1c0.4-0.3,0.9-0.4,1.5-0.4c0.5,0,1,0.1,1.4,0.4
	c0.4,0.3,0.8,0.7,1.2,1.2s0.6,1.1,0.8,1.7c0.2,0.6,0.3,1.4,0.3,2.1s-0.1,1.5-0.3,2.1s-0.4,1.2-0.8,1.7c-0.3,0.5-0.7,0.9-1.2,1.2
	C-83.1,141.2-83.6,141.4-84.1,141.4L-84.1,141.4L-84.1,141.4L-84.1,141.4L-84.1,141.4z M-57.9,132.5c-0.2,0-0.3,0.1-0.5,0.2
	c-0.2,0.2-0.4,0.4-0.5,0.7c-0.2,0.3-0.3,0.7-0.4,1.1c-0.1,0.4-0.2,0.9-0.2,1.4s0.1,1,0.2,1.4c0.1,0.4,0.2,0.8,0.4,1.1
	s0.3,0.5,0.5,0.7s0.4,0.2,0.5,0.2s0.3-0.1,0.5-0.2c0.2-0.2,0.4-0.4,0.5-0.7c0.2-0.3,0.3-0.7,0.4-1.1c0.1-0.4,0.2-0.9,0.2-1.4
	s-0.1-1-0.2-1.4c-0.1-0.4-0.2-0.8-0.4-1.1s-0.3-0.5-0.5-0.7C-57.6,132.6-57.8,132.5-57.9,132.5L-57.9,132.5L-57.9,132.5L-57.9,132.5
	L-57.9,132.5z M-57.9,141.4c-0.5,0-1-0.1-1.4-0.4c-0.4-0.3-0.8-0.7-1.2-1.2c-0.3-0.5-0.6-1.1-0.8-1.7c-0.2-0.6-0.3-1.4-0.3-2.1
	c0-0.8,0.1-1.5,0.3-2.2s0.4-1.2,0.8-1.7c0.3-0.5,0.7-0.9,1.2-1.1c0.4-0.3,0.9-0.4,1.5-0.4c0.5,0,1,0.1,1.4,0.4
	c0.4,0.3,0.8,0.7,1.2,1.2c0.3,0.5,0.6,1.1,0.8,1.7c0.2,0.6,0.3,1.4,0.3,2.1c0,0.8-0.1,1.5-0.3,2.1s-0.5,1.2-0.8,1.7
	s-0.7,0.9-1.2,1.2C-56.9,141.2-57.4,141.4-57.9,141.4L-57.9,141.4L-57.9,141.4L-57.9,141.4L-57.9,141.4z M-79.6,134
	c-0.1,0-0.2,0-0.3,0s-0.2-0.1-0.3-0.1c-0.1-0.1-0.2-0.1-0.2-0.2c-0.1-0.1-0.1-0.2-0.2-0.3c-0.4-1-1-2-1.7-2.9s-1.6-1.7-2.5-2.3
	c-0.9-0.7-2-1.2-3.1-1.6c-1.1-0.4-2.2-0.6-3.4-0.7c-0.1,0-0.3,0-0.4-0.1c-0.1-0.1-0.2-0.1-0.3-0.2c-0.1-0.1-0.2-0.2-0.2-0.3
	s-0.1-0.3-0.1-0.4c0-0.2,0-0.3,0.1-0.4c0.1-0.1,0.1-0.2,0.2-0.3c0.1-0.1,0.2-0.2,0.4-0.2s0.3-0.1,0.4-0.1c1.3,0.1,2.7,0.3,3.9,0.8
	s2.5,1.1,3.6,1.8c1.1,0.8,2.1,1.7,2.9,2.7c0.8,1,1.5,2.2,2,3.4c0.1,0.1,0.1,0.3,0.1,0.4c0,0.1,0,0.3-0.1,0.4s-0.1,0.2-0.2,0.4
	c-0.1,0.1-0.2,0.2-0.4,0.3l0,0C-79.4,134.1-79.4,134.1-79.6,134C-79.6,134.1-79.6,134.1-79.6,134L-79.6,134L-79.6,134L-79.6,134
	L-79.6,134L-79.6,134z M-62.4,134C-62.4,134-62.5,134-62.4,134c-0.1,0-0.2,0-0.2,0h-0.1c0,0-0.1,0-0.1-0.1c-0.1,0-0.2-0.1-0.3-0.2
	c-0.1-0.1-0.2-0.2-0.2-0.3s-0.1-0.3-0.1-0.4c0-0.1,0-0.3,0.1-0.4c0.5-1.2,1.2-2.4,2.1-3.5s1.8-2,2.9-2.7c1.1-0.8,2.3-1.4,3.6-1.8
	c1.3-0.4,2.6-0.7,3.9-0.8c0.1,0,0.3,0,0.4,0.1c0.1,0,0.2,0.1,0.4,0.2c0.1,0.1,0.2,0.2,0.2,0.3c0.1,0.1,0.1,0.3,0.1,0.4
	c0,0.2,0,0.3-0.1,0.4s-0.1,0.2-0.2,0.4c-0.1,0.1-0.2,0.2-0.3,0.2c-0.1,0.1-0.3,0.1-0.4,0.1c-1.1,0.1-2.3,0.3-3.4,0.7
	c-1.1,0.4-2.1,0.9-3.1,1.6c-0.9,0.7-1.8,1.4-2.5,2.3c-0.7,0.9-1.3,1.9-1.7,2.9c0,0.1-0.1,0.2-0.1,0.3c-0.1,0.1-0.1,0.2-0.2,0.2
	c-0.1,0.1-0.2,0.1-0.3,0.1C-62.2,134-62.3,134-62.4,134L-62.4,134L-62.4,134L-62.4,134L-62.4,134z"/>
</svg>
