<?xml version="1.0" encoding="utf-8"?>
<!-- Generator: Adobe Illustrator 19.0.0, SVG Export Plug-In . SVG Version: 6.00 Build 0)  -->
<svg version="1.1" id="Layer_1" xmlns="http://www.w3.org/2000/svg" xmlns:xlink="http://www.w3.org/1999/xlink" x="0px" y="0px"
	 viewBox="-75 82.3 135.1 125.7" style="enable-background:new -75 82.3 135.1 125.7;" xml:space="preserve">
<path id="XMLID_27_" d="M57.6,148.3L57.6,148.3L57.6,148.3c-2.5-7.8-7.9-13.7-14.5-17.1c0,0-0.1,0-0.1-0.1l0,0
	c-6.6-3.3-14.5-4.2-22.1-1.7l-3.1,1l2.6-6.2c3-7.3,3-15.3,0-22.6c-6.2-15-23.5-22.2-38.5-16h-0.1l0,0c-7.5,3.1-13,8.9-15.8,15.8v0.1
	l0,0c-2.8,6.9-3,14.8,0,22.2l2.9,7l-4.5-1.4c-7.6-2.5-15.5-1.6-22.1,1.7l0,0c0,0-0.1,0-0.1,0.1c-6.7,3.4-12,9.4-14.5,17.1l0,0v0.1
	c-5,15.5,3.6,32.1,19,37.1c7.5,2.4,15.5,1.8,22.5-1.8l13.6-6.9v14.4c0,5.3-6.4,9.6-11.7,9.6v6.3H-9v-44.3l-25.9,13.2
	c-4.7,2.4-10.4,3.1-15.9,1.3c-11-3.5-17-15.3-13.5-26.2c3.5-11,15.3-17,26.2-13.5l21.6,6.9l-9.8-23.6C-30.7,110.2-25.6,98-15,93.6
	c10.6-4.4,23,0.6,27.3,11.3c2.2,5.3,2,11,0,16l-9.7,23.2l20.5-6.5c11-3.5,22.7,2.5,26.2,13.5s-2.5,22.7-13.5,26.2
	c-5.5,1.8-11.2,1.1-15.9-1.3l-25.4-13.2v44.1h19.9v-6.3c-5.3,0-11-4.3-11-9.6v-14l12.7,6.5c7,3.6,15,4.3,22.5,1.8
	C54,180.5,62.6,163.8,57.6,148.3z"/>
</svg>
