<?xml version="1.0" encoding="utf-8"?>
<!-- Generator: Adobe Illustrator 19.0.0, SVG Export Plug-In . SVG Version: 6.00 Build 0)  -->
<svg version="1.1" id="Layer_1" xmlns="http://www.w3.org/2000/svg" xmlns:xlink="http://www.w3.org/1999/xlink" x="0px" y="0px"
	 viewBox="-82 92.9 122.4 104.1" style="enable-background:new -82 92.9 122.4 104.1;" xml:space="preserve">
<path id="XMLID_27_" d="M-51.6,144.9c-1.7,0-3.4-0.2-5-0.6l9.3,9.3l13.6-0.1v-8.6H-51.6z M39.5,124.1c0-8.9-4-16.9-10.2-22.3
	c-0.3-0.3-0.7-0.6-1-0.8c-0.4-0.3-0.9-0.7-1.3-1c-4.8-3.4-10.7-5.4-17-5.4l0,0l0,0l0,0H9.9l0,0c-5.5,0-10.6,1.5-14.9,4.1l-0.1,0.1
	c-0.3,0.1-0.6,0.3-0.9,0.5c-0.1,0.1-0.3,0.2-0.4,0.3c-0.1,0.1-0.3,0.2-0.4,0.3c-1.4,1-2.8,2.1-4,3.4l0,0l0,0l0,0
	c-5.2,5.3-8.4,12.5-8.4,20.5v71.4l50.1-50.3c1.3-1.3,2.4-2.6,3.4-4c0.1-0.1,0.2-0.3,0.3-0.4c0.1-0.1,0.2-0.3,0.3-0.4
	c0.2-0.3,0.4-0.6,0.5-0.8l0.1-0.1c2.6-4.4,4.1-9.5,4.1-14.9l0,0C39.5,124.1,39.5,124.1,39.5,124.1z M24.7,138.8L24.7,138.8
	l-35.5,35.6l0,0l0,0l0,0l0,0v-50.3l0,0l0,0l0,0c0-5.8,2.3-11,6.1-14.7l0,0c3.8-3.8,9-6.1,14.7-6.1c5.8,0,11,2.3,14.7,6.1
	c3.8,3.8,6.1,9,6.1,14.7C30.9,129.8,28.5,135,24.7,138.8z M-22.3,123.8c0-8-3.2-15.3-8.4-20.5l0,0l0,0l0,0c-1.3-1.3-2.6-2.4-4-3.4
	c-0.1-0.1-0.3-0.2-0.4-0.3c-0.1-0.1-0.3-0.2-0.4-0.3c-0.3-0.2-0.6-0.4-0.9-0.5c0,0-0.1,0-0.1-0.1c-4.4-2.6-9.5-4.1-15-4.1l0,0h-0.1
	l0,0l0,0l0,0c-8.9,0-17,4-22.4,10.3c-0.2,0.3-0.4,0.5-0.6,0.8c-0.4,0.5-0.8,1.1-1.2,1.6c-2.2,3.2-3.8,6.9-4.6,10.8
	c-0.1,0.3-0.1,0.6-0.2,0.8c0,0.2-0.1,0.4-0.1,0.6c-0.2,1.5-0.3,3-0.3,4.5c0,0,0,0,0,0.1l0,0l0,0c0,5.5,1.5,10.6,4.1,14.9
	c0,0,0,0.1,0.1,0.1c0.2,0.3,0.4,0.6,0.5,0.9c0.1,0.1,0.2,0.3,0.2,0.4c0.1,0.2,0.2,0.4,0.3,0.5c1,1.4,2.1,2.8,3.4,4l50.3,50.4
	L-22.3,123.8z M-30.7,174.4L-30.7,174.4L-30.7,174.4l-35.6-35.6l0,0l0,0c-3.8-3.8-6.1-9-6.1-14.7c0-6.3,2.8-12,7.3-15.8
	c3.6-3.1,8.4-5,13.6-5c5.8,0,11,2.3,14.7,6.1l0,0c3.8,3.8,6.1,9,6.1,14.7l0,0l0,0l0,0V174.4z M5.7,153.6l9.3-9.3
	c-1.6,0.4-3.3,0.6-5,0.6H-7.9v8.6L5.7,153.6z"/>
</svg>
