<?xml version="1.0" encoding="utf-8"?>
<!-- Generator: Adobe Illustrator 19.0.0, SVG Export Plug-In . SVG Version: 6.00 Build 0)  -->
<svg version="1.1" id="Layer_1" xmlns="http://www.w3.org/2000/svg" xmlns:xlink="http://www.w3.org/1999/xlink" x="0px" y="0px"
	 viewBox="-81 80 124 130" style="enable-background:new -81 80 124 130;" xml:space="preserve">
<path id="XMLID_27_" d="M33.1,131.7l-50.4-50.5l-0.2,127.5H2.4v-6.3c-5.3,0-11-4.3-11-9.6v-19.4c5.3,5.3,12.7,8.7,20.9,8.7
	c16.3,0,29.5-13.2,29.5-29.5C41.7,144.6,38.6,137.2,33.1,131.7z M12.2,173.4c-11.5,0-20.9-9.3-20.9-20.9v-50.3L27,137.8
	c3.8,3.8,6.1,9,6.1,14.7C33.1,164,23.7,173.4,12.2,173.4z M-79.7,152.5c0,16.3,13.2,29.5,29.5,29.5c8.1,0,15.5-3.3,20.9-8.7v19.5
	c0,5.3-6.4,9.6-11.7,9.6v6.3h19.9l0.4-127.5l-50.4,50.5C-76.6,137.2-79.7,144.6-79.7,152.5z M-71.1,152.5c0-5.8,2.3-11,6.1-14.7
	l35.6-35.5v50.3c0,11.5-9.3,20.9-20.9,20.9S-71.1,164-71.1,152.5z"/>
</svg>
