<?xml version="1.0" encoding="utf-8"?>
<!-- Generator: Adobe Illustrator 19.0.0, SVG Export Plug-In . SVG Version: 6.00 Build 0)  -->
<svg version="1.1" id="Layer_1" xmlns="http://www.w3.org/2000/svg" xmlns:xlink="http://www.w3.org/1999/xlink" x="0px" y="0px"
	 viewBox="-107 109 72 72" style="enable-background:new -107 109 72 72;" xml:space="preserve">
<path id="XMLID_1_" d="M-84.1,138.9c-0.8,0-1.5,0.6-2.2,1.7c-0.6,1.1-1,2.6-1,4.5c0,1.8,0.4,3.3,1,4.4c0.6,1.1,1.4,1.8,2.2,1.8
	s1.6-0.6,2.2-1.7c0.6-1.1,1-2.6,1-4.5s-0.4-3.4-1-4.5C-82.6,139.5-83.4,138.9-84.1,138.9L-84.1,138.9L-84.1,138.9z M-84.1,153.3
	c-1.5,0-2.8-0.9-3.8-2.4c-0.9-1.5-1.5-3.5-1.5-5.8s0.6-4.4,1.5-5.8c0.9-1.5,2.3-2.4,3.8-2.4s2.8,0.9,3.8,2.4
	c0.9,1.5,1.5,3.5,1.5,5.8s-0.6,4.3-1.5,5.8C-81.3,152.4-82.6,153.3-84.1,153.3L-84.1,153.3L-84.1,153.3z M-55.9,138.9
	c-0.8,0-1.6,0.6-2.2,1.7c-0.6,1.1-1,2.6-1,4.5c0,1.8,0.4,3.3,1,4.4c0.6,1.1,1.4,1.8,2.2,1.8s1.5-0.6,2.2-1.7c0.6-1.1,1-2.6,1-4.5
	c0.1-1.9-0.4-3.4-1-4.5C-54.3,139.5-55.1,138.9-55.9,138.9L-55.9,138.9L-55.9,138.9z M-55.9,153.3c-1.5,0-2.8-0.9-3.8-2.4
	c-0.9-1.5-1.5-3.5-1.5-5.8s0.6-4.4,1.5-5.8c0.9-1.5,2.3-2.4,3.8-2.4s2.8,0.9,3.8,2.4c0.9,1.5,1.5,3.5,1.5,5.8s-0.6,4.3-1.5,5.8
	C-53.1,152.4-54.4,153.3-55.9,153.3L-55.9,153.3L-55.9,153.3z M-50.7,121.1c-0.4,0.4-0.9,1.7-1.3,3.4c-0.4,1.6-0.7,3.6-0.7,5.2
	c0,1.3,0.3,2.1,0.7,2.5s1,0.5,1.5,0.5c0.4,0,0.9,0,1.3-0.4c0.4-0.4,0.7-1.1,0.7-2.6c0-1.6-0.3-3.6-0.8-5.2S-50.2,121.5-50.7,121.1
	L-50.7,121.1L-50.7,121.1z M-50.4,134.7c-0.7,0-1.7-0.1-2.6-0.8c-0.9-0.7-1.7-2-1.7-4.3c0-0.7,0.2-3.4,0.8-5.9s1.6-4.8,3.3-4.8
	c1.6,0,2.7,2.2,3.4,4.6s0.9,5.1,0.9,6.1c-0.1,2.1-0.6,3.4-1.4,4.2C-48.5,134.5-49.5,134.7-50.4,134.7L-50.4,134.7L-50.4,134.7z
	 M-70.7,116.3c-0.3,0.5-0.6,1.5-0.9,2.7s-0.4,2.5-0.4,3.6c0,1,0.2,1.6,0.6,1.8s0.7,0.3,0.9,0.3s0.6,0,0.8-0.3
	c0.3-0.3,0.5-0.8,0.5-1.8c0-1.1-0.2-2.5-0.5-3.6C-70,117.8-70.4,116.8-70.7,116.3L-70.7,116.3L-70.7,116.3z M-70.5,126.7
	c-0.6,0-1.4-0.1-2.2-0.7c-0.8-0.6-1.4-1.6-1.4-3.5c0-0.7,0.1-1.6,0.2-2.4c0.1-0.9,0.3-1.7,0.5-2.5s0.5-1.7,0.9-2.4
	c0.4-0.7,1-1.2,1.8-1.2c1.4,0,2.3,1.9,2.9,3.9s0.7,4.2,0.7,4.7c0,1.7-0.5,2.7-1.1,3.3C-68.9,126.5-69.8,126.7-70.5,126.7
	L-70.5,126.7L-70.5,126.7z M-92.7,123.6c-0.3,0.5-0.6,1.5-0.9,2.6s-0.4,2.4-0.4,3.6c0,1.1,0.2,1.6,0.6,1.8s0.7,0.3,0.9,0.3
	s0.6,0,0.8-0.3c0.3-0.3,0.5-0.8,0.5-1.8s-0.2-2.4-0.5-3.6C-92,125.1-92.4,124.1-92.7,123.6L-92.7,123.6L-92.7,123.6z M-92.5,134
	c-0.6,0-1.4-0.1-2.2-0.7c-0.8-0.6-1.4-1.6-1.4-3.5c0-0.7,0.1-1.6,0.2-2.4s0.3-1.7,0.5-2.5s0.5-1.6,0.9-2.4c0.4-0.7,1-1.2,1.8-1.2
	c1.4,0,2.3,1.9,2.9,3.9s0.7,4.1,0.7,4.6c0,1.8-0.5,2.8-1.2,3.4C-90.9,133.8-91.8,134-92.5,134L-92.5,134L-92.5,134z M-81.2,122.8
	c-0.2,0.4-0.3,1.1-0.4,1.7s-0.2,1.3-0.2,1.8s0.1,0.8,0.2,1s0.3,0.1,0.5,0.1s0.3,0,0.4-0.1s0.2-0.4,0.2-1c0-0.5-0.1-1.2-0.2-1.8
	S-81,123.2-81.2,122.8L-81.2,122.8L-81.2,122.8z M-81,129.5c-0.9,0-1.6-0.3-2.1-0.9c-0.5-0.5-0.7-1.3-0.7-2.3c0-0.1,0.1-1.6,0.4-3.1
	c0.4-1.5,1-3.1,2.3-3.1s2,1.5,2.3,3.1c0.4,1.5,0.5,3.1,0.5,3.1c-0.1,1.4-0.5,2.2-1.1,2.7S-80.6,129.5-81,129.5L-81,129.5L-81,129.5z
	 M-62.5,125.9c-0.1,0.5-0.3,1.1-0.4,1.7c-0.1,0.6-0.2,1.3-0.2,1.8c0,0.6,0.1,0.8,0.2,1c0.1,0.1,0.3,0.1,0.5,0.1c0.1,0,0.3,0,0.4-0.1
	s0.2-0.4,0.2-1c0-0.5-0.1-1.2-0.2-1.8S-62.3,126.4-62.5,125.9L-62.5,125.9L-62.5,125.9z M-62.4,132.6c-0.9,0-1.6-0.3-2.1-0.9
	c-0.5-0.6-0.7-1.4-0.7-2.4c0,0,0.1-1.6,0.4-3.1c0.4-1.5,1-3.1,2.3-3.1s1.9,1.5,2.3,3.1c0.4,1.5,0.5,3.1,0.5,3.1
	c0,1.5-0.5,2.2-1.1,2.7S-62,132.6-62.4,132.6L-62.4,132.6L-62.4,132.6z M-99.9,162.2c-0.1,0-0.2,0-0.2,0c-0.1,0-0.2,0-0.2-0.1
	c-0.2-0.2-0.4-0.4-0.5-0.6c-0.1-0.2-0.1-0.5,0-0.8l1.4-2.9l1.4-2.9c0.1-0.2,0.4-0.4,0.6-0.5c0.2-0.1,0.5-0.1,0.8,0
	c0.2,0.2,0.4,0.4,0.5,0.6c0.1,0.2,0.1,0.5,0,0.8l-1.4,2.9l-1.4,2.9c-0.1,0.1-0.2,0.3-0.3,0.4C-99.5,162.1-99.7,162.2-99.9,162.2
	L-99.9,162.2L-99.9,162.2z M-95.1,162.2c-0.1,0-0.2,0-0.2,0c-0.1,0-0.1,0-0.2-0.1c-0.2-0.2-0.4-0.4-0.5-0.6c-0.1-0.2-0.1-0.5,0-0.8
	l1.5-2.9l1.4-2.9c0.1-0.2,0.4-0.4,0.6-0.5c0.2-0.1,0.5-0.1,0.8,0c0.2,0.2,0.4,0.4,0.5,0.6c0.1,0.2,0.1,0.5,0,0.8l-1.4,2.9l-1.4,2.9
	c-0.1,0.1-0.2,0.3-0.4,0.4C-94.7,162.1-94.9,162.2-95.1,162.2L-95.1,162.2L-95.1,162.2z M-90.4,162.2c-0.1,0-0.2,0-0.2,0
	c-0.1,0-0.2,0-0.2-0.1c-0.2-0.2-0.4-0.4-0.5-0.6c-0.1-0.2-0.1-0.5,0-0.8l1.4-2.9l1.4-2.9c0.1-0.2,0.4-0.4,0.6-0.5
	c0.2-0.1,0.5-0.1,0.8,0c0.2,0.2,0.4,0.4,0.5,0.6c0.1,0.2,0.1,0.5,0,0.8l-1.4,2.9l-1.4,2.9c-0.1,0.1-0.2,0.3-0.4,0.4
	S-90.2,162.2-90.4,162.2L-90.4,162.2L-90.4,162.2z M-52.8,162.2c-0.1,0-0.2,0-0.2,0s-0.1,0-0.2-0.1c-0.2-0.2-0.4-0.4-0.5-0.6
	s-0.1-0.5,0-0.8l1.4-2.9l1.5-2.9c0.1-0.2,0.4-0.4,0.6-0.5c0.2-0.1,0.5-0.1,0.8,0c0.2,0.2,0.4,0.4,0.5,0.6c0.1,0.2,0.1,0.5,0,0.8
	l-1.4,2.9l-1.4,2.9c-0.1,0.1-0.2,0.3-0.4,0.4S-52.6,162.2-52.8,162.2L-52.8,162.2L-52.8,162.2z M-48.1,162.2c-0.1,0-0.2,0-0.2,0
	c-0.1,0-0.1,0-0.2-0.1c-0.2-0.2-0.4-0.4-0.5-0.6c-0.1-0.2-0.1-0.5,0-0.8l1.5-2.9l1.4-2.9c0.1-0.2,0.4-0.4,0.6-0.5
	c0.2-0.1,0.5-0.1,0.8,0c0.2,0.2,0.4,0.4,0.5,0.6c0.1,0.2,0.1,0.5,0,0.8l-1.5,2.9l-1.4,2.9c-0.1,0.1-0.2,0.3-0.4,0.4
	C-47.7,162.1-47.9,162.2-48.1,162.2L-48.1,162.2L-48.1,162.2z M-43.4,162.2c-0.1,0-0.2,0-0.2,0c-0.1,0-0.2,0-0.2-0.1
	c-0.2-0.2-0.4-0.4-0.5-0.6c-0.1-0.2-0.1-0.5,0-0.8l1.4-2.9l1.4-2.9c0.1-0.2,0.4-0.4,0.6-0.5c0.2-0.1,0.5-0.1,0.8,0
	c0.2,0.2,0.4,0.4,0.5,0.6c0.1,0.2,0.1,0.5,0,0.8l-1.4,2.9l-1.4,2.9c-0.1,0.1-0.2,0.3-0.3,0.4C-43,162.1-43.2,162.2-43.4,162.2
	L-43.4,162.2L-43.4,162.2z M-71,111.2c-9.3,0-17.8,3.8-23.9,9.9s-9.9,14.6-9.9,23.9s3.8,17.8,9.9,23.9c6.1,6.1,14.6,9.9,23.9,9.9
	c9.3,0,17.8-3.8,23.9-9.9s9.9-14.6,9.9-23.9c0-9.3-3.8-17.8-9.9-23.9S-61.7,111.2-71,111.2L-71,111.2L-71,111.2z M-71,180.8
	c-9.9,0-18.9-4-25.3-10.5c-6.5-6.5-10.5-15.4-10.5-25.3s4-18.9,10.5-25.3c6.5-6.5,15.4-10.5,25.3-10.5s18.9,4,25.3,10.5
	c6.5,6.5,10.5,15.4,10.5,25.3c0,9.9-4,18.9-10.5,25.3C-52.1,176.8-61.1,180.8-71,180.8L-71,180.8L-71,180.8z"/>
</svg>
