<?xml version="1.0" encoding="utf-8"?><!--Generator: Adobe Illustrator 19.0.0, SVG Export Plug-In . SVG Version: 6.00 Build 0)--><svg version="1.1" id="Layer_1" xmlns="http://www.w3.org/2000/svg" xmlns:xlink="http://www.w3.org/1999/xlink" x="0px" y="0px" viewBox="108 -18 503.3 324" style="enable-background:new 108 -18 503.3 324" xml:space="preserve"><path d="M113-18l-5,3.7V-4l14-14H113z M108-18v0.6l0.6-0.6H108z M255.7-18h-9.1l-4.9,3.7l-5-3.7h-9.1l14.1,14L255.7-18z M242.2-18
	h-1.1l0.6,0.6L242.2-18z M389.4-18h-9.1l-5,3.7l-5-3.7h-9l14,14L389.4-18z M375.9-18h-1.2l0.6,0.6L375.9-18z M523-18h-9.1l-4.9,3.7
	l-5-3.7h-9.1L509-4L523-18z M509.5-18h-1.1l0.6,0.6L509.5-18z M188.3,236.7l3.6,3.6h1.3L188.3,236.7z M328.6,229.9l10.4,10.4h3.7
	L328.6,229.9z M288.3,229.9l-14,10.4h3.6L288.3,229.9z M321.9,236.7l3.7,3.6h1.2L321.9,236.7z M241.8,263h-0.3l0.2,0.1L241.8,263z
	 M375.4,263h-0.2l0.1,0.1L375.4,263z M195,229.9l10.4,10.4h3.6L195,229.9z M295,236.7l-4.9,3.6h1.3L295,236.7z M611.3-14l-5.4-4
	h-4.3l9.7,9.7V-14z M599.7,306l11.6-11.6v-1.2L594.1,306H599.7z M611.3,306v-1l-1.4,1H611.3z M428.7,236.7l-12.6,9.3v3.3
	L428.7,236.7z M611.3-2.3L590.1-18h-2l23.2,23.1V-2.3z M590.7,221.8l20.6-20.6v-6.4L584,215l27.3-27.3V183l-34,25.2l34-34v-2.9
	l-35.4,26.2L529.3,163l6.7-6.7l39.9,39.9l35.4-35.4v-1.2l-35.4,26.2L536,156.3l6.7-6.7l33.1,33.1l33-33l2.4,2.4v-9.2l-35.4-26.2
	l6.7-6.7l28.6,28.6v-7.5l-28.6-21.2l6.7-6.7l21.9,21.9v-5.7l-21.9-16.2l6.7-6.7l15.2,15.2v-4L596,96.5l6.7-6.7l8.4,8.4V96l-8.4-6.2
	l6.7-6.7l1.7,1.7v-0.5l-1.6-1.2l1.6-1.6v-8.1l-20.6,15.2L611.1,68v-6.4l-27.1,20l27.3-27.3v-4.7l-34,25.2l34-34v-2.9l-35.4,26.2
	l-46.6-34.5l6.7-6.7l39.9,39.9l35.4-35.4v-1.2l-35.4,26.2L536,22.9l6.7-6.7l33.1,33.1l33-33l2.4,2.4V9.5l-35.4-26.4l6.1,6.1l-6,4.5
	l-6.2-4.6l6-6l-52,38.5L563.4-18h-2L517,14.9L550-18h-4.3L510.4,8.2L536.5-18h-6.7L509-2.6L488.1-18h-6.7l26.2,26.2L472.3-18H468
	l32.9,32.9L456.5-18h-2l39.7,39.7l-52-38.5l6.1,6.1l-6.1,4.5l-6.2-4.6l6.1-6.1l-52,38.5L429.8-18h-2l-44.4,32.9L416.3-18H412
	L376.7,8.2L402.8-18h-6.7L375.3-2.6L354.5-18h-6.7L374,8.2L338.6-18h-4.3l32.9,32.9L322.8-18h-2l39.7,39.7l-52-38.5l6.1,6.1
	l-6.1,4.5l-6.1-4.5l6.1-6.1l-52,38.5L296.1-18h-2l-44.4,32.9L282.6-18h-4.3L243,8.2L269.2-18h-6.7L241.7-2.6L220.8-18h-6.7
	l26.2,26.2L205-18h-4.3l32.9,32.9L189.2-18h-2l39.7,39.7l-52-38.5l6.1,6.1l-6.1,4.5l-6.1-4.5l6.1-6.1l-52,38.5L162.5-18h-2
	l-44.4,32.9L149-18h-4.3L109.4,8.2L135.5-18h-6.7L108-2.6v52.5l0.1-0.1l6,6l-6.1,4.6v1.7l6.1-6.1l6.7,6.7L108,72.2v3.4l12.9-12.9
	l6.7,6.7L108,83.9V89l19.6-19.6l6.7,6.7L108,95.6v6.9l26.3-26.3l6.7,6.7l-33,24.5v8.6l33.1-33.1l6.7,6.7L108,119.1v10.4l39.8-39.8
	l6.7,6.7L108,130.8v52.5l0.1-0.1l6.2,6.2l-6.3,4.7v1.7l6.3-6.3l6.7,6.7l-13,9.6v3.4l13-13l6.7,6.7L108,217.5v5.1l19.7-19.7l6.7,6.7
	L108,229.3v6.9l26.5-26.5l6.7,6.7L108,241v8.6l33.2-33.2l6.7,6.7L108,252.8v10.4l39.9-39.9l21.8,21.8v-1.8c0-1.6,1.3-2.8,2.8-2.8h12
	l17.2-17.2l17.2,17.2h6l-23.2-17.2l6.7-6.7l23.9,23.9h8.4l-32.3-23.9l6.7-6.7l26.5,26.5l26.5-26.5l6.7,6.7l-32.3,23.9h8.4l23.9-23.9
	l6.7,6.7l-23.2,17.2h6l17.2-17.2l17.2,17.2h19.5l17.2-17.2l17.2,17.2h6l-23.2-17.2l6.7-6.7l23.9,23.9h8.4l-32.3-23.9l6.7-6.7
	l26.5,26.5l26.5-26.5l6.7,6.7l-32.3,23.9h8.4l23.9-23.9l6.7,6.7L392,240.5h6l17.2-17.2l26.9,26.9l26.9-26.9l39.9,39.9l40-40
	l-40,29.6L469,223.2l6.7-6.7l33.2,33.2l33.2-33.2L509,241l-33.2-24.6l6.7-6.7l26.5,26.5l26.5-26.5L509,229.3l-26.5-19.6l6.7-6.7
	l19.7,19.7l19.8-19.8l47.2,47.2l6.6-6.6l28.8,28.8v-7.5l-28.8-21.3l6.7-6.7l22,22V253l-22-16.3l6.7-6.7l15.3,15.3v-4L596,230
	l6.7-6.7l8.5,8.5v-2.2l-8.5-6.3l6.7-6.7l1.8,1.8v-0.5l-1.8-1.3l1.8-1.8v-8.1L590.7,221.8z M569.7-10.8l6.2,6.2l6.1-6.1l6.7,6.7
	L576,5.4l-13-9.5L569.7-10.8z M563-4.1l12.9,12.9L588.7-4l6.7,6.7l-19.5,14.4L556.3,2.5L563-4.1z M556.3,2.7L576,22.4l19.5-19.5
	l6.7,6.7L576,29L549.6,9.4L556.3,2.7z M549.5,9.4l26.4,26.4l26.3-26.3l6.7,6.7l-33,24.4l-33.1-24.5L549.5,9.4z M608.9,149.6
	l-33,24.4l-33.1-24.5l6.7-6.7l26.4,26.4l26.3-26.3L608.9,149.6z M602.1,142.9l-26.2,19.4l-26.4-19.6l6.7-6.7l19.7,19.7l19.5-19.5
	L602.1,142.9z M595.4,136.1l-19.5,14.4L556.3,136l6.7-6.7l12.9,12.9l12.8-12.8L595.4,136.1z M588.7,129.4l-12.7,9.4l-12.9-9.6
	l6.7-6.7l6.2,6.2l6.1-6.1L588.7,129.4z M581.9,122.7l-6,4.5l-6.2-4.6l6-6l-52,38.5l45.3-45.3l6.8,6.8l-0.1-0.1L581.9,122.7z
	 M375.3,205.8l-13-9.6l6.7-6.7l6.3,6.3l6.3-6.3l6.7,6.7L375.3,205.8z M388.3,196.2l6.7,6.7l-19.7,14.6l-19.7-14.6l6.7-6.7l13,13
	L388.3,196.2z M375.3,194.1l-6.2-4.6l6.2-6.2l0.1,0.1l0.1-0.1l6.2,6.2L375.3,194.1z M375.3,130.8l-46.5-34.5l6.7-6.7l39.8,39.8
	l39.8-39.8l6.7,6.7L375.3,130.8z M241.7,205.8l-13-9.6l6.7-6.7l6.3,6.3l6.3-6.3l6.7,6.7L241.7,205.8z M254.6,196.2l6.7,6.7
	l-19.7,14.6l-19.7-14.6l6.7-6.7l13,13L254.6,196.2z M241.7,194.1l-6.2-4.6l6.2-6.2l0.1,0.1l0.1-0.1l6.2,6.2L241.7,194.1z
	 M241.7,130.8l-46.5-34.5l6.7-6.7l39.8,39.8l39.8-39.8l6.7,6.7L241.7,130.8z M168,109.8l6.7,6.7l-52,38.5L168,109.8z M116.1,148.3
	l45.2-45.2l6.7,6.7L116.1,148.3z M174.8,162.3l-26.3-19.5l6.7-6.7l19.6,19.6l19.6-19.6l6.7,6.7L174.8,162.3z M201.2,142.9l6.7,6.7
	l-33,24.5l-33-24.5l6.7-6.7l26.3,26.3L201.2,142.9z M174.8,150.6l-19.6-14.5l6.7-6.7l12.9,12.9l12.9-12.9l6.7,6.7L174.8,150.6z
	 M174.8,138.9l-12.8-9.6l6.7-6.7l6.1,6.1l6.1-6.1l6.7,6.7L174.8,138.9z M174.8,127.1l-6.1-4.5l6-6l0.1,0.1l0.1-0.1l6,6L174.8,127.1z
	 M141.8,149.6l33.1,33.1l33.1-33.1l6.7,6.7l-39.8,29.5L135,156.3L141.8,149.6z M174.9,116.6l6.7-6.7l45.2,45.2L174.9,116.6z
	 M181.6,109.8l6.7-6.7l45.2,45.2L181.6,109.8z M188.4,103.1l6.7-6.7l45.2,45.2L188.4,103.1z M241.7,75.6l12.9-12.9l6.7,6.7
	l-19.6,14.5l-19.6-14.5l6.7-6.7L241.7,75.6z M228.8,62.6l6.7-6.7l6.1,6.1l6.1-6.1l6.7,6.7l-12.8,9.5L228.8,62.6z M241.7,89
	l19.6-19.6l6.7,6.7l-26.3,19.5l-26.3-19.5l6.7-6.7L241.7,89z M241.7,102.5L268,76.2l6.7,6.7l-33.1,24.5l-33.1-24.5l6.7-6.7
	L241.7,102.5z M241.7,116l33.1-33.1l6.7,6.7l-39.8,29.5l-39.8-29.5l6.7-6.7L241.7,116z M288.2,96.4l6.7,6.7L243,141.6L288.2,96.4z
	 M294.9,103.1l6.7,6.7l-51.9,38.5L294.9,103.1z M301.7,109.8l6.7,6.7l-52,38.5L301.7,109.8z M308.5,162.3l-26.3-19.5l6.7-6.7
	l19.6,19.6l19.6-19.6l6.7,6.7L308.5,162.3z M334.8,142.9l6.7,6.7l-33,24.5l-33-24.5l6.7-6.7l26.3,26.3L334.8,142.9z M308.5,150.6
	l-19.6-14.5l6.7-6.7l12.9,12.9l12.9-12.9l6.7,6.7L308.5,150.6z M308.5,138.9l-12.8-9.5l6.7-6.7l6.1,6.1l6.1-6.1l6.7,6.7L308.5,138.9
	z M308.5,127.1l-6.1-4.5l6-6l0.1,0.1l0.1-0.1l6,6L308.5,127.1z M275.4,149.6l33.1,33.1l33.1-33.1l6.7,6.7l-39.8,29.5l-39.8-29.5
	L275.4,149.6z M308.5,116.6l6.7-6.7l45.2,45.2L308.5,116.6z M315.3,109.8l6.7-6.7l45.2,45.2L315.3,109.8z M322,103.1l6.7-6.7
	l45.2,45.2L322,103.1z M375.3,75.6l12.9-12.9l6.7,6.7l-19.6,14.5l-19.6-14.5l6.7-6.7L375.3,75.6z M362.5,62.6l6.7-6.7l6.1,6.1
	l6.1-6.1l6.7,6.7l-12.8,9.5L362.5,62.6z M375.3,89l19.6-19.6l6.7,6.7l-26.3,19.5L349,76.1l6.7-6.7L375.3,89z M375.3,102.5l26.3-26.3
	l6.7,6.7l-33.1,24.5l-33.1-24.5l6.7-6.7L375.3,102.5z M375.3,116l33.1-33.1l6.7,6.7l-39.8,29.5l-39.8-29.5l6.7-6.7L375.3,116z
	 M421.9,96.4l6.7,6.7l-51.9,38.5L421.9,96.4z M428.6,103.1l6.7,6.7l-51.9,38.5L428.6,103.1z M435.3,109.8l6.7,6.7L390,155
	L435.3,109.8z M442.1,162.3l-26.3-19.5l6.7-6.7l19.6,19.6l19.6-19.6l6.7,6.7L442.1,162.3z M468.5,142.9l6.7,6.7l-33,24.5l-33-24.5
	l6.7-6.7l26.3,26.3L468.5,142.9z M442.1,150.6l-19.6-14.5l6.7-6.7l12.9,12.9l12.9-12.9l6.7,6.7L442.1,150.6z M442.1,138.9l-12.8-9.5
	l6.7-6.7l6.1,6.1l6.1-6.1l6.7,6.7L442.1,138.9z M442.1,127.1l-6.1-4.5l6-6l0.1,0.1l0.1-0.1l6,6L442.1,127.1z M409.1,149.6l33.1,33.1
	l33.1-33.1l6.7,6.7l-39.8,29.5l-39.8-29.5L409.1,149.6z M442.2,116.6l6.7-6.7l45.2,45.2L442.2,116.6z M448.9,109.8l6.7-6.7
	l45.2,45.2L448.9,109.8z M455.7,103.1l6.7-6.7l45.2,45.2L455.7,103.1z M462.4,96.4l6.7-6.7l39.8,39.8l39.9-39.9l6.7,6.7L509,130.8
	L462.4,96.4z M509,75.6l12.9-12.9l6.7,6.7L509,83.9l-19.6-14.5l6.7-6.7L509,75.6z M496.1,62.6l6.7-6.7l6.1,6.1l6.2-6.2l6.7,6.7
	L509,72.2L496.1,62.6z M509,89l19.7-19.7l6.7,6.7L509,95.6l-26.3-19.5l6.7-6.7L509,89z M509,102.5l26.4-26.4l6.7,6.7L509,107.4
	l-33.1-24.5l6.7-6.7L509,102.5z M509,116l33.1-33.1l6.7,6.7L509,119.1l-39.8-29.5l6.7-6.7L509,116z M555.6,96.3l6.7,6.7l-52,38.5
	L555.6,96.3z M562.3,103l6.7,6.7l-52,38.5L562.3,103z M529.3,29.6l45.2,45.2l-52-38.5L529.3,29.6z M522.6,36.3l45.3,45.3l-52-38.5
	L522.6,36.3z M509,49.9l0.1-0.1l6.7-6.7l45.3,45.3l-52-38.5l6,6l-6.2,4.6l-6.1-4.5L509,49.9L509,49.9z M508.9,49.9L457,88.4
	l45.2-45.2L508.9,49.9z M502.1,43.1l-51.9,38.5l45.2-45.2L502.1,43.1z M495.4,36.4l-51.9,38.5l45.2-45.2L495.4,36.4z M436-10.8
	l6.1,6.1l6.1-6.1l6.7,6.7l-12.8,9.5l-12.8-9.5L436-10.8z M429.3-4l12.9,12.9L455-4l6.7,6.7l-19.6,14.5L422.5,2.7L429.3-4z
	 M422.5,2.7l19.6,19.6l19.6-19.6l6.7,6.7l-26.3,19.5L415.8,9.4L422.5,2.7z M415.8,9.5l26.3,26.3l26.3-26.3l6.7,6.7l-33,24.5
	l-33-24.5L415.8,9.5z M409.1,16.2l33.1,33.1l33.1-33.1l6.7,6.7l-39.8,29.5l-39.8-29.5L409.1,16.2z M402.3,22.9l39.8,39.8l39.8-39.8
	l6.7,6.7l-46.5,34.5l-46.5-34.5L402.3,22.9z M395.6,29.7l45.2,45.2l-51.9-38.5L395.6,29.7z M388.8,36.4L434,81.6l-51.9-38.5
	L388.8,36.4z M382.1,43.1l45.2,45.2l-51.9-38.5L382.1,43.1z M375.3,49.9L375.3,49.9l6.1,6l-6.1,4.5l-6.1-4.5L375.3,49.9L375.3,49.9z
	 M375.2,49.9l-51.9,38.5l45.2-45.2L375.2,49.9z M368.5,43.1l-51.9,38.5l45.2-45.2L368.5,43.1z M361.7,36.4l-51.9,38.5L355,29.7
	L361.7,36.4z M302.4-10.8l6.1,6.1l6.1-6.1l6.7,6.7l-12.8,9.5l-12.8-9.5L302.4-10.8z M295.6-4l12.9,12.9L321.3-4l6.7,6.7l-19.6,14.5
	L288.8,2.7L295.6-4z M288.9,2.7l19.6,19.6l19.6-19.6l6.7,6.7l-26.3,19.5L282.2,9.4L288.9,2.7z M282.1,9.5l26.3,26.3l26.3-26.3
	l6.7,6.7l-33,24.5l-33-24.5L282.1,9.5z M275.4,16.2l33.1,33.1l33.1-33.1l6.7,6.7l-39.8,29.5l-39.8-29.5L275.4,16.2z M268.7,22.9
	l39.8,39.8l39.8-39.8l6.7,6.7l-46.5,34.5L262,29.6L268.7,22.9z M261.9,29.7l45.2,45.2l-51.9-38.5L261.9,29.7z M255.2,36.4l45.2,45.2
	l-51.9-38.5L255.2,36.4z M248.5,43.1l45.2,45.2l-51.9-38.5L248.5,43.1z M241.7,49.9L241.7,49.9l6.1,6l-6.1,4.5l-6.1-4.5L241.7,49.9
	L241.7,49.9z M241.6,49.9l-51.9,38.5l45.2-45.2L241.6,49.9z M234.8,43.1l-51.9,38.5l45.2-45.2L234.8,43.1z M228.1,36.4l-51.9,38.4
	l45.2-45.2L228.1,36.4z M168.7-10.8l6.1,6.1l6.2-6.1l6.7,6.7l-12.8,9.5L162-4.1L168.7-10.8z M162-4l12.9,12.9L187.7-4l6.7,6.7
	l-19.6,14.5L155.3,2.7L162-4z M155.2,2.7l19.6,19.6l19.6-19.6l6.7,6.7l-26.3,19.5L148.5,9.4L155.2,2.7z M148.5,9.5l26.3,26.3
	l26.3-26.3l6.7,6.7l-33,24.5l-33-24.5L148.5,9.5z M141.8,16.2l33.1,33.1L208,16.2l6.7,6.7l-39.9,29.5L135,22.9L141.8,16.2z
	 M135,22.9l39.8,39.8l39.8-39.8l6.7,6.7l-46.5,34.5l-46.5-34.5L135,22.9z M128.3,29.7l45.2,45.2l-51.9-38.5L128.3,29.7z M121.5,36.4
	l45.2,45.2l-51.9-38.5L121.5,36.4z M108.1,49.9l6.7-6.7L160,88.4L108.1,49.9z M154.6,96.4l6.7,6.7l-51.9,38.5L154.6,96.4z
	 M108.1,183.3l6.7-6.7l45.2,45.2L108.1,183.3z M114.8,176.5l6.7-6.7l45.2,45.2L114.8,176.5z M121.6,169.8l6.7-6.7l45.2,45.2
	L121.6,169.8z M128.3,163.1l6.7-6.7l39.8,39.8l39.8-39.8l6.7,6.7l-46.5,34.5L128.3,163.1z M221.4,163.1l6.7,6.7l-51.9,38.5
	L221.4,163.1z M228.1,169.8l6.7,6.7L182.9,215L228.1,169.8z M189.6,221.8l45.2-45.2l6.7,6.7L189.6,221.8z M241.7,229.3l-26.5-19.6
	l6.7-6.7l19.7,19.7l19.7-19.7l6.7,6.7L241.7,229.3z M241.7,183.3l6.7-6.7l45.2,45.2L241.7,183.3z M248.5,176.5l6.7-6.7l45.2,45.2
	L248.5,176.5z M255.2,169.8l6.7-6.7l45.2,45.2L255.2,169.8z M262,163.1l6.7-6.7l39.8,39.8l39.8-39.8l6.7,6.7l-46.5,34.5L262,163.1z
	 M355,163.1l6.7,6.7l-51.9,38.5L355,163.1z M361.8,169.8l6.7,6.7L316.6,215L361.8,169.8z M323.3,221.8l45.2-45.2l6.7,6.7
	L323.3,221.8z M375.3,229.3l-26.5-19.6l6.7-6.7l19.7,19.7l19.7-19.7l6.7,6.7L375.3,229.3z M375.4,183.3l6.7-6.7l45.2,45.2
	L375.4,183.3z M382.1,176.5l6.7-6.7L434,215L382.1,176.5z M388.9,169.8l6.7-6.7l45.2,45.2L388.9,169.8z M395.6,163.1l6.7-6.7
	l39.8,39.8l39.8-39.8l6.7,6.7l-46.5,34.5L395.6,163.1z M488.7,163.1l6.7,6.7l-51.9,38.5L488.7,163.1z M495.4,169.8l6.7,6.7
	L450.2,215L495.4,169.8z M456.9,221.8l45.2-45.2l6.7,6.7L456.9,221.8z M502.7,189.5l6.3,6.3l6.3-6.3l6.7,6.7l-13.1,9.7l-13-9.6
	L502.7,189.5z M509,217.5l-19.7-14.6l6.7-6.7l13,13l13.1-13.1l6.7,6.7L509,217.5z M509.1,183.2l6.2,6.2l-6.3,4.7l-6.2-4.6
	L509.1,183.2l0,0.2L509.1,183.2l6.7-6.7l45.3,45.3L509.1,183.2z M515.8,176.5l6.7-6.7l45.3,45.3L515.8,176.5z M522.6,169.7l6.7-6.7
	l45.2,45.2L522.6,169.7z M422,229.9l-14.1,10.4h3.7L422,229.9z M119,306l2.5-2.5l2.5,2.5h1l-3.5-2.6l6.7-6.7l9.3,9.3h3.3l-12.5-9.3
	l6.7-6.7l16,16h5.7L135,290l6.7-6.7l22.8,22.7h8l-30.7-22.8l6.7-6.7l26.3,26.3l26.3-26.3l6.7,6.7L177.1,306h8l22.8-22.8l6.7,6.7
	L193,306h5.7l16-16l6.7,6.7l-12.5,9.3h3.3l9.3-9.3l6.7,6.7l-3.5,2.6h0.9l2.5-2.5l2.5,2.5h22l2.5-2.5l2.5,2.5h0.9l-3.5-2.6l6.7-6.7
	l9.3,9.3h3.3l-12.5-9.3l6.7-6.7l16,16h5.7l-21.6-16l6.7-6.7l22.8,22.8h8l-30.7-22.8l6.7-6.7l26.3,26.3l26.3-26.3l6.7,6.7L310.8,306
	h8l22.8-22.8l6.7,6.7l-21.6,16h5.7l16-16l6.7,6.7l-12.5,9.3h3.3l9.3-9.3l6.7,6.7l-3.5,2.6h0.9l2.5-2.5l2.5,2.5h22l2.5-2.5l2.5,2.5
	h0.9l-3.5-2.6l6.7-6.7l9.3,9.3h3.3l-12.5-9.3l6.7-6.7l16,16h5.7l-21.6-16l6.7-6.7l22.8,22.8h8l-30.7-22.8l6.7-6.7l26.3,26.3
	l26.3-26.3l6.7,6.7L444.4,306h8l22.8-22.8l6.7,6.7l-21.6,16h5.7l16-16l6.7,6.7l-12.5,9.3h3.3l9.3-9.3l6.7,6.7L492,306h0.9l2.5-2.5
	l2.5,2.5h22l2.6-2.6l2.6,2.6h0.9l-3.5-2.6l6.7-6.7l9.3,9.3h3.3l-12.6-9.4l6.7-6.7L552,306h5.7L536,289.9l6.7-6.7l22.8,22.8h8
	l-30.8-22.8l6.7-6.7l26.4,26.4l26.3-26.3l6.7,6.7L578.2,306h8l22.7-22.7l2.4,2.4v-9.2l-35.5-26.3l6.1,6.1l-6,4.5l-6.2-4.6l6-6
	l-52,38.5l45.3-45.3L517,282l45.3-45.3l-52,38.5l45.3-45.3L509,264.5l-46.7-34.6l45.3,45.3l-52-38.5l45.3,45.3l-52-38.5l45.3,45.3
	l-52-38.5l6.1,6.1l-6.1,4.5l-6.1-4.5l6.1-6.1l-52,38.5l45.3-45.3l-19.4,14.3v2.4c0,1.6-1.3,2.8-2.8,2.8H409l-25.6,19l19-19h-9.2
	l-16.5,12.2l12.2-12.2h-11.6l-2,1.5l-2-1.5h-11.6l12.2,12.2L357.4,263h-9.2l19,19l-25.6-19h-6.8l25.7,25.7L325.8,263h-4.5l0,0
	l-12.8,9.5l-12.8-9.5l0,0h-4.5l-34.7,25.7l25.7-25.7h-6.8l-25.6,19l19-19h-9.2L243,275.2l12.2-12.2h-11.6l-2,1.5l-2-1.5H228
	l12.2,12.2L223.8,263h-9.2l19,19L208,263h-6.8l25.7,25.7L192.1,263h-4.5l0,0l-12.8,9.5L162,263l7.7-7.7V254l-46.9,34.8l45.3-45.3
	l-52,38.5l45.3-45.3l-52,38.5l45.3-45.3L108,264.5V306H119z M569.7,256.2l6.2,6.2l6.1-6.1l6.7,6.7l-12.7,9.4l-12.9-9.6L569.7,256.2z
	 M563,263l12.9,12.9l12.8-12.8l6.7,6.7l-19.5,14.4l-19.6-14.6L563,263z M556.3,269.7l19.7,19.7l19.5-19.5l6.7,6.7L575.9,296
	l-26.4-19.6L556.3,269.7z M436,256.3l6.1,6.1l6.1-6.1l6.7,6.7l-12.8,9.5l-12.8-9.5L436,256.3z M429.3,263l12.9,12.9L455,263l6.7,6.7
	l-19.6,14.5l-19.6-14.5L429.3,263z M422.5,269.8l19.6,19.6l19.6-19.6l6.7,6.7L442.1,296l-26.3-19.5L422.5,269.8z M295.6,263
	l12.9,12.9l12.9-12.9l6.7,6.7l-19.6,14.5l-19.6-14.5L295.6,263z M288.9,269.8l19.6,19.6l19.6-19.6l6.7,6.7L308.5,296l-26.3-19.5
	L288.9,269.8z M162,263l12.9,12.9l12.8-12.9l6.7,6.7l-19.6,14.5l-19.6-14.5L162,263z M155.2,269.8l19.6,19.6l19.6-19.6l6.7,6.7
	L174.8,296l-26.3-19.5L155.2,269.8z"/></svg>