<?xml version="1.0" encoding="utf-8"?><!--Generator: Adobe Illustrator 19.0.0, SVG Export Plug-In . SVG Version: 6.00 Build 0)--><svg version="1.1" id="Layer_1" xmlns="http://www.w3.org/2000/svg" xmlns:xlink="http://www.w3.org/1999/xlink" x="0px" y="0px" viewBox="108 -18 503.3 324" style="enable-background:new 108 -18 503.3 324" xml:space="preserve"><path id="XMLID_1_" d="M611.3,61.2c0,1.6,0,3.2,0,4.8c-3.5,0-6.9,0-10.4,0c-25.1,0.4-50.3,1-75.4,1.3c-19.5,0.2-39.2-0.1-58.1-3
	c-14.5-2.2-28.6-5.5-42.8-8.4c-14.8-3.1-29.6-6.2-45.4-7c-17.5-0.9-32.8,1.7-44.5,9.8c-0.5,0.3-0.9,0.7-1,0.8
	c4.1-1.5,8.1-3.3,12.7-4.6c12.8-3.5,26.2-3.3,39.8-2c15.5,1.4,30.2,4.5,45.1,7.2c12.6,2.3,25.1,4.9,38,6.4c22,2.6,44.4,2.6,66.7,2.3
	c25.2-0.3,50.3-0.8,75.4-1.2c0,1.8,0,3.7,0,5.5c-15.5,0.7-30.9,1.7-46.4,1.9c-42.9,0.5-85.4-1.6-126.7-9.1
	c-20.1-3.7-40.3-7.2-61.5-8c-31.5-1.2-51.6,5.5-63.5,21.4c-3.8,5-6.9,10.2-10.2,15.4c-3.8,5.9-7.5,11.8-14.3,16.8
	c-12.1,8.9-27.7,13.1-47.3,10.6c-11.2-1.4-20.7-5-29.5-9.1c-14.5-6.8-28.6-13.8-43.1-20.5c-18.2-8.5-38-15.4-61-18.7
	c0-2.1,0-4.2,0-6.2c16.5,2.4,31.5,6.4,44.5,12.6c14.1,6.6,27.4,13.8,40.9,20.9c9.4,4.9,18.5,10.1,29.6,13.8
	c17.7,5.9,35,5.3,51.9-1.1c11.5-4.4,18.7-10.9,25-17.8c1.2-1.3,2.2-2.7,3.3-4.1c-1.1,0.3-1.5,0.8-2,1.3
	c-5.9,6.2-12.6,12.2-22.3,16.6c-18.7,8.7-39.5,10.4-60.4,2.2c-4.5-1.8-9-3.6-13-5.8c-11.7-6.2-23.2-12.6-34.7-18.9
	c-18.1-9.8-38.1-17.9-62.7-21.4c0-1.2,0-2.4,0-3.7c0.9,0.1,1.9,0.1,2.7,0.2c13.6,2.1,26.1,5.6,37.6,10.3c12.9,5.2,24,11.6,35.1,18
	c9.9,5.6,19.3,11.5,30.8,16.1c14.7,5.9,30.3,7.4,47,3.1c10.3-2.7,19.1-6.5,26.6-11.4c11.1-7.2,19.2-15.5,27.5-23.8
	c7.5-7.5,15-15,25.2-21.4c8.7-5.5,18.3-10.1,31.6-11.1c7.9-0.6,15.7-0.2,23.4,0.8c14.5,1.9,28.2,5.2,41.3,9.1
	c26.7,7.9,54.9,11,84.5,10.5c17.5-0.3,35-0.8,52.5-1.1C586.4,61.4,598.8,61.3,611.3,61.2z M611.3,9.5c0,2.6,0,5.1,0,7.7
	c-7.4,0.6-14.9,0.6-22,1.8c-14,2.2-28,4.7-41.6,7.6c-27.7,5.9-55.2,5.9-82.5-0.6c-13.4-3.1-26.7-6.4-40-9.7
	c-17.9-4.4-35.8-8.6-55.3-10c-17.8-1.3-34.6,0.3-49.2,6.8c-7.1,3.2-13.8,6.8-20.3,10.4c-10,5.5-19.3,11.4-29.5,16.7
	c-9.9,5.2-21.5,8.7-35,9.6c-17.4,1.3-33.2-1.5-47.4-7c-10.2-3.9-19.7-8.4-29.2-12.8C143.9,23,128,16.7,108,15c0-2.8,0-5.6,0-8.4
	c17.2,1.2,32.3,5.4,46.3,11.2c4.9,2,9.7,4,14.6,6.1c11,4.5,22.1,9.2,34.9,12.1c16.7,3.9,33.5,4.8,50.4,0.5
	c10.8-2.7,19.8-7,28.3-11.7c9-5,17.8-10.2,27-15.1C324,2,340.6-2.8,360.8-1.8c8.4,0.4,16.9,1.2,25.1,2.4
	c18.4,2.6,35.4,7.5,52.4,12.3c16.8,4.7,33.7,9.3,51.5,12.6c21.1,3.9,41.3,3.2,61-2.6c8.4-2.5,16.8-4.9,25.3-7.3
	C587.1,12.4,598.7,9.9,611.3,9.5z M611.3,119.8c0,4.3,0,8.6,0,12.8c-2.8,0.3-5.6,0.6-8.3,0.9c-15.1,1.7-30.2,3.5-45.8,3.1
	c-18.4-0.6-33.4-4.9-43.9-13.8c-4.1-3.5-8-7.2-11.3-11c-8.5-9.6-19.6-17.6-36.6-22.7c-19.5-5.8-39.6-10-61.9-9.3
	c-20.5,0.6-36.3,6-47.4,16.1c-6.5,5.9-10.4,12.5-14,19.1c-4,7.3-7.2,14.7-13.6,21.4C315.2,150.6,295,158,267.2,157
	c-10.4-0.4-20.7-1.8-30.8-3.3c-31.1-4.8-62.2-9.5-93.9-12.7c-11.4-1.2-23-2.1-34.4-3.2c0-2.3,0-4.6,0-7c33.3,2.1,65.9,6.4,98.2,11.6
	c14.5,2.3,29,4.9,43.7,6.9c25.6,3.4,46.9-1.1,63.8-12.8c8.7-6,15-12.8,20.2-20c4.9-6.8,9.3-13.8,14.9-20.4
	c7.4-8.7,19.9-14.1,36-16.7c16-2.6,32-1.9,47.9,0.4c27.9,4,52.4,11.1,70.5,24.7c5.5,4.1,11.8,7.9,18.2,11.6c8.5,4.9,19,7.7,31,8.5
	c12.1,0.8,23.8-0.3,35.5-1.8C595.6,121.9,603.4,120.9,611.3,119.8z M611.3,22.3c0,2.6,0,5.1,0,7.7c-11.9,0.2-23.9-0.1-35.8,0.7
	c-18.7,1.2-37.3,3.2-56,4.6c-20.7,1.6-41.5,1.6-61.7-2.1c-12.3-2.2-24.4-4.8-36.5-7.4c-15.6-3.3-31.1-6.5-47.7-7.7
	c-21.7-1.6-40.9,1.5-56.4,10.6c-7.5,4.4-14.5,9.2-21.4,13.9c-9.5,6.5-18.4,13.3-30.1,18.6c-21.1,9.6-49.5,11.7-73.8,0.3
	c-7.3-3.4-14.2-7.2-21.1-11c-11.7-6.4-23.5-12.8-38.1-16.9c-7.9-2.2-16-3.9-24.8-4.4c0-2.8,0-5.6,0-8.4c4.6,0.7,9.2,1.1,13.7,2
	c13.7,2.8,25,7.8,36,13.2c11.5,5.6,22.4,11.5,35.3,16c24.6,8.5,51.3,7.8,73.6-2.6c8.7-4,16.3-9,24.2-13.5
	c9.5-5.4,18.4-11.2,28.4-16.3c11.8-6,25.9-8.7,41.7-8.5c12.6,0.2,24.9,1.4,36.7,3.8c16.9,3.6,33.8,7.3,50.4,11.4
	c29.8,7.2,59.9,8.9,91.3,4C562.8,26.4,586.4,22.2,611.3,22.3z M108,124.6c0-4,0-8.1,0-12.1c22.1,1.6,43.6,4.8,64.6,9.1
	c19.1,3.9,37.9,8.2,56.9,12.1c11.7,2.4,23.9,3.8,36.4,2.8c15.4-1.2,28.1-5.8,39.4-11.8c11.5-6.1,18.8-13.8,24.9-22
	c4.3-5.8,9-11.5,17-15.9c12.4-6.7,27.4-10,43.9-11c21-1.3,41.3,0.9,61.4,4.1c19,3,35.8,8.1,50.7,15.6c4.8,2.4,10,4.6,15.1,6.9
	c11,4.9,23.5,7.1,37.3,6.9c11.2-0.2,22-1.6,32.8-3.2c7.6-1.2,15.2-2.3,22.8-3.5c0,3.2,0,6.4,0,9.5c-0.5,0.1-1,0.1-1.5,0.2
	c-13.3,1.8-26.6,4-40.1,5.4c-16.3,1.7-31.9,0.3-45.3-5.8c-5.7-2.6-11.1-5.4-16.1-8.4c-14.3-8.4-29.6-16-49.2-20.1
	c-20.8-4.3-41.9-7.4-64.2-6.1c-17.7,1.1-33.2,5-44.9,13.1c-5.8,4-9.7,8.7-12.9,13.5c-7.5,11.2-17.5,21.3-32.5,29.7
	c-13.6,7.6-29.7,11.7-48.8,10.3c-10.3-0.8-20.7-2-30.6-3.8C186.7,133.3,148.1,127,108,124.6z M611.3,88.3c0,2.9,0,5.9,0,8.8
	c-12.5,1.8-24.9,3.9-37.5,5.3c-8.1,0.9-16.4,1.1-24.7,1c-14.6-0.1-27.2-3.7-38.8-8.5c-17.8-7.3-36.3-13.4-57.7-16.5
	c-21.5-3-42.9-5.7-65.2-4.5c-28.2,1.5-48.2,9.9-61.2,24.3c-5.7,6.3-11,12.8-17.4,18.8c-14.2,13.4-40.6,22.1-73.1,15.2
	c-12.3-2.6-24.1-5.9-36-9c-22.8-6-45.8-11.8-70.2-15.4c-7.1-1-14.3-1.6-21.5-2.4c0-4,0-8.1,0-12.1c11.8,1.2,23.1,3.4,34.2,6.1
	c21.7,5.1,41.7,12.2,61.8,19.1c10.9,3.8,21.7,7.7,33.8,10.1c18.3,3.6,35.3,2.3,50.9-4.4c8.6-3.7,14.3-8.9,18.7-14.5
	c4.8-6,9.1-12.2,14.1-18.2c9.1-10.8,23.6-17.8,43.9-20.7c14.1-2,28.3-2.1,42.5-0.8c35.3,3.3,69.9,7.9,102.2,17.2
	c19.4,5.6,39.8,7.6,61.1,5.6C584.7,91.7,597.9,89.9,611.3,88.3z M108,1.4c0-2.3,0-4.6,0-7c5.6,0.4,11.2,0.7,16.7,1.4
	C141-2.1,155.5,2.4,169.9,7c14.7,4.8,29.5,9.6,44.7,13.8c7.4,2.1,15.8,3.3,24,4.1c15.7,1.5,29.5-1.7,40.9-7.9
	c10.5-5.7,20.3-11.8,30.1-17.9c17.2-10.7,37.7-15.1,62.7-12.4c15.5,1.7,30.2,4.6,44.3,8.6c18.1,5.2,35.9,10.8,53.9,16.1
	c16.3,4.8,33.1,8.9,51.3,10.6c15.6,1.5,29.1-0.7,39.9-7.7c3.6-2.3,7.4-4.5,11.1-6.8c7.9-4.9,17.5-7.9,28.9-9c3.2-0.3,6.4-0.7,9.6-1
	c0,2.3,0,4.6,0,7c-17.9,0.7-33.3,4.9-47,11.5c-2.7,1.3-5.7,2.5-8.5,3.7c-10.8,4.7-22.9,6.7-36.3,6.1c-15.8-0.7-30.6-3.6-44.8-7.4
	c-17.8-4.8-35.2-10-52.9-14.9c-17.9-5-36.4-9.1-56.4-10.3c-18-1.1-34.2,1.2-48.3,7.9c-6.1,2.9-11.8,6-17.6,9.1
	c-10.1,5.3-19.8,10.9-30.2,16c-7.5,3.6-16.5,5.7-26.3,6.5c-13.8,1.1-26.6-0.8-39.1-4c-13-3.2-24.5-7.9-36.2-12.5
	C156.2,12.1,145,7.5,132,4.9C124.2,3.4,116,2.6,108,1.4z M108,87.6c0-3.3,0-6.6,0-9.9c17.4,2.6,33.7,6.8,48.4,12.8
	c15.4,6.3,30.2,13.2,45.4,19.7c8.5,3.6,16.9,7.5,26.1,10.5c25.7,8.3,52.1,3.9,67-10.8c4.1-4.1,7.1-8.6,10.4-12.9
	c4.4-5.9,8-11.9,13-17.6c7.4-8.4,19.2-13.9,34.9-16.4c11.6-1.9,23.4-1.9,35.3-1.1c18.4,1.2,36.2,4.1,53.9,6.9
	c43.6,6.9,88,10.7,133.3,9.7c11.9-0.3,23.7-1.4,35.6-2.1c0,2.6,0,5.1,0,7.7c-7.4,0.9-14.7,1.9-22.1,2.7c-27,3.2-53.6,2.6-79.6-2.9
	c-26.1-5.5-53.1-9.3-80.1-13.2c-18.7-2.7-37.5-4.6-56.9-3.5c-16,0.9-30.3,4.1-41.8,10.9c-7.9,4.7-12.7,10.6-17,16.5
	c-4.2,5.8-7.8,11.7-12.8,17.3c-10.3,11.6-26.7,17.5-49.5,16.8c-9.4-0.3-18.1-2.2-26.1-5C214.6,120,204,116,193.5,112
	C166.9,101.6,139.7,91.9,108,87.6z M611.3,142.5c0,4.4,0,8.8,0,13.2c-7.4,0.6-14.7,1.2-22.1,1.7c-14.9,1-29.9,1.4-44.8-0.2
	c-23.4-2.5-39.1-10.2-45.1-23.8c-2.3-5.3-3.8-10.8-5.6-16.1c-2.5-7.3-7.5-13.8-17.7-18.7c-12.4-5.8-26.1-10.2-41.4-12.7
	c-11.8-2-23.9-2.8-36-1.2C381.2,86.9,369.2,93,361,102c-5.4,6-8.4,12.5-11.4,18.9c-3.5,7.3-6.4,14.8-11.3,21.9
	c-8.4,12.1-24.3,19.5-46.4,22c-13,1.4-25.9,0.2-38.6-1.5c-34-4.5-67.9-9.2-102-13.5c-14.2-1.8-28.7-2.8-43.1-4.2c0-1.2,0-2.4,0-3.7
	c4.3,0.3,8.5,0.5,12.8,0.9c34.4,3,68.3,7.5,102.1,12.5c15.2,2.2,30.2,5.1,46,5.8c27.3,1.3,47.8-5.2,61.8-18.7
	c6.3-6.1,9.4-12.9,12.7-19.6c3.8-7.8,7.3-15.6,13.9-22.9c12.4-13.5,32-19.2,57.6-18.2c22.4,0.9,42.1,6,60.3,13.5
	c8,3.3,13.9,7.6,17.8,12.8c3.6,4.8,6.6,9.8,10,14.6c10.9,16,28.6,23.2,58.2,23.5C578.1,146.1,594.7,144.3,611.3,142.5z M329.4-18
	c22,0,44,0,66.1,0c26.1,7.1,52.3,14.3,78.4,21.4c14.4,3.9,29.2,7,44.7,8.9c17.1,2.2,32,0.1,44.3-7.3c2.8-1.7,5.9-3.1,8.6-4.8
	c10.8-6.7,24.2-10.1,39.7-10.9c0,1.7,0,3.4,0,5.1c-2.2,0.1-4.4,0.2-6.5,0.4c-13.7,1-24.9,4.3-33.2,10.9c-2.7,2.2-5.9,4.1-8.7,6.3
	c-9.1,6.8-21.3,8.9-35.5,7.9c-14.1-1-27.4-3.5-40.2-7C470,8.2,453,3.1,436-1.9c-17.6-5.2-35.4-10.1-54.8-12.7
	c-11.5-1.5-23.2-2.3-34.9-1.1c-14.2,1.4-25,6.2-34.7,12.1c-8.7,5.2-16.9,10.7-25.9,15.7c-14.9,8.3-32.4,10.4-52,6.6
	c-14.9-2.9-28.9-6.9-42.7-11.1c-16.4-5-32.8-10.1-50.6-13.3c-10.6-1.9-21.3-3.4-32.4-3.5c0-1.5,0-2.9,0-4.4c6.1,0.3,12.3,0.5,18.4,1
	c22.2,1.8,43.4,5.9,64.4,10.2c20.6,4.2,41.2,8.5,62,12.4c13.3,2.5,26.2,1.4,37.4-3.8c3.7-1.7,7.1-3.6,10.3-5.6
	C310.2-5.7,318.4-12.6,329.4-18z M611.3,35.1c0,2.2,0,4.4,0,6.6c-9.4-0.5-18.8-1.5-28.1-1.3c-22,0.3-44,1-65.9,1.9
	c-31.1,1.3-61.2-0.3-90.2-7.6c-13.1-3.3-27-5.7-40.8-7.8c-13.9-2.1-28.1-2-41.7,1.3c-11.9,2.9-21.3,7.8-28.9,13.8
	c-9,7-17.3,14.2-26,21.4c-8.2,6.8-16.9,13.3-28.8,18c-11.4,4.5-23.8,6.9-37.7,5.5c-9.9-1-18.4-3.9-25.7-7.7
	c-9.6-5.2-18.6-10.6-27.7-15.9c-11-6.3-22.1-12.6-36.2-16.5c-8.2-2.3-17-3.7-25.6-5.4c0-2.2,0-4.4,0-6.6c0.8,0,1.7,0,2.5,0.1
	c11.2,1.4,21.6,3.9,31.2,7.4c11.6,4.3,21.3,9.9,31.2,15.3c8.2,4.5,16.2,9.3,25.2,13.2c19.3,8.4,41.4,8.4,61.7,0.9
	c10.9-4.1,19.4-9.6,27.4-15.5c9.4-6.9,18.4-13.9,28.2-20.6c8.6-5.9,19.1-10.5,32.1-12.6c12.8-2.1,25.7-1.7,38.6-0.1
	c16.5,2,32.1,5.6,47.7,9.1c20.7,4.6,41.9,7.6,64.2,6.7c16.8-0.7,33.6-1.6,50.4-2.6C569.4,34.8,590.3,33.7,611.3,35.1z M108,50.9
	c0-1.7,0-3.4,0-5.1c16.7,2.2,31.7,6.4,44.5,13c7.3,3.8,14.1,7.9,21,11.8c9.7,5.5,18.9,11.3,29,16.5c9.7,4.9,21.3,7.5,34.6,6.4
	c10.3-0.9,19.2-3.7,27.3-7.5c11.5-5.4,19.9-12.3,28.3-19.3c9-7.5,17.8-15.1,27.5-22.3c9.3-6.8,21.3-11.7,36.5-13.4
	c11.6-1.3,23.3-1,34.6,0.8c14.8,2.4,29.6,5,44,8c22.4,4.7,45.3,7,69.1,6.3c10.9-0.3,21.8-0.7,32.6-1.2c24.8-1.1,49.6-2.1,74.2,0.9
	c0,1.7,0,3.4,0,5.1c-5.2-0.4-10.4-0.9-15.6-1.1c-22.5-1-44.8,0.5-67.2,1.3c-15.3,0.5-30.6,0.7-45.8-0.3c-16.2-1-30.9-4.6-45.8-8.2
	c-12.1-2.9-24.3-5.8-36.8-7.9c-17.4-3.1-34.4-2-50.3,3.5c-9.4,3.3-17.4,7.5-23.9,12.6c-8.7,6.8-17,13.8-25.3,20.7
	c-10.4,8.7-21,17.2-36.6,23.1c-20.6,7.7-38.5,7.9-56.4,0.2c-7.3-3.1-13.8-6.9-20.3-10.6c-11-6.3-21.4-12.9-32.7-19
	C141.3,58,125.8,53.1,108,50.9z M108,59.7c0-1.6,0-3.2,0-4.8c13.9,1.9,26.4,5.4,38,10.2c13.3,5.6,24.4,12.5,35.7,19.3
	c9.2,5.6,18.2,11.3,29.3,15.7c14.8,5.9,30.3,6.7,46.7,2.4c14.8-4,26.2-10.3,35.5-17.8c8.1-6.6,15.6-13.4,23.3-20.2
	c8.4-7.4,17.2-14.8,28.8-20.7c17.4-8.9,37.1-11.7,59-6.9c11.8,2.5,23.4,5.4,34.4,8.8c23.5,7.4,48.5,10.7,74.9,10.3
	c18.2-0.2,36.4-1,54.6-1.2c14.3-0.2,28.7,0.1,43,0.1c0,1.6,0,3.2,0,4.8c-2.1,0-4.2-0.1-6.3-0.1c-25.5,0.5-50.9,0.9-76.4,1.4
	c-32.7,0.7-64.1-1.9-93.3-11.2c-11.9-3.8-24.5-6.7-37.6-8.7c-19.3-2.9-36.2-0.7-50.8,7.4c-8.2,4.5-15.2,9.6-21.3,15.1
	c-8.6,7.8-16.7,15.8-25.5,23.5c-8.8,7.8-19.4,14.7-33.7,19.3c-18.2,5.9-36,5.8-53.2-1.3c-3.4-1.4-6.9-2.8-9.9-4.5
	c-11.6-6.5-23-13-34.4-19.6C151.5,71.2,132.1,63.1,108,59.7z M108,150.2c0-0.9,0-1.7,0-2.6c0.6,0.1,1.2,0.2,1.8,0.3
	c39.7,3.6,78.8,8.7,117.9,14c15.4,2.1,30.8,4.3,46.4,5.6c31.4,2.5,57.5-6.7,68.8-24c3.1-4.8,5.2-9.8,7.3-14.8
	c3.3-7.9,5.9-16,11.9-23.5c11.7-14.5,32-21.1,59.2-19.2c16.9,1.2,31.7,5.4,45.8,10.9c16.5,6.4,24.4,15.2,25.2,26.6
	c0.3,4.9,0.8,9.8,2,14.6c3.2,13.7,15.9,22.8,38.7,26.9c17.5,3.1,35.3,3,53.3,2.3c8.3-0.4,16.7-0.9,25-1.3c0,3.4,0,6.8,0,10.3
	c-2,0-4,0-5.9,0.1c-10.5,0.3-20.9,0.9-31.4,1c-14.6,0.2-29.1-0.4-43.2-3c-13.3-2.4-24.7-6.4-32.3-13.4c-5.9-5.5-8.4-11.6-8.5-18
	c-0.1-6.1,0.5-12.2,0.4-18.3c-0.2-7.4-3.3-14.2-12.4-19.6c-13.5-8-29.5-13.6-48.3-16.3c-12.1-1.7-24.1-1.8-35.8,1
	c-12.1,2.8-20.6,8-26.7,14.6c-5.8,6.3-8.6,13.1-11.3,19.9c-2.9,7.4-5.4,14.8-9.5,22c-7.2,12.3-22.3,20-43.9,23.1
	c-13.8,2-27.8,1-41.5-0.7c-32.2-4.1-64.4-8.4-96.7-12.4C145.6,154,126.7,152.3,108,150.2z M108,152.4c25.5,2.9,51,5.7,76.5,8.7
	c26.2,3.1,52.2,6.6,78.3,9.8c12.6,1.5,25.3,2.5,38.1,1.1c25.6-2.7,42.5-11.5,49.8-25.9c3.9-7.6,6-15.6,8.9-23.4
	c2.1-5.7,4.7-11.3,9.2-16.5c11.7-13.5,31.8-19.3,57.2-16.3c21.2,2.5,38.5,9,52.6,18.4c9.1,6.1,11.4,13.4,10.8,21.2
	c-0.5,6.8-1.8,13.5-1.4,20.3c0.6,12.1,9.4,21.5,29.1,26.7c7.9,2.1,16.3,3.1,24.9,3.7c20.1,1.4,40.2,0.2,60.2-0.9c3-0.2,6-0.4,9-0.6
	c0,1.3,0,2.7,0,4c-6.1,0.2-12.1,0.4-18.2,0.5c-19.6,0.5-39.2,0.6-58.6-1.7c-9.6-1.2-18.8-2.9-27.2-6c-13.1-4.8-20.5-11.8-21.1-20.7
	c-0.4-5.9,0.9-11.9,1.4-17.9c0.3-4.4,1.1-8.8,0.5-13.1c-0.9-6.5-6.8-11.8-14.5-16.5c-12.2-7.5-26.4-13.2-43.6-16
	c-26.9-4.4-48.8,1.7-60,16.6c-5.5,7.4-7.8,15.2-9.9,23c-2.1,7.5-3.9,15-8.7,22.1c-10.7,15.7-35.6,24.7-64.4,22.4
	c-17.7-1.4-35.2-3.7-52.8-5.8c-41.3-4.7-82.6-9.6-123.9-14.3c-0.8-0.1-1.7-0.1-2.5-0.2C108,154.4,108,153.4,108,152.4z M108-15.4
	c0-0.6,0-1.3,0-1.9c1,0,2.1,0.1,3.1,0.1c19.8,0.1,39.4,0.9,58.9,2.7c27,2.5,54,5.2,80.8,8.2c16.4,1.8,31,0,44.2-5.8
	c4.2-1.9,8.3-3.9,12.4-5.9c5,0,10.1,0,15.1,0c-8.6,5.4-16.8,11-25.9,16.2c-11.9,6.7-26.3,8.5-42.2,5.9c-18.1-3-36.3-6-54.4-9
	c-21.1-3.7-42.3-7.1-64.2-8.9C126.6-14.5,117.3-14.9,108-15.4z M416.3-18c6.7,0,13.4,0,20.1,0c0.2,0.1,0.4,0.3,0.7,0.4
	c14.4,3.8,28.6,7.8,43.2,11.3C500.4-1.5,521-0.2,542-4.4c13.3-2.7,26.5-5.7,39.8-8.5c9.6-2,19.3-3.7,29.6-3.9c0,1.2,0,2.4,0,3.7
	c-1,0.1-2,0.3-3.1,0.4c-12.3,1-23.6,3.4-33.5,7.7c-5.8,2.5-11.5,5.1-17.4,7.6c-11.8,5-24.9,6.7-39.3,5.4
	c-15.9-1.5-30.7-4.9-45.1-8.9c-18.5-5.3-36.9-10.7-55.4-16.1C417.1-17.5,416.7-17.8,416.3-18z M448.3-18c48.4,0,96.9,0,145.3,0
	c-2.5,0.4-4.9,0.9-7.4,1.3c-15.5,2.4-30.9,5-46.4,7.3c-14.7,2.1-29.5,2.9-44.5,1.3c-16-1.7-30.9-5.3-45.6-9.2
	C449.2-17.4,448.8-17.8,448.3-18z M293-18c-0.7,0.5-1.3,1-2.2,1.3c-13.9,5.2-28.8,6.7-45.2,5.2c-30.6-2.7-61.2-5-92.1-5.9
	c-2.2-0.1-4.3-0.4-6.5-0.6C195.7-18,244.3-18,293-18z"/></svg>