<?xml version="1.0" encoding="utf-8"?><!--Generator: Adobe Illustrator 19.0.0, SVG Export Plug-In . SVG Version: 6.00 Build 0)--><svg version="1.1" id="Layer_1" xmlns="http://www.w3.org/2000/svg" xmlns:xlink="http://www.w3.org/1999/xlink" x="0px" y="0px" viewBox="108 -18 503.3 324" style="enable-background:new 108 -18 503.3 324" xml:space="preserve"><path id="XMLID_1_" d="M590.6,283c5.9,2,11.1-4.5,5.1-6.5c-9-3.1-18.4-2.1-27,1.4c-7.8,3.2-16.1,8-20.1,14.1
	c-2.9,4.4,5.9,8.2,8.8,3.8c3-4.5,8.8-7.8,14.4-10.4C577.4,282.7,584.3,280.8,590.6,283z M594.2,292.4c-5.6,0.8-10.8-0.1-15.7-2.3
	c-5.6-2.5-10.8,4-5.1,6.5c7.2,3.2,15.3,4.3,23.5,3C603.4,298.7,600.7,291.4,594.2,292.4z M574,239.9c4,4.4,8.2,8.7,11.9,13.2
	c3.3,4,5.8,8.6,4.5,13.4c-1.4,4.8,8.5,6.8,9.8,2c3.6-12.5-8.6-22.8-17.4-32.4C579.1,232,570.3,235.8,574,239.9z M557.1,236.2
	c-0.3,5.8,1.2,11.8,5.1,16.9c3.9,5.2,9.7,9.7,14.5,14.3c1.7,1.6,5.4,1.3,7.2,0c2.2-1.6,1.7-3.8,0-5.4c-4.2-4-8.9-7.8-12.4-12.1
	c-3.4-4.1-4.5-9-4.2-13.8C567.6,231.3,557.4,231.3,557.1,236.2z M555.9,275.3c1.1-0.7,4.4-3.5,6.1-3.3c6.4,0.8,9.2-6.5,2.7-7.3
	c-7.6-1-12.7,3.1-18,6.5c-5.7,3.7-11.3,7.3-17,11c-5,3.2,2.3,8.5,7.2,5.4c4.3-2.8,8.7-5.6,13-8.4
	C551.9,277.9,553.9,276.6,555.9,275.3z M597.8,226.3c-1.2-2.6-2.3-6.2-5.1-8.2c-3.1-2.2-8.5-1.9-12.4-1.4c-4.2,0.5-8.2,1.9-11.7,3.7
	c-5.4,2.8-0.3,9.3,5.1,6.5c2.5-1.3,5.2-2.3,8.2-2.8c1-0.1,2.1-0.1,3.1-0.2c0.4,0.1,0.7,0.1,0.9,0.1c0.2,0.3,0.4,0.6,0.5,0.9
	c2.2,4.2,3.8,8.6,4.8,13c1.1,4.8,11,2.8,9.8-2C600.2,232.7,599.2,229.4,597.8,226.3z M497.9,249.2c2.6-2.1,5.2-4.3,7.9-6.4
	c2.2-1.8,4.6-4.5,7.7-5.6c2.8-1,6.7-0.7,9.7-0.7c1.8,0,3.6,0,5.4,0c-3.8,10-3.4,20.6-2.7,30.9c0.2,3.5,5.3,4.7,8.7,2.7
	c5.9-3.6,11.8-7.1,17.7-10.7c2.2-1.3,1.8-4,0-5.4c-2.1-1.6-5.1-1.3-7.2,0c-3.2,1.9-6.3,3.8-9.5,5.7c-0.4-8.5-0.1-17.3,4.4-25
	c1.5-2.7-0.2-5.5-4.4-5.7c-4.6-0.2-9.1-0.2-13.7-0.1c-4.2,0.1-8.7,0-12.6,1.4c-3.6,1.3-6.3,3.6-8.9,5.7c-3.2,2.6-6.4,5.3-9.6,7.9
	C486.3,247.5,493.4,252.8,497.9,249.2z M534.1,295.5c-4.1-1.4-8.5-2.9-11.2-5.7c-3-3.1-4-7.2-4.5-10.8c-1.2-8.8,0.4-17.7-0.3-26.5
	c-0.4-4.8-10.6-4.9-10.2,0c0.8,10.1-1.2,20.2,1,30.3c1,4.4,2.9,8.8,6.7,12.3c3.5,3.3,8.4,5.3,13.4,7
	C534.9,304.1,540.1,297.6,534.1,295.5z M549.9,244.7c4.3-5,5.6-10.6,6.9-16.3c1.4-6.1,2.6-12.3,3.1-18.5c0.4-4.9-9.8-4.8-10.2,0
	c-0.5,5.5-1.6,11-2.8,16.4c-1.1,5.1-2.1,10.1-5.9,14.5C537.5,245,546.3,248.8,549.9,244.7z M568.9,214.6c8.2-3,16.4-6,24.7-9
	c3-1.1,3.2-4.3,1-5.9c-2.8-2.1-4.5-4.7-6.4-7.3c-2.1-2.8-4.2-5.5-6.6-8.1c-4.6-5.2-9.9-10.1-15.6-14.6c-4.5-3.5-11.7,1.8-7.2,5.4
	c5.7,4.5,10.8,9.4,15.3,14.6c3.1,3.6,5.6,7.8,8.9,11.4c-6.4,2.3-12.8,4.7-19.3,7C557.9,210.3,563,216.8,568.9,214.6z M541,218.7
	c2.7-6.8,5.5-13.5,8.2-20.3c5.3-0.9,10.5-1.7,15.8-2.4c6.4-0.9,3.7-8.2-2.7-7.3c-6.2,0.8-12.3,1.8-18.5,2.8
	c-1.7,0.3-3.1,1.4-3.6,2.6c-3,7.5-6.1,15-9.1,22.5C529.3,221.4,539.1,223.4,541,218.7z M498.9,224.1c6.6-3.6,14.3-5.5,22.4-4.3
	c6.4,0.9,9.1-6.4,2.7-7.3c-10.7-1.6-21.4,0.2-30.2,5c-2.2,1.2-3.3,3.3-1.8,5.2C493.1,224.4,496.6,225.3,498.9,224.1z M504.4,294.2
	c-5.5-1.6-2.7-10.5-2.5-13.5c0.4-6.3,0.5-12.6,0.2-18.8c-0.2-4.9-10.4-4.9-10.2,0c0.3,7.9,0.2,15.8-0.6,23.7
	c-0.6,6.5,1.3,13.4,10.4,16C507.8,303.3,510.4,296,504.4,294.2z M484,296.9c-7.8-3.3-13.3-9.1-18.9-14.2c-4.9-4.4-9.8-8.7-14.6-13.1
	c5.4-1.2,10.9-2.4,16.3-3.7c2.5,3.5,4.6,7.1,6.5,10.9c2.2,4.5,12.1,2.6,9.8-2c-2.6-5.3-5.7-10.4-9.4-15.3c-1.1-1.4-3.6-2.2-5.8-1.7
	c-9.2,2.1-18.4,4.1-27.6,6.2c-3.9,0.9-4.7,4.2-2.2,6.3c6.9,6.2,13.8,12.4,20.7,18.5c6,5.3,11.8,11.1,20.1,14.6
	C484.5,305.8,489.7,299.3,484,296.9z M476.4,220.1c-2.7,0.3-4.1,1.8-4.4,3.7c-0.3,1.8-2.5,3.5-4,4.9c-1.9,1.8-3.7,3.5-5.7,5.2
	c-4.1,3.6-8.2,7.2-12.5,10.7c-4.4,3.6,2.8,9,7.2,5.4c5.2-4.2,10.2-8.5,15-12.9c0.8-0.8,1.7-1.5,2.5-2.3c1.5,7.1,2.5,14.3,1.9,21.5
	c-0.4,4.9,9.8,4.9,10.2,0c0.9-11.3-1.8-22.5-4.6-33.5C481.5,220.9,478.7,219.8,476.4,220.1z M600,210.4c-9,0-9,7.6,0,7.6
	C600,218,604,210.4,600,210.4z M597.4,149.7c-4.4,4-8.8,8-13.2,12c-1.8-3.8-3.5-7.6-4.9-11.5c7.8-7.1,15.6-14.1,23.4-21.2
	c1.8-1.6,2.1-3.8,0-5.4c-1.8-1.4-5.5-1.6-7.2,0c-7.9,7.2-15.8,14.3-23.7,21.5c-2.3,2.1-3.6,3.3-2.7,6.2c0.7,2.2,1.6,4.3,2.5,6.5
	c1.8,4.2,3.8,8.3,6.1,12.4c1.3,2.3,5.8,4.1,8.5,1.7c3-2.8,6.1-5.5,9.1-8.3c-0.5,10-0.6,20.1-0.5,30.1c0.1,4.9,10.3,4.9,10.2,0
	c-0.2-13.8,0.2-27.5,1.1-41.2C606.3,149.3,600.2,147.2,597.4,149.7z M533.2,202.6c0-9.6,0.1-19.3,0.1-28.9c0-3.4-5.5-4.8-8.7-2.7
	c-6,4-12.9,7-20.4,8.9c1.2-17.2,2.7-34.4,4.5-51.5c0.5-4.9-9.7-4.8-10.2,0c-2,18.8-3.6,37.6-4.8,56.5c-0.2,2.6,3.4,4.1,6.4,3.7
	c8.3-1.2,16-3.7,23-7.1c0,7.1-0.1,14.2-0.1,21.2C522.9,207.5,533.1,207.5,533.2,202.6z M535,162.4c1.7,5.5,3.4,10.9,5.1,16.4
	c-1.9,0.6-3.2,2.2-3.2,3.6c0,2.3,2.4,3.5,5.1,3.8c2,0.2,3.8,0,5.7-0.5c2.7-0.7,4.2-2.5,3.6-4.7c-2.1-6.9-4.3-13.8-6.4-20.7
	C543.3,155.7,533.5,157.7,535,162.4z M547.1,137.8c-0.4,5.2-1.9,10.5-0.3,15.7c1.2,4,4.5,8.3,10.2,9.2c6.4,1,9.1-6.3,2.7-7.3
	c-2.8-0.5-3.4-4.4-3.5-6.2c-0.2-3.8,0.7-7.6,1-11.4C557.6,132.9,547.4,132.9,547.1,137.8z M459.7,225.9c2.2,1,5.9,0.5,7-1.4
	c3.2-5.4,6.4-10.8,9.6-16.2c1.2-2,2.3-3.9,3.6-5.9c1.7,5.3,5.6,10.2,14,8.7c5-0.9,9.6-3.9,13.4-6.4c4.3-2.8,8.1-6.1,11.5-9.5
	c1.7-1.6,0.3-4.2-1.8-5.2c-2.6-1.2-5.3-0.3-7,1.4c-4.2,4.2-9.3,8-15.1,10.9c-2.6,1.3-3.5,2.2-4.9-0.3c-1.3-2.4-1.2-5.1-1.3-7.7
	c-0.1-2.6-3.2-4.1-6.4-3.7c-7.1,1-10.5,6.5-13.2,10.9c-3.8,6.3-7.5,12.6-11.3,18.9C456.7,222.6,457.1,224.8,459.7,225.9z M472,144
	c0,15,0,25,0,36c0,4,12,4,12,0c0,0,0-21,0-36C484,140,472,140,472,144z M528.2,125.5c1.6-4.7-8.3-6.8-9.8-2
	c-2.3,7.1-4.4,14.2-6.3,21.3c-1.9,7.1-4.5,14.6-3.7,21.8c0.5,4.8,10.7,4.9,10.2,0c-0.7-6.9,1.8-14,3.6-20.8
	C524,139,526,132.2,528.2,125.5z M526,147.5c-1.8,4.7,8,6.7,9.8,2c0.7-1.9,2.4-3.5,3.5-5.2c1.2-2,2-4.1,2.5-6.2c1-4.5,1.1-9,1-13.6
	c-0.1-4.9-10.3-4.9-10.2,0c0.1,4.1,0.3,8.3-0.8,12.3C530.8,140.8,527.5,143.8,526,147.5z M566.4,122.9c-1.3-2.1-3.9-2.5-6.8-2.6
	c-3.4,0-6.8,0-10.1,0c-6.6,0-6.6,7.6,0,7.6c2.5,0,5-0.1,7.6-0.1c0,0.9-0.1,1.9,0,2.5c0,2,0.1,4.1,0.1,6.1c0.1,2.2,3.3,4.6,6.4,3.7
	c12.8-3.7,20.6-12.4,28-20.6c3.7-4.1-5.1-7.9-8.8-3.8c-4.3,4.7-9.1,10.6-15.6,14.4c0-0.4,0-0.8,0-1.2
	C567.1,127,567.5,124.7,566.4,122.9z M601,96.9c-5.8-4.7-14.8-4.4-20.2,0.5c-2.6,2.4-4.1,5.2-6.6,7.6c-0.6,0.6-1.4,1-2.1,1.5
	c-0.1,0.1-0.3,0.1-0.4,0.2c-0.8-0.2-1.4-0.9-2.1-1.2c-1-0.4-2-0.8-3.1-1c-4.6-0.9-10.1-0.6-14.8-0.5c-5.2,0.1-10.4,0.5-15.6,1
	c-2.7,0.3-5.1,1.5-5.1,3.8c0,1.8,2.3,4.1,5.1,3.8c8.5-0.8,17.4-1.4,26-0.9c3.4,0.2,5.3,2.5,8.9,2.6c3.6,0.2,6.9-1.2,9.4-3
	c2.6-1.9,4.3-4.4,6.2-6.7c0.9-1.2,2.4-3.5,4.6-3.5c2.6,0,4.1,2.9,4.7,4.3c1,2.7,0.9,5.5,0,8.3c-1.5,4.7,8.3,6.8,9.8,2
	C607.6,109.3,607,101.8,601,96.9z M571.6,106.6C571.4,106.7,571.3,106.6,571.6,106.6L571.6,106.6z M418.5,283
	c5.9,2,11.1-4.5,5.1-6.5c-9-3.1-18.4-2.1-27,1.4c-7.8,3.2-16.1,8-20.1,14.1c-2.9,4.4,5.9,8.2,8.8,3.8c3-4.5,8.8-7.8,14.4-10.4
	C405.3,282.7,412.2,280.8,418.5,283z M428,268.5c3.6-12.5-8.6-22.8-17.4-32.4c-3.7-4-12.5-0.2-8.8,3.8c0.1,0.1,0.3,0.3,0.4,0.4h11
	c1.6,0,2.8,1.3,2.8,2.8v13.1c2,3.2,3.1,6.7,2.1,10.2C416.8,271.2,426.6,273.3,428,268.5z M399.7,263c1.7,1.5,3.3,3,4.9,4.4
	c1.7,1.6,5.4,1.3,7.2,0c1.8-1.3,1.8-3,0.8-4.4H399.7z M395.3,240.3c-0.2-1.4-0.2-2.7-0.1-4.1c0.3-4.9-9.9-4.9-10.2,0
	c-0.1,1.4,0,2.7,0.1,4.1H395.3z M383.7,275.3c1.1-0.7,4.4-3.5,6.1-3.3c6.4,0.8,9.2-6.5,2.7-7.3c-7.6-1-12.7,3.1-18,6.5
	c-5.7,3.7-11.3,7.3-17,11c-5,3.2,2.3,8.5,7.2,5.4c4.3-2.8,8.7-5.6,13-8.4C379.7,277.9,381.7,276.6,383.7,275.3z M362.3,270
	c3.9-2.4,7.8-4.7,11.7-7.1h-20.6c0.1,1.5,0.2,2.9,0.3,4.4C353.9,270.8,358.9,272.1,362.3,270z M341.2,237.2c2.8-1,6.7-0.7,9.7-0.7
	c1.8,0,3.6,0,5.4,0c-0.5,1.3-0.9,2.6-1.3,3.9h10.2c0.6-1.9,1.4-3.8,2.5-5.6c1.5-2.7-0.2-5.5-4.4-5.7c-4.6-0.2-9.1-0.2-13.7-0.1
	c-4.2,0.1-8.7,0-12.6,1.4c-3.6,1.3-6.3,3.6-8.9,5.7c-1.8,1.4-3.5,2.9-5.3,4.3h13.5C337.8,239,339.4,237.8,341.2,237.2z M362,295.5
	c-4.1-1.4-8.5-2.9-11.2-5.7c-3-3.1-4-7.2-4.5-10.8c-0.7-5.3-0.5-10.6-0.3-16h-10.1c-0.2,6.6-0.5,13.2,0.9,19.7
	c1,4.4,2.9,8.8,6.7,12.3c3.5,3.3,8.4,5.3,13.4,7C362.7,304.1,367.9,297.6,362,295.5z M384.6,228.4c1.4-6.1,2.6-12.3,3.1-18.5
	c0.4-4.9-9.8-4.8-10.2,0c-0.5,5.5-1.6,11-2.8,16.4c-1.1,4.9-2,9.7-5.4,13.9h11.3C382.7,236.5,383.7,232.5,384.6,228.4z M398.3,213.8
	c7.7-2.8,15.4-5.4,23.1-8.2c3-1.1,3.2-4.3,1-5.9c-2.8-2.1-4.5-4.7-6.4-7.3c-2.1-2.8-4.2-5.5-6.6-8.1c-4.6-5.2-9.9-10.1-15.6-14.6
	c-4.5-3.5-11.7,1.8-7.2,5.4c5.7,4.5,10.8,9.4,15.3,14.6c3.1,3.6,5.6,7.8,8.9,11.4c-5.9,2.1-11.8,4.1-17.6,6.3
	C387.3,209.5,392.5,216,398.3,213.8z M368.9,218.7c2.7-6.8,5.5-13.5,8.2-20.3c5.3-0.9,10.5-1.7,15.8-2.4c6.4-0.9,3.7-8.2-2.7-7.3
	c-6.2,0.8-12.3,1.8-18.5,2.8c-1.7,0.3-3.1,1.4-3.6,2.6c-3,7.5-6.1,15-9.1,22.5C357.2,221.4,367,223.4,368.9,218.7z M321.6,217.5
	c-2.2,1.2-3.3,3.3-1.8,5.2c1.3,1.6,4.7,2.6,7,1.4c6.6-3.6,14.3-5.5,22.4-4.3c6.4,0.9,9.1-6.4,2.7-7.3
	C341.1,210.9,330.4,212.7,321.6,217.5z M332.2,294.2c-5.5-1.6-2.7-10.5-2.5-13.5c0.4-5.9,0.5-11.8,0.2-17.7c0-0.4,0-0.8,0-1.1
	c-0.2-4.9-10.4-4.9-10.2,0c0,0.4,0,0.8,0,1.1c0.3,7.5,0.1,15-0.6,22.5c-0.6,6.5,1.3,13.4,10.4,16C335.7,303.3,338.3,296,332.2,294.2
	z M311.8,296.9c-7.8-3.3-13.3-9.1-18.9-14.2c-4.9-4.4-9.8-8.7-14.6-13.1c5.4-1.2,10.9-2.4,16.3-3.7c2.5,3.5,4.6,7.1,6.5,10.9
	c2.2,4.5,12.1,2.6,9.8-2c-2-4-4.3-8-6.9-11.8c-0.8-1.2-1.6-2.3-2.5-3.5c-1.1-1.4-3.6-2.2-5.8-1.7c-7.7,1.7-15.5,3.5-23.2,5.2
	c-1.5,0.3-2.9,0.7-4.4,1c-3.9,0.9-4.7,4.2-2.2,6.3c6.9,6.2,13.8,12.4,20.7,18.5c6,5.3,11.8,11.1,20.1,14.6
	C312.4,305.8,317.5,299.3,311.8,296.9z M296.2,240.3c1.2-1.1,2.4-2.2,3.6-3.3c0.8-0.8,1.7-1.5,2.5-2.3c0.4,1.8,0.7,3.7,1,5.5h10.2
	c-0.9-5.9-2.4-11.7-3.8-17.5c-0.5-1.8-3.3-2.9-5.6-2.7c-2.7,0.3-4.1,1.8-4.4,3.7c-0.3,1.8-2.5,3.5-4,4.9c-1.9,1.8-3.7,3.5-5.7,5.2
	c-2.4,2.2-4.9,4.3-7.4,6.4h13.6V240.3z M428,218c0,0,6-7.6,0-7.6C421,210.4,421,218,428,218z M425.2,149.7c-4.4,4-8.8,8-13.2,12
	c-1.8-3.8-3.5-7.6-4.9-11.5c7.8-7.1,15.6-14.1,23.4-21.2c1.8-1.6,2.1-3.8,0-5.4c-1.8-1.4-5.5-1.6-7.2,0
	c-7.9,7.2-15.8,14.3-23.7,21.5c-2.3,2.1-3.6,3.3-2.7,6.2c0.7,2.2,1.6,4.3,2.5,6.5c1.8,4.2,3.8,8.3,6.1,12.4c1.3,2.3,5.8,4.1,8.5,1.7
	c3-2.8,6.1-5.5,9.1-8.3c-0.5,10-0.6,20.1-0.5,30.1c0.1,4.9,10.3,4.9,10.2,0c-0.2-13.8,0.2-27.5,1.1-41.2
	C434.1,149.3,428,147.2,425.2,149.7z M361,202.6c0-9.6,0.1-19.3,0.1-28.9c0-3.4-5.5-4.8-8.7-2.7c-6,4-12.9,7-20.4,8.9
	c1.2-17.2,2.7-34.4,4.5-51.5c0.5-4.9-9.7-4.8-10.2,0c-2,18.8-3.6,37.6-4.8,56.5c-0.2,2.6,3.4,4.1,6.4,3.7c8.3-1.2,16-3.7,23-7.1
	c0,7.1-0.1,14.2-0.1,21.2C350.8,207.5,361,207.5,361,202.6z M362.8,162.4c1.7,5.5,3.4,10.9,5.1,16.4c-1.9,0.6-3.2,2.2-3.2,3.6
	c0,2.3,2.4,3.5,5.1,3.8c2,0.2,3.8,0,5.7-0.5c2.7-0.7,4.2-2.5,3.6-4.7c-2.1-6.9-4.3-13.8-6.4-20.7
	C371.2,155.7,361.3,157.7,362.8,162.4z M373.5,142c-0.2,4.4,0.1,8.8,0.9,13.2c0.7,3.9,2.6,8.1,8.4,9c6.4,1,9.1-6.3,2.7-7.3
	c-0.1,0-0.2,0-0.3,0c-0.3-0.4-0.4-0.9-0.5-1.3c-0.4-1.4-0.5-2.8-0.7-4.2c-0.3-3.1-0.6-6.2-0.4-9.3C384,137.1,373.8,137.1,373.5,142z
	 M335.2,204.8c4.3-2.8,8.1-6.1,11.5-9.5c1.7-1.6,0.3-4.2-1.8-5.2c-2.6-1.2-5.3-0.3-7,1.4c-4.2,4.2-9.3,8-15.1,10.9
	c-2.6,1.3-3.5,2.2-4.9-0.3c-1.3-2.4-1.2-5.1-1.3-7.7c-0.1-2.6-3.2-4.1-6.4-3.7c-7.1,1-10.5,6.5-13.2,10.9
	c-3.8,6.3-7.5,12.6-11.3,18.9c-1.1,1.9-0.7,4,1.8,5.2c2.2,1,5.9,0.5,7-1.4c3.2-5.4,6.4-10.8,9.6-16.2c1.2-2,2.3-3.9,3.6-5.9
	c1.7,5.3,5.6,10.2,14,8.7C326.8,210.4,331.4,207.3,335.2,204.8z M310,180c0,0,0-21,0-36c0-4-11-4-11,0c0,1,0,2.1,0,3.1
	c-0.5-1.5-2.1-2.7-4.7-2.7c-3.7,0-7.4,0-11.1,0c-3.2,0-6.5,0-9,1.8c-4.7,3.4-2.6,10.5-2.1,14.8c0.2,2,2.2,3.9,5.1,3.8
	c3.2-0.1,6.3,0.3,9.2,1.4c1.2,0.5,2.3,0.9,2.5,1.3c0.5,1.2,0,2.9,0,4.2c-0.1,5.6-0.2,11.2-0.3,16.8c-0.1,4.9,10.1,4.9,10.2,0
	c0.1-3.8,0.1-7.6,0.2-11.4c0-0.5,0-1,0.1-1.5c0,1.5,0,2.9,0,4.4C299,184,310,184,310,180z M298.8,165.9c-1.3-5.4-9.7-8-16.9-8.6
	c-0.1-0.7-0.1-1.4-0.2-2.1c0-0.8-0.1-1.6-0.1-2.4c0-0.3,0-0.6,0-0.8c0.4,0,0.8,0,0.9,0c1.3,0,2.6,0,3.9,0c2.6,0,5.2,0,7.8,0
	c2.6,0,4.2-1.2,4.7-2.7c0,6.6,0,12.2,0,17.5C299,166.5,298.9,166.2,298.8,165.9z M346.3,123.5c-2.3,7.1-4.4,14.2-6.3,21.3
	c-1.9,7.1-4.5,14.6-3.7,21.8c0.5,4.8,10.7,4.9,10.2,0c-0.7-6.9,1.8-14,3.6-20.8s3.9-13.6,6.1-20.3
	C357.6,120.8,347.8,118.7,346.3,123.5z M363.7,149.6c0.7-1.9,2.4-3.5,3.5-5.2c1.2-2,2-4.1,2.5-6.2c1-4.5,1.1-9,1-13.6
	c-0.1-4.9-10.3-4.9-10.2,0c0.1,4.1,0.3,8.3-0.8,12.3c-1.1,3.9-4.4,6.9-5.8,10.6C352.1,152.2,361.9,154.3,363.7,149.6z M394.3,122.9
	c-1.3-2.1-3.9-2.5-6.8-2.6c-3.4,0-6.8,0-10.1,0c-6.6,0-6.6,7.6,0,7.6c2.5,0,5-0.1,7.6-0.1c0,0.9-0.1,1.9,0,2.5c0,2,0.1,4.1,0.1,6.1
	c0.1,2.2,3.3,4.6,6.4,3.7c12.8-3.7,20.6-12.4,28-20.6c3.7-4.1-5.1-7.9-8.8-3.8c-4.3,4.7-9.1,10.6-15.6,14.4c0-0.4,0-0.8,0-1.2
	C395,127,395.4,124.7,394.3,122.9z M408.6,97.4c-2.6,2.4-4.1,5.2-6.6,7.6c-0.6,0.6-1.4,1-2.1,1.5c-0.1,0.1-0.3,0.1-0.4,0.2
	c-0.8-0.2-1.4-0.9-2.1-1.2c-1-0.4-2-0.8-3.1-1c-4.6-0.9-10.1-0.6-14.8-0.5c-5.2,0.1-10.4,0.5-15.6,1c-2.7,0.3-5.1,1.5-5.1,3.8
	c0,1.8,2.3,4.1,5.1,3.8c8.5-0.8,17.4-1.4,26-0.9c3.4,0.2,5.3,2.5,8.9,2.6c3.6,0.2,6.9-1.2,9.4-3c2.6-1.9,4.3-4.4,6.2-6.7
	c0.9-1.2,2.4-3.5,4.6-3.5c2.6,0,4.1,2.9,4.7,4.3c1,2.7,0.9,5.5,0,8.3c-1.5,4.7,8.3,6.8,9.8,2c2-6.2,1.5-13.7-4.6-18.6
	C423,92.1,414,92.5,408.6,97.4z M399.5,106.6C399.2,106.7,399.1,106.6,399.5,106.6L399.5,106.6z M158.3,100.2
	c-3,4.5-8.8,7.8-14.4,10.4c-5.5,2.6-12.4,4.5-18.7,2.3c-5.9-2-11.1,4.5-5.1,6.5c9,3.1,18.4,2.1,27-1.4c7.8-3.2,16.1-8,20.1-14.1
	C170,99.6,161.2,95.8,158.3,100.2z M121.6,103.5c5.6-0.8,10.8,0.1,15.7,2.3c5.6,2.5,10.8-4,5.1-6.5c-7.2-3.2-15.3-4.3-23.5-3
	C112.5,97.2,115.2,104.5,121.6,103.5z M133.1,159.8c3.7,4,12.5,0.2,8.8-3.8c-4-4.4-8.2-8.7-11.9-13.2c-3.3-4-5.8-8.6-4.5-13.4
	c1.4-4.8-8.5-6.8-9.8-2C112.1,139.9,124.3,150.2,133.1,159.8z M158.7,159.7c0.3-5.8-1.2-11.8-5.1-16.9c-3.9-5.2-9.7-9.7-14.5-14.3
	c-1.7-1.6-5.4-1.3-7.2,0c-2.2,1.6-1.7,3.8,0,5.4c4.2,4,8.9,7.8,12.4,12.1c3.4,4.1,4.5,9,4.2,13.8
	C148.3,164.6,158.4,164.5,158.7,159.7z M166,116.7c-2,1.3-4,2.6-6,3.9c-1.1,0.7-4.4,3.5-6.1,3.3c-6.4-0.8-9.2,6.5-2.7,7.3
	c7.6,1,12.7-3.1,18-6.5c5.7-3.7,11.3-7.3,17-11c5-3.2-2.3-8.5-7.2-5.4C174.6,111.1,170.3,113.9,166,116.7z M114.9,159.9
	c0.8,3.3,1.8,6.5,3.2,9.7c1.2,2.6,2.3,6.2,5.1,8.2c3.1,2.2,8.5,1.9,12.4,1.4c4.2-0.5,8.2-1.9,11.7-3.7c5.4-2.8,0.3-9.3-5.1-6.5
	c-2.5,1.3-5.2,2.3-8.2,2.8c-1,0.1-2.1,0.1-3.1,0.2c-0.4-0.1-0.7-0.1-0.9-0.1c-0.2-0.3-0.4-0.6-0.5-0.9c-2.2-4.2-3.8-8.6-4.8-13
	C123.6,153.1,113.7,155.1,114.9,159.9z M218,146.7c-2.6,2.1-5.2,4.3-7.9,6.4c-2.2,1.8-4.6,4.5-7.7,5.6c-2.8,1-6.7,0.7-9.7,0.7
	c-1.8,0-3.6,0-5.4,0c3.8-10,3.4-20.6,2.7-30.9c-0.2-3.5-5.3-4.7-8.7-2.7c-5.9,3.6-11.8,7.1-17.7,10.7c-2.2,1.3-1.8,4,0,5.4
	c2.1,1.6,5.1,1.3,7.2,0c3.2-1.9,6.3-3.8,9.5-5.7c0.4,8.5,0.1,17.3-4.4,25c-1.5,2.7,0.2,5.5,4.4,5.7c4.6,0.2,9.1,0.2,13.7,0.1
	c4.2-0.1,8.7,0,12.6-1.4c3.6-1.3,6.3-3.6,8.9-5.7c3.2-2.6,6.4-5.3,9.6-7.9C229.6,148.4,222.4,143,218,146.7z M181.7,100.4
	c4.1,1.4,8.5,2.9,11.2,5.7c3,3.1,4,7.2,4.5,10.8c1.2,8.8-0.4,17.7,0.3,26.5c0.4,4.8,10.6,4.9,10.2,0c-0.8-10.1,1.2-20.2-1-30.3
	c-1-4.4-2.9-8.8-6.7-12.3c-3.5-3.3-8.4-5.3-13.4-7C181,91.8,175.8,98.3,181.7,100.4z M166,151.2c-4.3,5-5.6,10.6-6.9,16.3
	c-1.4,6.1-2.6,12.3-3.1,18.5c-0.4,4.9,9.8,4.8,10.2,0c0.5-5.5,1.6-11,2.8-16.4c1.1-5.1,2.1-10.1,5.9-14.5
	C178.3,150.9,169.5,147.1,166,151.2z M121.3,196.2c2.8,2.1,4.5,4.7,6.4,7.3c2,2.8,4.2,5.5,6.6,8.1c4.6,5.2,9.9,10.1,15.6,14.6
	c4.5,3.5,11.7-1.8,7.2-5.4c-5.7-4.5-10.8-9.4-15.3-14.6c-3.1-3.6-5.6-7.8-8.9-11.4c5.9-2.1,11.8-4.1,17.6-6.3
	c5.9-2.1,0.7-8.7-5.1-6.5c-7.7,2.8-15.4,5.4-23.1,8.2C119.3,191.3,119,194.6,121.3,196.2z M175.5,201.7c3-7.5,6.1-15,9.1-22.5
	c1.9-4.7-7.9-6.7-9.8-2c-2.7,6.8-5.5,13.5-8.2,20.3c-5.3,0.9-10.5,1.7-15.8,2.4c-6.4,0.9-3.7,8.2,2.7,7.3c6.2-0.8,12.3-1.8,18.5-2.8
	C173.7,204,175,202.9,175.5,201.7z M222.1,178.3c2.2-1.2,3.3-3.3,1.8-5.2c-1.3-1.6-4.7-2.6-7-1.4c-6.6,3.6-14.3,5.5-22.4,4.3
	c-6.4-0.9-9.1,6.4-2.7,7.3C202.6,185,213.3,183.1,222.1,178.3z M214.2,94.3c-6.1-1.7-8.8,5.6-2.7,7.3c5.5,1.6,2.7,10.5,2.5,13.5
	c-0.4,6.3-0.5,12.6-0.2,18.8c0.2,4.9,10.4,4.9,10.2,0c-0.3-7.9-0.2-15.8,0.6-23.7C225.2,103.8,223.3,96.9,214.2,94.3z M231.9,99
	c7.8,3.3,13.3,9.1,18.9,14.2c4.9,4.4,9.8,8.7,14.6,13.1c-5.4,1.2-10.9,2.4-16.3,3.7c-2.5-3.5-4.6-7.1-6.5-10.9
	c-2.2-4.5-12.1-2.6-9.8,2c2.6,5.3,5.7,10.4,9.4,15.3c1.1,1.4,3.6,2.2,5.8,1.7c9.2-2.1,18.4-4.1,27.6-6.2c3.9-0.9,4.7-4.2,2.2-6.3
	c-6.9-6.2-13.8-12.4-20.7-18.5c-6-5.3-11.8-11.1-20.1-14.6C231.3,90,226.2,96.6,231.9,99z M233.9,173.1c0.5,1.8,3.3,2.9,5.6,2.7
	c2.7-0.3,4.1-1.8,4.4-3.7c0.3-1.8,2.5-3.5,4-4.9c1.9-1.8,3.7-3.5,5.7-5.2c4.1-3.6,8.2-7.2,12.5-10.7c4.4-3.6-2.8-9-7.2-5.4
	c-5.2,4.2-10.2,8.5-15,12.9c-0.8,0.8-1.7,1.5-2.5,2.3c-1.5-7.1-2.5-14.3-1.9-21.5c0.4-4.9-9.8-4.9-10.2,0
	C228.4,150.9,231.1,162.1,233.9,173.1z M118.5,246.2c4.4-4,8.8-8,13.2-12c1.8,3.8,3.5,7.6,4.9,11.5c-7.8,7.1-15.6,14.1-23.4,21.2
	c-1.8,1.6-2.1,3.8,0,5.4c1.8,1.4,5.5,1.6,7.2,0c7.9-7.2,15.8-14.3,23.7-21.5c2.3-2.1,3.6-3.3,2.7-6.2c-0.7-2.2-1.6-4.3-2.5-6.5
	c-1.8-4.2-3.8-8.3-6.1-12.4c-1.3-2.3-5.8-4.1-8.5-1.7c-3,2.8-6.1,5.5-9.1,8.3c0.5-10,0.6-20.1,0.5-30.1c-0.1-4.9-10.3-4.9-10.2,0
	c0.2,13.8-0.2,27.5-1.1,41.2C109.6,246.6,115.7,248.7,118.5,246.2z M222.2,211c0.2-2.6-3.4-4.1-6.4-3.7c-8.3,1.2-16,3.7-23,7.1
	c0-7.1,0.1-14.2,0.1-21.2c0-4.9-10.2-4.9-10.2,0c0,9.6-0.1,19.3-0.1,28.9c0,3.4,5.5,4.8,8.7,2.7c6-4,12.9-7,20.4-8.9
	c-0.6,8.1-1.2,16.2-1.9,24.3H220C220.8,230.5,221.6,220.8,222.2,211z M217.4,267.5c0.2-1.5,0.3-3,0.5-4.5h-10.3
	c-0.2,1.5-0.3,3-0.5,4.5C206.7,272.4,216.9,272.3,217.4,267.5z M180.9,233.4c-1.7-5.5-3.4-10.9-5.1-16.4c1.9-0.6,3.2-2.2,3.2-3.6
	c0-2.3-2.4-3.5-5.1-3.8c-2-0.2-3.8,0-5.7,0.5c-2.7,0.7-4.2,2.5-3.6,4.7c2.1,6.9,4.3,13.8,6.4,20.7
	C172.5,240.2,182.4,238.2,180.9,233.4z M169.7,255.4c0.3-0.4,0.4-0.9,0.5-1.5c0.2-3.4,0-6.8-0.5-10.2c-0.1-1-0.3-1.9-0.4-2.9
	c-0.7-3.9-2.6-8.1-8.4-9c-6.4-1-9.1,6.3-2.7,7.3c0.1,0,0.2,0,0.3,0c0.3,0.4,0.4,0.9,0.5,1.3c0.4,1.4,0.5,2.8,0.7,4.2
	c0.3,3.1,0.6,6.2,0.4,9.3C159.8,258.2,167.7,258.7,169.7,255.4z M225.8,193.7c1.3,2.4,1.2,5.1,1.3,7.7c0.1,2.6,3.2,4.1,6.4,3.7
	c7.1-1,10.5-6.5,13.2-10.9c3.8-6.3,7.5-12.6,11.3-18.9c1.1-1.9,0.7-4-1.8-5.2c-2.2-1-5.9-0.5-7,1.4c-3.2,5.4-6.4,10.8-9.6,16.2
	c-1.2,2-2.3,3.9-3.6,5.9c-1.7-5.3-5.6-10.2-14-8.7c-5,0.9-9.6,3.9-13.4,6.4c-4.3,2.8-8.1,6.1-11.5,9.5c-1.7,1.6-0.3,4.2,1.8,5.2
	c2.6,1.2,5.3,0.3,7-1.4c4.2-4.2,9.3-8,15.1-10.9C223.5,192.1,224.4,191.2,225.8,193.7z M228,215c0,9.4,0,17.7,0,25.3h10
	c0-7.3,0-17.7,0-25.3C238,211,228,211,228,215z M197.5,272.4c1-3.1,2-6.3,3-9.4H190c-0.8,2.5-1.5,4.9-2.3,7.4
	C186.1,275.1,195.9,277.1,197.5,272.4z M206.6,240.3c0.8-3.7,1.3-7.4,0.9-11c-0.5-4.8-10.7-4.9-10.2,0c0.4,3.7-0.1,7.4-1,11H206.6z
	 M173.2,263c-0.2,2.8-0.2,5.5-0.2,8.3c0.1,4.9,10.3,4.9,10.2,0c-0.1-2.7-0.2-5.6,0.1-8.3H173.2z M149.4,273c1.3,2.1,3.9,2.5,6.8,2.6
	c3.4,0,6.8,0,10.1,0c6.6,0,6.6-7.6,0-7.6c-2.5,0-5,0.1-7.6,0.1c0-0.9,0.1-1.9,0-2.5c0-2-0.1-4.1-0.1-6.1c-0.1-2.2-3.3-4.6-6.4-3.7
	c-12.8,3.7-20.6,12.4-28,20.6c-3.7,4.1,5.1,7.9,8.8,3.8c4.3-4.7,9.1-10.6,15.6-14.4c0,0.4,0,0.8,0,1.2
	C148.7,268.9,148.3,271.2,149.4,273z M179.8,283.4c-8.5,0.8-17.4,1.4-26,0.9c-3.4-0.2-5.3-2.5-8.9-2.6c-3.6-0.2-6.9,1.2-9.4,3
	c-2.6,1.9-4.3,4.4-6.2,6.7c-0.9,1.2-2.4,3.5-4.6,3.5c-2.6,0-4.1-2.9-4.7-4.3c-1-2.7-0.9-5.5,0-8.3c1.5-4.7-8.3-6.8-9.8-2
	c-2,6.2-1.5,13.7,4.6,18.6c5.8,4.7,14.8,4.4,20.2-0.5c2.6-2.4,4.1-5.2,6.6-7.6c0.6-0.6,1.4-1,2.1-1.5c0.1-0.1,0.3-0.1,0.4-0.2
	c0.8,0.2,1.4,0.9,2.1,1.2c1,0.4,2,0.8,3.1,1c4.6,0.9,10.1,0.6,14.8,0.5c5.2-0.1,10.4-0.5,15.6-1c2.7-0.3,5.1-1.5,5.1-3.8
	C184.9,285.4,182.6,283.1,179.8,283.4z M272.4,240.3c-0.2-1.9-0.6-3.8-0.8-5.4c-0.2-2-2.2-3.9-5.1-3.8c-3.2,0.1-6.3-0.3-9.2-1.4
	c-1.2-0.5-2.3-0.9-2.5-1.3c-0.5-1.2,0-2.9,0-4.2c0.1-5.6,0.2-11.2,0.3-16.8c0.1-4.9-10.1-4.9-10.2,0c-0.1,3.8-0.1,7.6-0.2,11.4
	c-0.1,3.6-0.8,7.6,0.1,11.1c1.3,5.4,9.7,8,16.9,8.6c0,0.6,0.1,1.2,0.1,1.7L272.4,240.3L272.4,240.3z M451.8,293.5
	c-5.4-2.6-10.1-5.7-14.5-9.1c-2.5-2-6.1-1.1-8,0.8c-2.5,2.4-5,4.9-7.5,7.3c-5.5,0.8-10.6-0.2-15.4-2.3c-5.6-2.5-10.8,4-5.1,6.5
	c7.1,3.1,14.9,4.2,22.9,3.1c1.8,0,3.5-0.7,4.7-1.9c1.7-1.7,3.5-3.4,5.2-5.1c3.9,2.7,8,5.1,12.5,7.3
	C452.2,302.7,457.3,296.1,451.8,293.5z M446.2,233.1c5.9,2.1,11.1-4.5,5.1-6.5c-5.6-2-10.5-0.7-15.5,1.6c-2.7,1.2-5.4,2.6-8.1,3.9
	c-0.6-1.9-1.3-3.8-2.1-5.7c-1.2-2.6-2.3-6.2-5.1-8.2c-3.1-2.2-8.5-1.9-12.4-1.4c-4.2,0.5-8.2,1.9-11.7,3.7c-5.4,2.8-0.3,9.3,5.1,6.5
	c2.5-1.3,5.2-2.3,8.2-2.8c1-0.1,2.1-0.1,3.1-0.2c0.4,0.1,0.7,0.1,0.9,0.1c0.2,0.3,0.4,0.6,0.5,0.9c2.2,4.2,3.8,8.6,4.8,13
	c0.1,0.3,0.2,0.6,0.3,0.9c0.1,0.5,0.3,1,0.7,1.5c1.2,1.6,4.8,2.6,7,1.4c3.2-1.8,6.4-3.5,9.8-5.1C438.5,235.8,444,232.3,446.2,233.1z
	 M443.4,202.8c7.4-3.5,14.8-7.1,22.2-10.6c2.6,0,5.1-1.2,5.2-3.7c0.1-3.8,0.1-7.6,0.2-11.4c0.1-3.6,0.8-7.6-0.1-11.1
	c-1.3-5.4-9.7-8-16.9-8.6c-0.1-0.7-0.1-1.4-0.2-2.1c0-0.8-0.1-1.6-0.1-2.4c0-0.3,0-0.6,0-0.8c0.4,0,0.8,0,0.9,0c1.3,0,2.6,0,3.9,0
	c2.6,0,5.2,0,7.8,0c6.6,0,6.6-7.6,0-7.6c-3.7,0-7.4,0-11.1,0c-3.2,0-6.5,0-9,1.8c-4.7,3.4-2.6,10.5-2.1,14.8c0.2,2,2.2,3.9,5.1,3.8
	c3.2-0.1,6.3,0.3,9.2,1.4c1.2,0.5,2.3,0.9,2.5,1.3c0.5,1.2,0,2.9,0,4.2c-0.1,4.6-0.2,9.2-0.3,13.9c-7.5,3.6-15,7.1-22.4,10.7
	C432.8,198.8,437.9,205.4,443.4,202.8z M448.3,177.6c0.9-0.5,2.1-1.2,3.2-0.9c6.3,1.3,9-6,2.7-7.3c-5.4-1.1-10.8,1-14.6,3.7
	c-1.9,1.4-3,3.1-3.1,5.1c-0.1,1.4,0.9,3,0.6,4.4c-0.5,2,0.8,4.1,3.6,4.7c2.5,0.5,5.7-0.6,6.3-2.6c0.5-1.9,0.4-4.2-0.1-6.1
	c0,0,0,0,0.1,0C447.4,178.2,447.8,177.8,448.3,177.6z M446.6,178.5C446.5,178.7,446.2,178.8,446.6,178.5L446.6,178.5z M457.9,210.9
	c-0.7-1.9-3.7-3.3-6.3-2.6c-3.4,0.9-6.7,1.2-10.4,1c-2.7-0.2-5.1,1.9-5.1,3.8c0,2.2,2.3,3.6,5.1,3.8c4.4,0.3,8.9-0.2,13.1-1.3
	C456.9,214.9,458.6,213,457.9,210.9z M435,246.6c-0.6,1.6-1.2,3.1-1.7,4.7c-0.7,1.9,0.9,4.2,3.6,4.7s5.5-0.6,6.3-2.6
	c0.6-1.6,1.2-3.1,1.7-4.7c0.7-1.9-0.9-4.2-3.6-4.7C438.5,243.5,435.7,244.6,435,246.6z M423.6,83.1c7.2,5.3,14.4,10.5,21.6,15.8
	c0.1,9.5,0.1,19.1,0.2,28.6c-1.8-0.3-3.7-0.2-5.4,0.6c-2.2,1-3.5,2.7-4.9,4.3c-1.8,2-3.6,4.1-5.4,6.1c-3.6,4.1,5.2,7.9,8.8,3.8
	c1.2-1.3,2.4-2.7,3.6-4.1c0.7-0.8,1.4-1.6,2.1-2.4c0.1-0.1,0.1-0.1,0.2-0.2c0.5,0.2,1,0.4,1.3,0.5c1.5,0.6,3.1,1,4.8,0.8
	c2.7-0.3,5.1-1.5,5.1-3.8c-0.1-10.5-0.1-20.9-0.2-31.4c0-2.5,0.6-5.1-1.5-7.2c-2.1-2-5.2-3.8-7.7-5.6c-5.1-3.7-10.3-7.5-15.4-11.2
	C426.1,74.3,418.9,79.6,423.6,83.1z M488.6,112.3c5,3.2,12.2-2.2,7.2-5.4c-8-5.1-21.3-2.4-30.2,0.8c-0.5,0.1-1.1,0.3-1.6,0.6
	c-4.5,2.2-2.1,6.7,2.2,7c0.1,0.2,0.2,0.4,0.4,0.6c0.3,0.6,0.6,1.2,0.9,1.8c0.8,1.6,1.7,3.2,2.4,4.9c0.8,1.6,1.5,3.1,2.2,4.7
	c-2.8,0-5.6,0-8.4,0c-6.6,0-6.6,7.6,0,7.6c5.1,0,10.3,0,15.4,0c3.2,0,5.9-2.4,4.9-4.8c-2.2-5.1-4.6-10.2-7.2-15.3
	c-0.3-0.6-0.7-1.3-1-2c1.2-0.3,2.5-0.5,3.8-0.6C481.8,111.9,486.8,111.1,488.6,112.3z M550.6,92.8c0-1.9-2.3-4-5.1-3.8
	c-5.2,0.5-10.3,1.2-15.3,2.4c-4.1,1-8.9,2.1-12.1,4.4c-3.3,2.3-4.5,5.5-4.7,8.8c0,0.6-0.2,1.5,0,2.2c-0.1,0-0.1,0-0.2,0.1
	c-1.2,0-2.8,0.6-4,0.7c-1.4,0.1-2.7,0.1-4.1,0.1c-3.2-0.1-4.8,1.7-4.9,3.5c-2.7,1.8-2.8,5.7,1.8,6.4c7.9,1.2,14.3-2.4,20.7-5.3
	c3.2-1.5,2.9-4.3,0.9-5.9c0-0.7,0-1.4,0.1-2.1c0.4-3.1,3.3-3.9,6.9-4.9c4.8-1.3,9.9-2.3,15-2.7C548.2,96.4,550.6,95.1,550.6,92.8z
	 M239.1,270.7c5.3-1.3,10.8-1.9,16.4-1.3c2.7,0.3,5.4-0.5,6.3-2.6c0.5-1.2-0.1-2.8-1.4-3.8c-0.6-0.5-1.3-0.8-2.2-0.9
	c-4.5-0.5-9-0.7-13.5-0.2c-2,0.2-4,0.5-6,0.9c-0.3,0.1-0.6,0.1-0.9,0.2c-0.8,0.2-1.7,0.4-2.4,0.6c-0.2,0.1-0.3,0.1-0.4,0.1
	c-0.2-0.3-0.5-0.6-0.8-0.8c-1.8-1.4-4.6-1.1-6.4,0c-1.8,1.1-2.8,2.9-1.4,4.8C229,271.6,234.1,271.9,239.1,270.7z M234.9,263.8
	C234.5,263.9,234.7,263.7,234.9,263.8L234.9,263.8z M276.6,171.5c-1.7-0.1-3.2,0.1-4.8,0.4c-0.9,0.1-2.1,0.1-1.9,0.5
	c-0.9-1.2,0.1-4.5-0.1-5.8c-0.3-2-2.1-3.8-5.1-3.8c-2.5,0-5.4,1.7-5.1,3.8c0.5,3.7-1.1,7.8,2.8,10.9c1.7,1.4,4.1,2.1,6.7,2.2
	c1,0,1.9-0.1,2.8-0.2c0.9,8.5,1.5,17,2,25.5c0.3,4.9,10.5,4.9,10.2,0c-0.6-9.9-1.4-19.8-2.5-29.8
	C281.4,173.1,279.5,171.6,276.6,171.5z M275.1,215.4c-1.9-0.4-4-0.8-5.5-1.8c-2.2-1.4-2.5-4.1-2.9-6.1c-1.2-5.2-1.5-10.6-1.2-15.9
	c0.3-4.9-9.9-4.9-10.2,0c-0.4,6.8,0.1,13.9,2.3,20.6c1.9,5.9,7.3,8.9,14.8,10.4C278.7,224,281.4,216.7,275.1,215.4z M216.9,280.7
	c-3-0.8-6.5,0.8-9.5,1.3c-3.8,0.6-7.9,0.7-11.8,0.3c-2.7-0.3-5.4,0.5-6.3,2.6c-0.7,1.8,0.8,4.4,3.6,4.7c4.1,0.5,7.3,1.1,11.4,0.8
	c1.9-0.2,2.7-0.4,4.7-0.7c0,0.2,0,0.4,0,0.6c0,2,0.8,4,0.8,6c-0.1,4.9,10.5,4.9,10.6,0c0.1-3,0.3-5.9,0.3-8.9
	C220.7,284.7,221,281.7,216.9,280.7z M255.4,284.4c2.7,0.3,5.1-1.9,5.1-3.8c0-2.3-2.4-3.5-5.1-3.8c-7.1-0.7-13.4,0.2-18,4.6
	c-1,0.9-1.8,1.9-2.7,2.8c-0.9-2.2-2.1-4.4-3.7-6.4c-3.3-4.2-12.1-0.4-8.8,3.8c3.6,4.7,4.5,10,3.7,15.3c-0.6,3.9,7.2,5,9.5,1.9
	c2.7-3.6,5.3-7.2,8.2-10.7c1.1-1.3,2.4-3.1,4.5-3.7C250.2,283.7,253.1,284.2,255.4,284.4z M274,291c-6,0-15,0-25,0c-4,0-4,8,0,8
	c0,0,19,0,25,0C283,299,283,291,274,291z M125.2,5.1c-5.9-2-11.1,4.5-5.1,6.5c9,3.1,18.4,2.1,27-1.4c7.8-3.2,16.1-8,20.1-14.1
	c2.9-4.4-5.9-8.2-8.8-3.8c-3,4.5-8.8,7.8-14.4,10.4C138.4,5.4,131.5,7.3,125.2,5.1z M121.6-4.3c5.6-0.8,10.8,0.1,15.7,2.3
	c5.6,2.5,10.8-4,5.1-6.5c-7.2-3.2-15.3-4.3-23.5-3C112.5-10.6,115.2-3.3,121.6-4.3z M141.9,48.2c-4-4.4-8.2-8.7-11.9-13.2
	c-3.3-4-5.8-8.6-4.5-13.4c1.4-4.8-8.5-6.8-9.8-2c-3.6,12.5,8.6,22.8,17.4,32.4C136.7,56,145.6,52.2,141.9,48.2z M158.7,51.9
	c0.3-5.8-1.2-11.8-5.1-16.9c-3.9-5.2-9.7-9.7-14.5-14.3c-1.7-1.6-5.4-1.3-7.2,0c-2.2,1.6-1.7,3.8,0,5.4c4.2,4,8.9,7.8,12.4,12.1
	c3.4,4.1,4.5,9,4.2,13.8C148.2,56.8,158.4,56.7,158.7,51.9z M159.9,12.8c-1.1,0.7-4.4,3.5-6.1,3.3c-6.4-0.8-9.2,6.5-2.7,7.3
	c7.6,1,12.7-3.1,18-6.5c5.7-3.7,11.3-7.3,17-11c5-3.2-2.3-8.5-7.2-5.4c-4.3,2.8-8.7,5.6-13,8.4C163.9,10.2,161.9,11.5,159.9,12.8z
	 M118.1,61.8c1.2,2.6,2.3,6.2,5.1,8.2c3.1,2.2,8.5,1.9,12.4,1.4c4.2-0.5,8.2-1.9,11.7-3.7c5.4-2.8,0.3-9.3-5.1-6.5
	c-2.5,1.3-5.2,2.3-8.2,2.8c-1,0.1-2.1,0.1-3.1,0.2c-0.4-0.1-0.7-0.2-0.9-0.2c-0.2-0.3-0.4-0.6-0.5-0.9c-2.2-4.2-3.8-8.6-4.8-13
	c-1.1-4.8-11-2.8-9.8,2C115.6,55.4,116.7,58.6,118.1,61.8z M218,38.9c-2.6,2.1-5.2,4.3-7.9,6.4c-2.2,1.8-4.6,4.5-7.7,5.6
	c-2.8,1-6.7,0.7-9.7,0.7c-1.8,0-3.6,0-5.4,0c3.8-10,3.4-20.6,2.7-30.9c-0.2-3.5-5.3-4.7-8.7-2.7c-5.9,3.6-11.8,7.1-17.7,10.7
	c-2.2,1.3-1.8,4,0,5.4c2.1,1.6,5.1,1.3,7.2,0c3.2-1.9,6.3-3.8,9.5-5.7c0.4,8.5,0.1,17.3-4.4,25c-1.5,2.7,0.2,5.6,4.4,5.7
	c4.6,0.2,9.1,0.2,13.7,0.1c4.2-0.1,8.7,0,12.6-1.4c3.6-1.3,6.3-3.6,8.9-5.7c3.2-2.6,6.4-5.3,9.6-7.9C229.6,40.6,222.4,35.2,218,38.9
	z M181.7-7.4c4.1,1.4,8.5,2.9,11.2,5.7c3,3.1,4,7.2,4.5,10.8c1.2,8.8-0.4,17.7,0.3,26.5c0.4,4.8,10.6,4.9,10.2,0
	c-0.8-10.1,1.2-20.2-1-30.3c-1-4.4-2.9-8.8-6.7-12.3c-3.5-3.3-8.4-5.3-13.4-7C180.9-16,175.8-9.5,181.7-7.4z M217,64
	c-6.6,3.6-14.3,5.5-22.4,4.3c-6.4-0.9-9.1,6.4-2.7,7.3c10.7,1.6,21.4-0.2,30.2-5c2.2-1.2,3.3-3.3,1.8-5.2
	C222.7,63.7,219.2,62.8,217,64z M211.4-6.2c5.5,1.6,2.7,10.5,2.5,13.5c-0.4,6.3-0.5,12.6-0.2,18.8c0.2,4.9,10.4,4.9,10.2,0
	c-0.3-7.9-0.2-15.8,0.6-23.7c0.6-6.5-1.3-13.4-10.4-16C208-15.2,205.4-7.9,211.4-6.2z M231.9-8.8c7.8,3.3,13.3,9.1,18.9,14.2
	c4.9,4.4,9.8,8.7,14.6,13.1c-5.4,1.2-10.9,2.4-16.3,3.7c-2.5-3.5-4.6-7.1-6.5-10.9c-2.2-4.5-12.1-2.6-9.8,2
	c2.6,5.3,5.7,10.4,9.4,15.3c1.1,1.4,3.6,2.2,5.8,1.7c9.2-2.1,18.4-4.1,27.6-6.2c3.9-0.9,4.7-4.2,2.2-6.3
	c-6.9-6.2-13.8-12.4-20.7-18.5c-6-5.3-11.8-11.1-20.1-14.6C231.3-17.8,226.2-11.2,231.9-8.8z M239.5,68c2.7-0.3,4.1-1.8,4.4-3.7
	c0.3-1.8,2.5-3.5,4-4.9c1.9-1.8,3.7-3.5,5.7-5.2c4.1-3.6,8.2-7.2,12.5-10.7c4.4-3.6-2.8-9-7.2-5.4c-5.2,4.2-10.2,8.5-15,12.9
	c-0.8,0.8-1.7,1.5-2.5,2.3c-1.5-7.1-2.5-14.3-1.9-21.5c0.4-4.9-9.8-4.9-10.2,0c-0.9,11.3,1.8,22.5,4.6,33.5
	C234.3,67.1,237.1,68.2,239.5,68z M297.3,5.1c-5.9-2-11.1,4.5-5.1,6.5c9,3.1,18.4,2.1,27-1.4c7.8-3.2,16.1-8,20.1-14.1
	c2.9-4.4-5.9-8.2-8.8-3.8c-3,4.5-8.8,7.8-14.4,10.4C310.5,5.4,303.7,7.3,297.3,5.1z M287.8,19.6c-3.6,12.5,8.6,22.8,17.4,32.4
	c3.7,4,12.5,0.2,8.8-3.8c-4-4.4-8.2-8.7-11.9-13.2c-3.3-4-5.8-8.6-4.5-13.4C299,16.8,289.2,14.8,287.8,19.6z M330.8,51.9
	c0.3-5.8-1.2-11.8-5.1-16.9c-3.9-5.2-9.7-9.7-14.5-14.3c-1.7-1.6-5.4-1.3-7.2,0c-2.2,1.6-1.7,3.8,0,5.4c4.2,4,8.9,7.8,12.4,12.1
	c3.4,4.1,4.5,9,4.2,13.8C320.4,56.8,330.6,56.7,330.8,51.9z M332.1,12.8c-1.1,0.7-4.4,3.5-6.1,3.3c-6.4-0.8-9.2,6.5-2.7,7.3
	c7.6,1,12.7-3.1,18-6.5c5.7-3.7,11.3-7.3,17-11c5-3.2-2.3-8.5-7.2-5.4c-4.3,2.8-8.7,5.6-13,8.4C336.1,10.2,334.1,11.5,332.1,12.8z
	 M390.1,38.9c-2.6,2.1-5.2,4.3-7.9,6.4c-2.2,1.8-4.6,4.5-7.7,5.6c-2.8,1-6.7,0.7-9.7,0.7c-1.8,0-3.6,0-5.4,0
	c3.8-10,3.4-20.6,2.7-30.9c-0.2-3.5-5.3-4.7-8.7-2.7c-5.9,3.6-11.8,7.1-17.7,10.7c-2.2,1.3-1.8,4,0,5.4c2.1,1.6,5.1,1.3,7.2,0
	c3.2-1.9,6.3-3.8,9.5-5.7c0.4,8.5,0.1,17.3-4.4,25c-1.5,2.7,0.2,5.6,4.4,5.7c4.6,0.2,9.1,0.2,13.7,0.1c4.2-0.1,8.7,0,12.6-1.4
	c3.6-1.3,6.3-3.6,8.9-5.7c3.2-2.6,6.4-5.3,9.6-7.9C401.7,40.6,394.5,35.2,390.1,38.9z M353.8-7.4c4.1,1.4,8.5,2.9,11.2,5.7
	c3,3.1,4,7.2,4.5,10.8c1.2,8.8-0.4,17.7,0.3,26.5c0.4,4.8,10.6,4.9,10.2,0c-0.8-10.1,1.2-20.2-1-30.3c-1-4.4-2.9-8.8-6.7-12.3
	c-3.5-3.3-8.4-5.3-13.4-7C353.1-16,347.9-9.5,353.8-7.4z M389.1,64c-6.6,3.6-14.3,5.5-22.4,4.3c-6.4-0.9-9.1,6.4-2.7,7.3
	c10.7,1.6,21.4-0.2,30.2-5c2.2-1.2,3.3-3.3,1.8-5.2C394.8,63.7,391.3,62.8,389.1,64z M383.6-6.2c5.5,1.6,2.7,10.5,2.5,13.5
	c-0.4,6.3-0.5,12.6-0.2,18.8c0.2,4.9,10.4,4.9,10.2,0c-0.3-7.9-0.2-15.8,0.6-23.7c0.6-6.5-1.3-13.4-10.4-16
	C380.2-15.2,377.5-7.9,383.6-6.2z M404-8.8c7.8,3.3,13.3,9.1,18.9,14.2c4.9,4.4,9.8,8.7,14.6,13.1c-5.4,1.2-10.9,2.4-16.3,3.7
	c-2.5-3.5-4.6-7.1-6.5-10.9c-2.2-4.5-12.1-2.6-9.8,2c2.6,5.3,5.7,10.4,9.4,15.3c1.1,1.4,3.6,2.2,5.8,1.7c9.2-2.1,18.4-4.1,27.6-6.2
	c3.9-0.9,4.7-4.2,2.2-6.3c-6.9-6.2-13.8-12.4-20.7-18.5c-6-5.3-11.8-11.1-20.1-14.6C403.4-17.8,398.3-11.2,404-8.8z M411.6,68
	c2.7-0.3,4.1-1.8,4.4-3.7c0.3-1.8,2.5-3.5,4-4.9c1.9-1.8,3.7-3.5,5.7-5.2c4.1-3.6,8.2-7.2,12.5-10.7c4.4-3.6-2.8-9-7.2-5.4
	c-5.2,4.2-10.2,8.5-15,12.9c-0.8,0.8-1.7,1.5-2.5,2.3c-1.5-7.1-2.5-14.3-1.9-21.5c0.4-4.9-9.8-4.9-10.2,0
	c-0.9,11.3,1.8,22.5,4.6,33.5C406.5,67.1,409.3,68.2,411.6,68z M545.6,34.2c-0.2,4.4,0.1,8.8,0.9,13.2c0.7,3.9,2.6,8.1,8.4,9
	c6.4,1,9.1-6.3,2.7-7.3c-0.1,0-0.2,0-0.3,0c-0.3-0.4-0.4-0.9-0.5-1.3c-0.4-1.4-0.5-2.8-0.7-4.2c-0.3-3.1-0.6-6.2-0.4-9.3
	C556.1,29.3,545.9,29.3,545.6,34.2z M484,73c0-9,0-21,0-34c0-6-12-6-12,0c0,0,0,25,0,34C472,77,484,77,484,73z M518.4,15.7
	c-2.3,7.1-4.4,14.2-6.3,21.3c-1.9,7.1-4.5,14.6-3.7,21.8c0.5,4.8,10.7,4.9,10.2,0c-0.7-6.9,1.8-14,3.6-20.8s3.9-13.6,6.1-20.3
	C529.8,12.9,519.9,10.9,518.4,15.7z M526,39.7c-1.8,4.7,8,6.7,9.8,2c0.7-1.9,2.4-3.5,3.5-5.2c1.2-2,2-4.1,2.5-6.2
	c1-4.5,1.1-9,1-13.6c-0.1-4.9-10.3-4.9-10.2,0c0.1,4.1,0.3,8.3-0.8,12.3S527.4,36,526,39.7z M566.4,15.1c-1.3-2.1-3.9-2.5-6.8-2.6
	c-3.4,0-6.8,0-10.1,0c-6.6,0-6.6,7.6,0,7.6c2.5,0,5-0.1,7.6-0.1c0,0.9-0.1,1.9,0,2.5c0,2,0.1,4.1,0.1,6.1c0.1,2.2,3.3,4.6,6.4,3.7
	c12.8-3.7,20.6-12.4,28-20.6c3.7-4.1-5.1-7.9-8.8-3.8c-4.3,4.7-9.1,10.6-15.6,14.4c0-0.4,0-0.8,0-1.2
	C567.1,19.2,567.5,16.9,566.4,15.1z M536,4.7c8.5-0.8,17.4-1.4,26-0.9c3.4,0.2,5.3,2.5,8.9,2.6c3.6,0.2,6.9-1.2,9.4-3
	c2.6-1.9,4.3-4.4,6.2-6.7c0.9-1.2,2.4-3.5,4.6-3.5c2.6,0,4.1,2.9,4.7,4.3c1,2.7,0.9,5.5,0,8.3c-1.5,4.7,8.3,6.8,9.8,2
	c2-6.2,1.5-13.7-4.6-18.6c-5.8-4.7-14.8-4.4-20.2,0.5c-2.6,2.4-4.1,5.2-6.6,7.6c-0.6,0.6-1.4,1-2.1,1.5c-0.1,0.1-0.3,0.1-0.4,0.2
	c-0.8-0.2-1.4-0.9-2.1-1.2c-1-0.4-2-0.8-3.1-1c-4.6-0.9-10.1-0.6-14.8-0.5c-5.2,0.1-10.4,0.5-15.6,1c-2.7,0.3-5.1,1.5-5.1,3.8
	C530.9,2.7,533.3,4.9,536,4.7z M571.6-1.2C571.3-1.1,571.3-1.2,571.6-1.2L571.6-1.2z M264.1-5.4c5.4,2.6,10.1,5.7,14.5,9.1
	c2.5,2,6.1,1.1,8-0.8c2.5-2.4,5-4.9,7.5-7.3c5.5-0.8,10.6,0.2,15.4,2.3c5.6,2.5,10.8-4,5.1-6.5c-7.1-3.1-14.9-4.2-22.9-3.1
	c-1.8,0-3.5,0.7-4.7,1.9c-1.7,1.7-3.5,3.4-5.2,5.1c-3.9-2.7-8-5.1-12.5-7.3C263.7-14.6,258.6-8.1,264.1-5.4z M314.3,61.2
	c-2.5,1.3-5.1,2.3-8.2,2.8c-1,0.1-2.1,0.1-3.1,0.2c-0.4-0.1-0.7-0.1-0.9-0.1c-0.2-0.3-0.4-0.6-0.5-0.9c-2.2-4.2-3.8-8.6-4.8-13
	c-0.1-0.3-0.2-0.6-0.3-0.9c-0.1-0.5-0.3-1-0.7-1.5c-1.2-1.6-4.8-2.6-7-1.4c-3.2,1.8-6.4,3.5-9.8,5.1c-1.7,0.8-7.2,4.3-9.4,3.5
	c-5.9-2.1-11.1,4.5-5.1,6.5c5.6,2,10.5,0.7,15.5-1.6c2.7-1.2,5.4-2.6,8.1-3.9c0.6,1.9,1.3,3.8,2.1,5.7c1.2,2.6,2.3,6.2,5.1,8.2
	c3.1,2.2,8.5,1.9,12.4,1.4c4.2-0.5,8.2-1.9,11.7-3.7C324.8,65,319.7,58.4,314.3,61.2z M280.9,41.4c0.6-1.6,1.2-3.1,1.7-4.7
	c0.7-1.9-0.9-4.2-3.6-4.7s-5.5,0.6-6.3,2.6c-0.6,1.6-1.2,3.1-1.7,4.7c-0.7,1.9,0.9,4.2,3.6,4.7S280.1,43.5,280.9,41.4z M476.8,17.4
	c-5.3,1.3-10.8,1.9-16.4,1.3c-2.7-0.3-5.4,0.5-6.3,2.6c-0.7,1.8,0.8,4.4,3.6,4.7c4.5,0.5,9,0.7,13.5,0.2c2-0.2,4-0.5,6-0.9
	c1-0.2,2.3-0.4,3.3-0.8c0.2-0.1,0.3-0.1,0.4-0.1c3.2,4,11.6,0.2,8.6-4C486.8,16.5,481.7,16.2,476.8,17.4z M480.9,24.3
	C481.4,24.1,481.2,24.3,480.9,24.3L480.9,24.3z M498.9,7.4c3,0.8,6.5-0.8,9.5-1.3c3.8-0.6,7.9-0.7,11.8-0.3c2.7,0.3,5.4-0.5,6.3-2.6
	c0.7-1.8-0.8-4.4-3.6-4.7c-4.1-0.5-9.2-0.4-13.3,0c-1.9,0.2-6.6,0.6-6.6,1.1c0-0.5,0-1.1,0-1.6c0-2,1.1-4.1,1.1-6.1
	c0.1-4.9-9.6-4.9-9.7,0c-0.1,3,0.2,5.9,0.2,8.9C494.7,3.4,494.8,6.4,498.9,7.4z M460.5,3.7c-2.7-0.3-5.1,1.9-5.1,3.8
	c0,2.3,2.4,3.5,5.1,3.8c7.1,0.7,13.4-0.2,18-4.6c1-0.9,1.8-1.9,2.7-2.8c0.9,2.2,2.1,4.4,3.7,6.4c3.3,4.2,12.1,0.4,8.8-3.8
	c-3.6-4.7-4.5-10-3.7-15.3c0.6-3.9-7.2-5-9.5-1.9c-2.7,3.6-5.3,7.2-8.2,10.7c-1.1,1.3-2.4,3.1-4.5,3.7
	C465.6,4.4,462.7,3.9,460.5,3.7z M434-3c10,0,17,0,27,0c6,0,6-6,0-6c0,0-17,0-27,0C430-9,430-3,434-3z M196,92c0,0,7-7.6,0-7.6
	C190,84.4,190,92,196,92z M217,81.6c-8,0-8,7.6,0,7.6C217,89.2,224,81.6,217,81.6z M171.8,65.1c0.9-6.6,1.8-13.1,2.8-19.7
	c0.3-2-2.5-3.8-5.1-3.8c-3,0-4.8,1.7-5.1,3.8c-1.2,8.2-2.4,16.4-3.5,24.6c-0.9,6.7-0.9,15.2,8.9,18.2c2.6,0.8,5.6-0.8,6.3-2.6
	c0.8-2.2-1-3.9-3.6-4.7c0,0-1-1.4-1.2-1.9c-0.6-1.4-0.6-2.8-0.6-4.2C170.7,71.5,171.3,68.3,171.8,65.1z M120.8,80
	c-6.5,0.3-6.6,7.9,0,7.6c9.1-0.4,18.3-0.1,27.3,1.1c6.4,0.8,9.2-6.5,2.7-7.3C140.9,80.1,130.9,79.5,120.8,80z M500.2,75.4
	c9.5,0.7,19.4,0.6,28.9,0.8c6.6,0.2,6.5-7.4,0-7.6c-8.3-0.2-16.5-0.5-24.8-0.7c-0.1,0-0.7,0-1.3,0c0.1-1.1-0.3-2.8-0.3-3.6
	c0-3.1,0-6.2-0.1-9.3c0-5.7-0.5-11.6,0.1-17.3s4.8-10.6,6.5-16.2c1.5-4.7-8.3-6.8-9.8-2c-1,3.2-2.9,6.1-4.4,9.2
	c-1.6,3.2-2.3,6.5-2.6,9.9c-0.5,6.9-0.1,13.9,0,20.8C492.6,64.7,490,74.6,500.2,75.4z M607.6,19.9c-0.3-2-2.1-3.8-5.1-3.8
	c-2.5,0-5.4,1.7-5.1,3.8c2.6,19.1,3.1,38.4,1.5,57.6c-0.4,4.9,9.8,4.8,10.2,0C610.7,58.3,610.2,39,607.6,19.9z M585.9,32
	c-5.8,3.5-11.7,6.8-17.8,9.9c-5.4,2.7-0.3,9.3,5.1,6.5c6.8-3.5,13.4-7.2,19.9-11.1c2.2-1.3,1.8-4,0-5.4
	C591.1,30.4,588.1,30.8,585.9,32z M579.9,63.8c4.3-4.2,8.5-8.3,12.8-12.5c1.7-1.6,0.3-4.2-1.8-5.2c-2.6-1.2-5.3-0.3-7,1.4
	c-3.3,3.2-6.7,6.5-10,9.7c-3,2.9-5.9,6.7-10.4,8.4c-1.9,0.7-4.1,1.4-6.2,1.7c-2.3,0.4-3.1-0.6-4.6-1.9c-3.7-3.3-7.4-6.6-11-10
	c-1.8-1.6-5.4-1.3-7.2,0c-2.1,1.5-1.7,3.8,0,5.4c2.3,2,4.5,4.1,6.8,6.1c2.1,1.9,4.2,4.1,6.7,5.8c5.2,3.4,11.5,2.3,17.3,0.5
	C572,71.3,575.7,67.9,579.9,63.8z M560,97.1c0,0,6-7.6,0-7.6S554,97.1,560,97.1z M572.9,88.7c2.6,1.1,5.4,0.3,7-1.4
	c4.8-4.9,9.6-9.8,14.4-14.7c1.6-1.7,0.4-4.2-1.8-5.2c-2.6-1.1-5.4-0.3-7,1.4c-4.8,4.9-9.6,9.8-14.4,14.7
	C569.4,85.2,570.7,87.7,572.9,88.7z M262.3,76.2c-2-2.9-5.6-5.4-10.2-5.1c-5.8,0.3-8.1,4.8-10.4,8.1c-0.3,0.4-0.5,0.9-0.6,1.3
	l-0.1,0.1c-0.2,0.2-0.4,0.4-0.6,0.6c-0.4,0.4-0.6,0.9-0.6,1.4c-0.2,0.5-0.1,1,0.1,1.5c0.2,0.5,0.5,0.9,0.9,1.3s0.8,0.7,1.4,1
	c1.2,0.5,2.6,0.7,3.9,0.4c0.4-0.1,0.8-0.3,1.2-0.4c0.8-0.3,1.4-0.8,1.8-1.4c0.2-0.2,0.4-0.4,0.6-0.6c0.4-0.4,0.6-0.9,0.6-1.4
	l0.1-0.1c0.7-1,2-2.4,2.6-3.5c1.7,2.2,1.5,5.3,1.9,7.8c1,5.9,4.4,10.1,9.5,14.5c4.3,3.7,11.5-1.7,7.2-5.4c-3.3-2.8-5.8-5.5-6.6-9.3
	C264.5,83.4,264.7,79.6,262.3,76.2z M308,129c0,0-17,0-25,0c-5,0-5,7,0,7c8,0,16,0,25,0C314,136,314,129,308,129z M337.4,73.2
	c3.4,1.5,9.1,0.7,13,0.7c6.6,0,6.6-7.6,0-7.6c-2.1,0-4.3,0.1-6.4,0.1c-0.1-1-0.1-2.1-0.2-3c-0.2-2-0.4-4-0.6-6
	c-0.4-4-0.8-8-1.2-12.1c-0.5-4.8-10.7-4.9-10.2,0c0.6,6.7,1.3,13.4,1.9,20.1C334.1,68.2,333.7,71.5,337.4,73.2z M279.8,93
	c-0.6,7.4-1.1,14.8-1.7,22.3c-0.4,4.9,9.8,4.9,10.2,0c0.7-8.7,1.4-17.5,2-26.2c0.3-4,0.5-7.3-3.2-10.4c-3.5-3-7.8-5.5-12.4-7.6
	c-5.6-2.5-10.7,4-5.1,6.5c3.5,1.6,7.6,3.6,10,6.2c1.1,1.2,0.7,2.4,0.6,3.8C280.1,89.4,279.9,91.2,279.8,93z M301.2,118.7
	c0.2-10.9,2-21.7,5.5-32.3c1.6-4.7-8.2-6.7-9.8-2c-3.8,11.2-5.7,22.7-5.9,34.3C291,123.6,301.2,123.6,301.2,118.7z M318.4,117.6
	c0.3-13,0.5-26,0.8-38.9c0.1-4.9-10.1-4.9-10.2,0c-0.3,13-0.5,26-0.8,38.9C308.2,122.4,318.4,122.4,318.4,117.6z M330.7,116.4
	c1-4,3.2-7.5,6.9-10.4c3.3-2.7,8.1-5.9,13.2-6.1c4.2-0.2,6.9-4.1,3.6-6.5c-6.7-4.8-14.2-8.9-22.7-11.7c-2.5-0.9-5.5-0.5-7,1.4
	c-1.3,1.6-0.7,4.3,1.8,5.2c5,1.7,9.6,3.8,13.9,6.2c-10,3.9-17.7,12.2-19.6,19.9C319.8,119.1,329.6,121.2,330.7,116.4z M358.5,85.9
	c0.6,3.3,2,6.4,4,9.3c3,4.3,11.8,0.5,8.8-3.8c-1.6-2.4-2.5-4.9-3-7.5c-0.4-2-3.9-3.1-6.3-2.6C359.1,81.8,358.2,83.8,358.5,85.9z
	 M402.9,80.8c-7,2.3-14.5,3.6-22.2,3.9c-6.5,0.2-6.6,7.8,0,7.6c9.6-0.3,18.6-2.1,27.3-4.9c2.5-0.8,3.1-3.6,1.8-5.2
	C408.4,80.2,405.4,80,402.9,80.8z M446.7,42.3c-2.2,2.6-4.1,5.4-6.2,8.1c-2.2,2.9-4.4,5.8-6.6,8.7c-2,2.6-4.1,5.3-4.8,8.3
	c-1.2,4.8,8.7,6.8,9.8,2c0.6-2.4,2.2-4.4,3.8-6.5c1.8-2.3,3.5-4.7,5.3-7s3.5-4.7,5.3-7c0.8-1.1,1.6-2.2,2.5-3.2
	c0.1-0.1,0.1-0.1,0.2-0.2c0.2,0.9,0.3,2,0.4,2.6c0.4,2.2,0.8,4.5,1.4,6.7c1.1,4.4,2.5,8.7,4.2,12.9c1.9,4.7,11.7,2.7,9.8-2
	c-2.4-5.9-4.2-12-5.3-18.1c-0.5-2.5-0.5-5.2-2.3-7.4c-2-2.5-5.9-3.7-9.6-3C450.9,37.8,448.5,40.1,446.7,42.3z M476.9,83.2
	c-2.4,0.1-5.5,0.6-7.9,0.3c-0.1-0.1-0.2-0.1-0.3-0.2c-0.5-0.4-0.9-0.9-1.4-1.3c-0.8-0.8-1.6-1.6-2.4-2.3c-3.8-3.6-7.5-7.3-11.3-10.9
	c-1.7-1.6-4.4-2.5-7-1.4c-2.2,0.9-3.5,3.6-1.8,5.2c3.8,3.6,7.5,7.3,11.3,10.9c3.4,3.3,6.2,7.3,12.3,7.6c5.8,0.2,11.8-0.4,17.6-0.6
	c4.6-0.2,10.2-0.8,14,1.6c5,3.1,12.2-2.2,7.2-5.4C498.7,81.4,487.4,82.9,476.9,83.2z"/></svg>