<?xml version="1.0" encoding="utf-8"?><!--Generator: Adobe Illustrator 19.0.0, SVG Export Plug-In . SVG Version: 6.00 Build 0)--><svg version="1.1" id="Layer_1" xmlns="http://www.w3.org/2000/svg" xmlns:xlink="http://www.w3.org/1999/xlink" x="0px" y="0px" viewBox="108 -18 503.3 324" style="enable-background:new 108 -18 503.3 324" xml:space="preserve"><path id="XMLID_27_" d="M108-7.9v20.3l17.6-10.2L108-7.9z M108-18v3.4l5.9-3.4H108z M108,19.1v20.3l17.6-10.2L108,19.1z M108,46.1
	v20.3l17.6-10.2L108,46.1z M108,73.1v20.3l17.6-10.2L108,73.1z M108,100.1v20.3l17.6-10.2L108,100.1z M108,127.1v20.3l17.6-10.2
	L108,127.1z M108,154.1v20.3l17.6-10.2L108,154.1z M108,181.1v20.3l17.6-10.2L108,181.1z M108,208.1v20.3l17.6-10.2L108,208.1z
	 M108,235.1v20.3l17.6-10.2L108,235.1z M108,262.1v20.3l17.6-10.2L108,262.1z M108,289.1V306h5.9l11.7-6.8L108,289.1z M125.7,29.3
	L149,15.7L125.6,2.3L125.7,29.3z M149-11.3L137.3-18h-11.7l0.1,20.3L149-11.3z M125.7,56.3L149,42.7l-23.4-13.4L125.7,56.3z
	 M125.7,83.2L149,69.7l-23.4-13.4L125.7,83.2z M125.7,110.2L149,96.7l-23.4-13.5L125.7,110.2z M125.7,137.2l23.3-13.5l-23.4-13.5
	L125.7,137.2z M125.7,164.2l23.3-13.5l-23.4-13.5L125.7,164.2z M125.7,191.2l23.3-13.5l-23.4-13.5L125.7,191.2z M125.7,218.2
	l23.3-13.5l-23.4-13.5L125.7,218.2z M125.7,245.2l23.3-13.5l-23.4-13.5L125.7,245.2z M125.6,245.2l0.1,27l23.3-13.5L125.6,245.2z
	 M125.7,299.2l23.3-13.5l-23.4-13.5L125.7,299.2z M125.6,306h11.8l-11.8-6.8V306z M149.1,15.8l23.3-13.6L149-11.2L149.1,15.8z
	 M160.7-18h-11.6v6.8L160.7-18z M149.1,42.8l23.3-13.6L149,15.8L149.1,42.8z M149,42.8l0.1,27l23.3-13.6L149,42.8z M149.1,96.8
	l23.3-13.6L149,69.8L149.1,96.8z M149.1,123.8l23.3-13.6L149,96.8L149.1,123.8z M149.1,150.8l23.3-13.6L149,123.8L149.1,150.8z
	 M149.1,177.8l23.3-13.6L149,150.8L149.1,177.8z M149,177.8l0.1,27l23.3-13.6L149,177.8z M149,204.8l0.1,26.9l23.3-13.5L149,204.8z
	 M149.1,258.7l20.6-11.9v-3.1l-20.7-12L149.1,258.7z M172.4,272.2L149,258.7l0.1,27L172.4,272.2z M149,285.7l0.1,20.3h11.6l11.7-6.8
	L149,285.7z M172.4,2.3l0.1,27l23.3-13.6L172.4,2.3z M195.8-11.3L184.1-18h-11.7l0.1,20.3L195.8-11.3z M172.5,56.3l23.3-13.6
	l-23.4-13.4L172.5,56.3z M172.4,56.3l0.1,26.9l23.3-13.5L172.4,56.3z M172.4,83.2l0.1,27l23.3-13.5L172.4,83.2z M172.4,110.2l0.1,27
	l23.3-13.5L172.4,110.2z M172.4,137.2l0.1,27l23.3-13.5L172.4,137.2z M172.4,164.2l0.1,27l23.3-13.5L172.4,164.2z M195.8,204.7
	l-23.4-13.5l0.1,27L195.8,204.7z M172.4,218.2v22.1h0.1h8.5l14.8-8.6L172.4,218.2z M172.6,263h-0.1v9.3l16-9.3H172.6z M195.8,285.7
	l-23.4-13.5l0.1,27L195.8,285.7z M172.4,306h11.8l-11.8-6.8V306z M195.8-11.2l0.1,27l23.3-13.6L195.8-11.2z M207.5-18h-11.6v6.8
	L207.5-18z M195.8,15.8l0.1,27l23.3-13.6L195.8,15.8z M195.8,42.8l0.1,27l23.3-13.6L195.8,42.8z M195.8,69.8l0.1,27l23.3-13.6
	L195.8,69.8z M195.8,96.8l0.1,27l23.3-13.6L195.8,96.8z M195.8,123.8l0.1,27l23.3-13.6L195.8,123.8z M195.8,150.8l0.1,27l23.3-13.6
	L195.8,150.8z M195.8,177.8l0.1,27l23.3-13.6L195.8,177.8z M195.8,204.8l0.1,26.9l23.3-13.5L195.8,204.8z M210.7,240.3l-14.9-8.6
	v8.6H210.7z M219.2,272.2l-16-9.2h-7.4l0.1,22.7L219.2,272.2z M195.8,285.7l0.1,20.3h11.6l11.7-6.8L195.8,285.7z M219.3,29.3
	l23.3-13.6L219.2,2.3L219.3,29.3z M219.2-18l0.1,20.3l23.3-13.6L231-18H219.2z M219.3,56.3l23.3-13.6l-23.4-13.4L219.3,56.3z
	 M219.3,83.2l23.3-13.5l-23.4-13.4L219.3,83.2z M219.3,110.2l23.3-13.5l-23.4-13.5L219.3,110.2z M219.3,137.2l23.3-13.5l-23.4-13.5
	L219.3,137.2z M219.3,164.2l23.3-13.5l-23.4-13.5L219.3,164.2z M219.3,191.2l23.3-13.5l-23.4-13.5L219.3,191.2z M219.3,218.2
	l23.3-13.5l-23.4-13.5L219.3,218.2z M219.3,240.3h8.5l14.8-8.6l-23.4-13.5L219.3,240.3z M219.3,263v9.2l15.9-9.2H219.3z
	 M219.3,299.2l23.3-13.5l-23.4-13.5L219.3,299.2z M219.2,306H231l-11.8-6.8V306z M266,2.2l-23.4-13.4l0.1,27L266,2.2z M254.3-18
	h-11.6v6.8L254.3-18z M266,29.2l-23.4-13.4l0.1,27L266,29.2z M266,56.2l-23.4-13.4l0.1,27L266,56.2z M266,83.2l-23.4-13.4l0.1,27
	L266,83.2z M266,110.2l-23.4-13.4l0.1,27L266,110.2z M266,137.2l-23.4-13.4l0.1,27L266,137.2z M266,164.2l-23.4-13.4l0.1,27
	L266,164.2z M266,191.2l-23.4-13.4l0.1,27L266,191.2z M266,218.2l-23.4-13.4l0.1,26.9L266,218.2z M257.5,240.3l-14.9-8.6v8.6H257.5z
	 M242.6,263l0.1,22.7l23.3-13.5l-16-9.2H242.6z M242.6,285.7l0.1,20.3h11.6l11.7-6.8L242.6,285.7z M266.1,29.3l23.3-13.6L266,2.3
	L266.1,29.3z M289.4-11.3L277.8-18H266l0.1,20.3L289.4-11.3z M266.1,56.3l23.3-13.6L266,29.3L266.1,56.3z M266.1,83.2l23.3-13.5
	L266,56.3L266.1,83.2z M266.1,110.2l23.3-13.5L266,83.2L266.1,110.2z M266.1,137.2l23.3-13.5L266,110.2L266.1,137.2z M266.1,164.2
	l23.3-13.5L266,137.2L266.1,164.2z M266.1,191.2l23.3-13.5L266,164.2L266.1,191.2z M266.1,218.2l23.3-13.5L266,191.2L266.1,218.2z
	 M266,218.2l0.1,22.1h8.5l14.8-8.6L266,218.2z M266.1,263v9.2L282,263H266.1z M289.4,285.7L266,272.2l0.1,27L289.4,285.7z M266,306
	h11.8l-11.8-6.8V306z M289.5,15.8l23.3-13.6l-23.4-13.4L289.5,15.8z M301.1-18h-11.6v6.8L301.1-18z M289.5,42.8l23.3-13.6
	l-23.4-13.4L289.5,42.8z M289.5,69.8l23.3-13.6l-23.4-13.4L289.5,69.8z M289.5,96.8l23.3-13.6l-23.4-13.4L289.5,96.8z M289.5,123.8
	l23.3-13.6l-23.4-13.4L289.5,123.8z M289.5,150.8l23.3-13.6l-23.4-13.4L289.5,150.8z M289.5,177.8l23.3-13.6l-23.4-13.4L289.5,177.8
	z M289.4,177.8l0.1,27l23.3-13.6L289.4,177.8z M289.5,231.7l23.3-13.5l-23.4-13.4L289.5,231.7z M304.3,240.3l-14.9-8.6v8.6H304.3z
	 M312.8,272.2l-16-9.2h-7.4l0.1,22.7L312.8,272.2z M289.4,285.7l0.1,20.3h11.6l11.7-6.8L289.4,285.7z M312.9,29.3l23.3-13.6
	L312.8,2.3L312.9,29.3z M336.2-11.3L324.6-18h-11.8l0.1,20.3L336.2-11.3z M312.9,56.3l23.3-13.6l-23.4-13.4L312.9,56.3z M312.9,83.2
	l23.3-13.5l-23.4-13.4L312.9,83.2z M312.8,83.2l0.1,27l23.3-13.5L312.8,83.2z M312.9,137.2l23.3-13.5l-23.4-13.5L312.9,137.2z
	 M312.8,137.2l0.1,27l23.3-13.5L312.8,137.2z M312.9,191.2l23.3-13.5l-23.4-13.5L312.9,191.2z M336.2,204.7l-23.4-13.5l0.1,27
	L336.2,204.7z M312.8,218.2l0.1,22.1h8.5l14.8-8.6L312.8,218.2z M312.9,263v9.2l15.9-9.2H312.9z M336.2,285.7l-23.4-13.5l0.1,27
	L336.2,285.7z M312.8,306h11.8l-11.8-6.8V306z M336.3,15.8l23.3-13.6l-23.4-13.4L336.3,15.8z M347.9-18h-11.6v6.8L347.9-18z
	 M336.3,42.8l23.3-13.6l-23.4-13.4L336.3,42.8z M336.2,42.8l0.1,27l23.3-13.6L336.2,42.8z M336.3,96.8l23.3-13.6l-23.4-13.4
	L336.3,96.8z M336.2,96.8l0.1,27l23.3-13.6L336.2,96.8z M336.2,123.8l0.1,27l23.3-13.6L336.2,123.8z M359.6,164.2l-23.4-13.4l0.1,27
	L359.6,164.2z M336.2,177.8l0.1,27l23.3-13.6L336.2,177.8z M359.6,218.2l-23.4-13.4l0.1,26.9L359.6,218.2z M351.1,240.3l-14.9-8.6
	l0.1,8.6H351.1z M359.6,272.2l-16-9.2h-7.4l0.1,22.7L359.6,272.2z M336.2,285.7l0.1,20.3h11.6l11.7-6.8L336.2,285.7z M359.6,2.3
	l0.1,27L383,15.7L359.6,2.3z M383-11.3L371.4-18h-11.7V2.3L383-11.3z M359.7,56.3L383,42.7l-23.4-13.4L359.7,56.3z M359.6,56.3
	l0.1,26.9L383,69.7L359.6,56.3z M359.6,83.2l0.1,27L383,96.7L359.6,83.2z M359.6,110.2l0.1,27l23.3-13.5L359.6,110.2z M359.6,137.2
	l0.1,27l23.3-13.5L359.6,137.2z M359.6,164.2l0.1,27l23.3-13.5L359.6,164.2z M383,204.7l-23.4-13.5l0.1,27L383,204.7z M359.6,218.2
	l0.1,22.1h8.5l14.8-8.6L359.6,218.2z M359.7,263v9.2l16-9.2H359.7z M383,285.7l-23.4-13.5l0.1,27L383,285.7z M359.7,306h11.7
	l-11.8-6.8L359.7,306z M383-11.2l0.1,27l23.3-13.6L383-11.2z M394.7-18h-11.6v6.8L394.7-18z M383,15.8l0.1,27l23.3-13.6L383,15.8z
	 M383,42.8l0.1,27l23.3-13.6L383,42.8z M383,69.8l0.1,27l23.3-13.6L383,69.8z M383,96.8l0.1,27l23.3-13.6L383,96.8z M383,123.8
	l0.1,27l23.3-13.6L383,123.8z M383,150.8l0.1,27l23.3-13.6L383,150.8z M383,177.8l0.1,27l23.3-13.6L383,177.8z M383,204.8l0.1,26.9
	l23.3-13.5L383,204.8z M397.9,240.3l-14.9-8.6l0.1,8.6H397.9z M406.4,272.2l-16-9.2H383l0.1,22.7L406.4,272.2z M383,285.7l0.1,20.3
	h11.6l11.7-6.8L383,285.7z M406.5,29.3l23.3-13.6L406.4,2.3L406.5,29.3z M406.5-18V2.3l23.3-13.6L418.2-18H406.5z M406.5,56.3
	l23.3-13.6l-23.4-13.4L406.5,56.3z M406.5,83.2l23.3-13.5l-23.4-13.4L406.5,83.2z M406.5,110.2l23.3-13.5l-23.4-13.5L406.5,110.2z
	 M406.5,137.2l23.3-13.5l-23.4-13.5L406.5,137.2z M406.5,164.2l23.3-13.5l-23.4-13.5L406.5,164.2z M406.5,191.2l23.3-13.5
	l-23.4-13.5L406.5,191.2z M406.5,218.2l23.3-13.5l-23.4-13.5L406.5,218.2z M406.5,240.3h6.8c0.4,0,0.9,0.1,1.2,0.3l15.4-8.9
	l-23.4-13.5V240.3z M416.1,260.2c0,1.6-1.3,2.8-2.8,2.8h-6.8v9.3l23.4-13.5l-13.8-7.9L416.1,260.2L416.1,260.2z M406.5,299.2
	l23.3-13.5l-23.4-13.5L406.5,299.2z M406.5,306h11.7l-11.8-6.8L406.5,306z M453.2,2.2l-23.4-13.4l0.1,27L453.2,2.2z M441.5-18h-11.6
	v6.8L441.5-18z M453.2,29.2l-23.4-13.4l0.1,27L453.2,29.2z M453.2,56.2l-23.4-13.4l0.1,27L453.2,56.2z M453.2,83.2l-23.4-13.4
	l0.1,27L453.2,83.2z M453.2,110.2l-23.4-13.4l0.1,27L453.2,110.2z M453.2,137.2l-23.4-13.4l0.1,27L453.2,137.2z M453.2,164.2
	l-23.4-13.4l0.1,27L453.2,164.2z M453.2,191.2l-23.4-13.4l0.1,27L453.2,191.2z M453.2,218.2l-23.4-13.4l0.1,26.9L453.2,218.2z
	 M453.2,245.2l-23.4-13.5l0.1,27L453.2,245.2z M453.2,272.2l-23.4-13.5l0.1,27L453.2,272.2z M429.8,285.7l0.1,20.3h11.6l11.7-6.8
	L429.8,285.7z M453.3,29.3l23.4-13.6L453.2,2.3L453.3,29.3z M476.7-11.3L465-18h-11.7V2.3L476.7-11.3z M453.3,56.3l23.4-13.6
	l-23.5-13.4L453.3,56.3z M453.3,83.2l23.4-13.5l-23.5-13.4L453.3,83.2z M453.3,110.2l23.4-13.5l-23.5-13.5L453.3,110.2z
	 M453.3,137.2l23.4-13.5l-23.5-13.5L453.3,137.2z M453.3,164.2l23.4-13.5l-23.5-13.5L453.3,164.2z M453.3,191.2l23.4-13.5
	l-23.5-13.5L453.3,191.2z M453.3,218.2l23.4-13.5l-23.5-13.5L453.3,218.2z M453.3,245.2l23.4-13.5l-23.5-13.5L453.3,245.2z
	 M453.2,245.2l0.1,27l23.4-13.5L453.2,245.2z M453.3,299.2l23.4-13.5l-23.5-13.5L453.3,299.2z M453.3,306H465l-11.8-6.8L453.3,306z
	 M476.7,15.8l23.4-13.6l-23.4-13.4V15.8z M488.4-18h-11.7v6.8L488.4-18z M476.7,42.8l23.4-13.6l-23.4-13.4V42.8z M476.7,69.8
	l23.4-13.6l-23.4-13.4V69.8z M476.7,96.8l23.4-13.6l-23.4-13.4V96.8z M476.7,123.8l23.4-13.6l-23.4-13.4V123.8z M476.7,150.8
	l23.4-13.6l-23.4-13.4V150.8z M476.7,177.8l23.4-13.6l-23.4-13.4V177.8z M476.7,204.8l23.4-13.6l-23.4-13.4V204.8z M476.7,204.8
	v26.9l23.4-13.5L476.7,204.8z M476.7,258.7l23.4-13.5l-23.4-13.5V258.7z M500.1,272.2l-23.4-13.5v27L500.1,272.2z M476.7,285.7V306
	h11.6l11.8-6.8L476.7,285.7z M500.1,29.3l23.4-13.6L500.1,2.3V29.3z M523.5-11.3L511.8-18h-11.7V2.3L523.5-11.3z M500.1,56.3
	l23.4-13.6l-23.4-13.4V56.3z M500.1,83.2l23.4-13.5l-23.4-13.4V83.2z M500.1,83.2v27l23.4-13.5L500.1,83.2z M500.1,137.2l23.4-13.5
	l-23.4-13.5V137.2z M500.1,164.2l23.4-13.5l-23.4-13.5V164.2z M500.1,164.2v27l23.4-13.5L500.1,164.2z M500.1,218.2l23.4-13.5
	l-23.4-13.5V218.2z M523.5,231.7l-23.4-13.5v27L523.5,231.7z M500.1,245.2v27l23.4-13.5L500.1,245.2z M523.5,285.7l-23.4-13.5v27
	L523.5,285.7z M500.1,306h11.7l-11.7-6.8V306z M523.5,15.8l23.4-13.6l-23.4-13.4V15.8z M535.2-18h-11.7v6.8L535.2-18z M523.5,42.8
	l23.4-13.6l-23.4-13.4V42.8z M523.5,42.8v27l23.4-13.6L523.5,42.8z M523.5,96.8l23.4-13.6l-23.4-13.4V96.8z M523.5,96.8v27
	l23.4-13.6L523.5,96.8z M523.5,123.8v27l23.4-13.6L523.5,123.8z M523.5,150.8v27l23.4-13.6L523.5,150.8z M546.9,191.2l-23.4-13.4v27
	L546.9,191.2z M523.5,204.8v26.9l23.4-13.5L523.5,204.8z M546.9,245.2l-23.4-13.5v27L546.9,245.2z M546.9,272.2l-23.4-13.5v27
	L546.9,272.2z M523.5,285.7V306h11.6l11.8-6.8L523.5,285.7z M546.9,2.3v27l23.4-13.6L546.9,2.3z M570.3-11.3L558.6-18h-11.7V2.3
	L570.3-11.3z M546.9,56.3l23.4-13.6l-23.4-13.4V56.3z M546.9,56.3v26.9l23.4-13.5L546.9,56.3z M546.9,83.2v27l23.4-13.5L546.9,83.2z
	 M546.9,110.2v27l23.4-13.5L546.9,110.2z M546.9,137.2v27l23.4-13.5L546.9,137.2z M546.9,164.2v27l23.4-13.5L546.9,164.2z
	 M546.9,191.2v27l23.4-13.5L546.9,191.2z M570.3,231.7l-23.4-13.5v27L570.3,231.7z M546.9,245.2v27l23.4-13.5L546.9,245.2z
	 M570.3,285.7l-23.4-13.5v27L570.3,285.7z M546.9,306h11.7l-11.7-6.8V306z M570.3-11.2v27l23.4-13.6L570.3-11.2z M582-18h-11.7v6.8
	L582-18z M570.3,15.8v27l23.4-13.6L570.3,15.8z M570.3,42.8v27l23.4-13.6L570.3,42.8z M570.3,69.8v27l23.4-13.6L570.3,69.8z
	 M570.3,96.8v27l23.4-13.6L570.3,96.8z M570.3,123.8v27l23.4-13.6L570.3,123.8z M570.3,150.8v27l23.4-13.6L570.3,150.8z
	 M570.3,177.8v27l23.4-13.6L570.3,177.8z M570.3,204.8v26.9l23.4-13.5L570.3,204.8z M570.3,231.7v27l23.4-13.5L570.3,231.7z
	 M593.7,272.2l-23.4-13.5v27L593.7,272.2z M570.3,285.7V306h11.6l11.8-6.8L570.3,285.7z M593.7,29.3l17.6-10.2v-6.7L593.7,2.3V29.3z
	 M605.4-18h-11.7V2.3l17.6-10.2v-6.7L605.4-18z M593.7,56.3l17.6-10.2v-6.7l-17.6-10.1V56.3z M593.7,83.2l17.6-10.1v-6.7l-17.6-10.1
	V83.2z M593.7,110.2l17.6-10.1v-6.7l-17.6-10.2V110.2z M593.7,137.2l17.6-10.1v-6.7l-17.6-10.2V137.2z M593.7,164.2l17.6-10.1v-6.7
	l-17.6-10.2V164.2z M593.7,191.2l17.6-10.1v-6.7l-17.6-10.2V191.2z M593.7,218.2l17.6-10.1v-6.7l-17.6-10.2V218.2z M593.7,245.2
	l17.6-10.1v-6.7l-17.6-10.2V245.2z M593.7,272.2l17.6-10.1v-6.7l-17.6-10.2V272.2z M593.7,299.2l17.6-10.1v-6.7l-17.6-10.2V299.2z
	 M593.7,306h11.7l-11.7-6.8V306z"/></svg>