<?xml version="1.0" encoding="utf-8"?><!--Generator: Adobe Illustrator 19.0.0, SVG Export Plug-In . SVG Version: 6.00 Build 0)--><svg version="1.1" id="Layer_1" xmlns="http://www.w3.org/2000/svg" xmlns:xlink="http://www.w3.org/1999/xlink" x="0px" y="0px" viewBox="108 -18 503.3 324" style="enable-background:new 108 -18 503.3 324" xml:space="preserve"><path id="XMLID_27_" d="M435.6,20.9c-4.4,5.3-9.9,10.2-17.3,12.2c-7.9,2.1-11.5,6.7-13.2,13.1c-0.6,2.4-0.9,5-2,7.3
	c-1.3,2.5-2.7,5.6-5.1,7c-6.4,3.8-11,8.8-15.5,14.1c-3.3,3.8-6.7,7.6-10.4,11.1c-6.4,6-14.7,8.3-23.4,9.3c6.3-7.3,12.5-14.6,18.8-22
	c3.1-3.6,6.1-7.3,9.4-10.8c6.3-6.7,12.9-13.2,19-20c6.5-7.3,13.3-14.2,23.2-18.3c3-1.3,5.7-3.5,8-5.7c6.6-6.6,14.9-11.1,24-14.6
	c4.4-1.7,8.9-3.2,13-5.3c3-1.6,5.3-4.3,8-6.4c-0.3-0.3-0.7-0.7-1-1c-1.3,0.4-2.7,0.7-4,1.3c-14.2,6.3-28.6,12.2-42.4,19
	c-6.2,3-11.8,7.3-16.9,11.7c-6.6,5.6-12.4,11.9-18.5,17.9c-4.6,4.5-9.2,8.9-13.8,13.4c4.3-14.6,12.7-26.6,28.2-34.1
	c3.4-1.7,6.8-3.4,10.2-5C422.5,11,426.2,3.9,429-3.8c-2.7,0.9-5.4,1.9-7.6,3.3c-10.7,6.7-21.2,13.7-32,20.2
	c-15.7,9.4-25.8,21.8-29.6,37.9c-2.4,10.2-6.5,19.7-13.8,28.1c-6.6,7.5-13.3,14.7-24.3,18.1c-7.6,2.3-14.2,6.5-19.2,12
	c-5.2,5.7-10.2,11.6-14.6,17.8c-3.3,4.7-6.5,9.3-11.9,12.6c-2.8,1.7-5,4.6-6.8,7.2c-4.1,5.9-8.8,11.1-15.2,15.3
	c-2.3,1.5-4.1,3.7-6.1,5.5c0.3,0.2,0.5,0.4,0.8,0.7c4-2,8.9-3.3,11.7-6.1c11-10.7,23.9-20,33.1-32.3c4.3-5.7,10.8-10.4,16.5-15.1
	c8.2-6.9,18.3-12.4,30.2-14.3c9.3-1.5,18.5-3.1,27.7-4.6c-5.1,4.7-10.7,8.9-16.4,13c-5.8,4.2-12.1,7.8-17.5,12.3
	c-8.1,6.7-13.1,15.3-18.2,23.7c3.3-1.7,6.3-3.7,9.2-5.7c5.5-3.7,10.8-7.6,16.3-11.3c10.5-7,21.1-13.7,31.4-20.8
	c4.3-3,8.2-6.2,13.8-7.6c4.6-1.2,4.9-3.1,1.4-5.9c-3.4-2.7-4-5.7-2.4-9.1c1.4-3,2.8-6.1,5-8.7c3.7-4.5,7.8-8.7,12.1-12.8
	c5.3-5,8.5-10.7,8.8-17.5c0.2-5,3-8.5,8.2-10.6c2.4-0.9,4.7-1.9,7.2-2.8c5.7-2,10.1-5,13.8-9.3c6.9-7.9,15.3-14.5,26.1-18.2
	c9.9-3.3,19.1-7.2,25.9-14.6c4.6-5,9.4-10,14.1-15c-2.9,0-5.8,0-8.7,0C487.8-7.3,476.3,2.3,459.8,6.5C449.7,9,441.7,13.7,435.6,20.9
	z M167.5,166.7c6.9-5,14.4-8.8,23.1-10.9c4.2-1,8.6-1.7,12.5-3.2c21.9-8.9,43.8-17.9,65.6-27c2.8-1.2,5.2-3.2,7.8-4.9
	c-7.6,1.6-14.8,3.4-22.2,4.4c-10.6,1.5-20.5,4.3-29.8,9c-5.5,2.8-11.3,5.1-17,7.6c-1.1,0.5-2.5,0.6-4.4,1.1c2.5-3.8,4.6-6.7,6.4-9.8
	c3.9-6.6,9.8-11.6,16.5-16.2c8.5-5.8,18.3-9.1,28.3-12.1c8.7-2.7,16.1-6.6,21.7-13.2c4.5-5.3,9.8-10.3,17.3-12.3
	c8.5-2.3,12.6-7,14.2-14.1c0.5-2.1,0.7-4.3,1.8-6.2c1.5-2.7,3.3-5.4,5.6-7.6c4.3-4.1,9.3-7.8,13.7-11.9c3.6-3.4,6.5-7.4,10.1-10.8
	c5.1-5.1,11.5-8.2,19-10c10.1-2.4,20-5.2,29.9-8.1c16.8-5,27.3-16,36-28.7c-3.8,0-7.6,0-11.4,0C400.5-2.5,383,4.9,362.1,7.3
	C356.5,8,351,9,344,10.1c5.8-4.4,10.6-8.3,15.5-11.9c7.6-5.6,15.3-11,22.9-16.5c-6.1,0-12.2,0-18.3,0c-4,2.8-7.9,5.9-12.1,8.4
	c-9,5.3-15.4,13.7-26.7,16.4c-3.2,0.8-3.1,3.2-0.7,4.9c4.7,3.2,4.4,7.1,2.2,11.1c-1.4,2.7-2.9,5.5-5,7.9c-3.9,4.4-8.1,8.5-12.3,12.6
	c-4.5,4.3-7.9,9.1-8,15c-0.1,7.4-4.8,11.4-12.3,13.8c-2.9,0.9-5.8,1.8-8.3,3.2c-2.6,1.4-5.3,3.2-7.2,5.3
	c-8.8,9.8-19.4,17.4-33.1,21.8c-5.8,1.9-11.1,5.3-16.3,8.4c-1.8,1.1-2.4,3.4-4,4.9c-4.2,4-8.5,7.9-13,11.6
	c-9.3,7.8-18.6,15.4-28,23.1c-0.4-0.3-0.8-0.6-1.2-0.9c6.7-9.6,13.2-19.4,20.3-28.8c7.1-9.4,14.8-18.4,22.4-27.7
	c-4,2.2-8.2,4.1-11.9,6.7c-15.6,10.9-28.1,23.8-34.6,40.5c-1.4,3.8-3.2,7.6-5.4,11c-2.6,4-5.1,8.5-9,11.4
	c-17,12.5-34.6,24.4-51.9,36.6c0,4.3,0,8.5,0,12.8c5.3-4.7,10.3-9.9,16.1-14.1C138.4,187.1,153.2,177.2,167.5,166.7z M449.9,260.8
	c4.1-4.3,9-8.2,14.1-11.6c10.3-6.7,21.2-12.7,31.5-19.4c2.7-1.7,5.6-4.6,6-7.3c1-5.7,4.3-9,10-11.7c5.6-2.7,10.4-6.4,16.6-10.3
	c-14-6.4-26.3-12.8-41.3-12.1c-7,0.3-13.3-1-18.9-4.5c-2.9-1.8-5.8-3.7-8.8-5.6c-6.8-4.3-13.1-9.6-20.6-12.5
	c-14.2-5.6-29.1-10-43.8-14.8c-3.3-1.1-6.9-1.6-10.8-2.4c10.1-4.9,19.7-9.4,29.3-14.1c3.5-1.7,7-3.6,10.6-5.3
	c5.8-2.7,11.9-3.2,18.1-1.2c3.8,1.2,7.7,2.4,11.3,3.9c16.3,6.5,32.6,13.1,50.2,16.9c2.8,0.6,5.7,1,8.6,1.3c9.6,1,16.3-4.2,23.6-7.7
	c-6.7,0.4-13.6,1.1-20.5,1c-17.5-0.3-33.2-5.7-48-13.4c-10-5.2-20.2-9.8-32.2-10.7c-6.2-0.4-12.7-2.7-18.4,0.4
	c-10.5,5.8-20.6,12.2-30.9,18.3c-7.4,4.4-14.8,8.7-22.2,13c-4.5,2.6-9.1,5.1-13.6,7.7c0.2,0.4,0.3,0.9,0.5,1.3
	c8.8,0,17.6,0.3,26.3-0.1c12.5-0.5,24.8,0,36.2,5.1c16.3,7.2,32.6,14.3,48.8,21.7c8.4,3.9,16.9,6.9,26.6,7.9
	c7.1,0.7,14.1,2.8,21.1,4.5c2.2,0.5,4.1,1.8,6.7,3.1c-6.9,2.3-12.7,5.4-18.8,6.1c-7.7,0.8-14.6,2.9-20.4,6.9
	c-16.6,11.3-33.1,22.9-49.2,34.8c-5.3,3.9-9.6,9-13.7,13.9c-3.4,4-5.8,8.6-8.7,12.9c5.2-2.6,10.6-5.4,15.1-9
	c18.7-15,37.2-30.3,55.7-45.5c5.1-4.2,10.9-7.3,18.8-8c-6.5,9.8-14.2,17.8-24.6,23.6c-13.9,7.8-26.8,16.8-38.3,27.2
	c-4.9,4.5-9.3,9.4-14.8,13.2c-9.1,6.4-16.2,13.9-20.6,23.3c-0.7,1.6-1.9,3.1-2.9,4.6c2.3,0,4.7,0,7,0c9.2-8.8,17.8-18.2,27.8-26.3
	C436.1,273.9,443.3,267.7,449.9,260.8z M566.4,152c-7.5,6.9-16.3,12.8-25.1,18.6c-5.2,3.5-11.3,6.2-17.3,8.6c-2.4,1-6.1,0.9-8.7,0.1
	c-9.2-2.7-18.3-5.7-27.3-8.8c-6.7-2.4-13.6-4.6-19.7-7.9c-13.6-7.3-28.3-12.1-43.8-15.2c-7.4-1.5-14.8-1.8-22.3,0.5
	c0.9,0.7,1.9,0.9,2.9,1.2c6.2,1.4,12.5,2.3,18.4,4.2c11.5,3.7,22,9.2,31.3,16.1c8.7,6.5,18.7,11,29.1,15c4,1.5,8.1,2.8,12.5,0.7
	c0.8-0.4,2.1-0.4,3-0.2c12.1,3.2,24.3,6.4,36,9.6c-2.9,9.1-10.3,14.1-16.6,19.9c-5.4,5-9.7,10.5-10.2,17.8c-0.1,2.1-2.4,4.7-4.5,5.8
	c-5,2.4-10.4,4.4-16,5.9c-8.5,2.3-15.1,6.3-19.1,13.2c-4.4,7.5-11.5,12.6-19.8,16.9c-5.2,2.7-10,6-14.5,9.5
	c-5.1,3.9-10.2,7.9-14.6,12.4c-3,3.1-4.9,7.1-7.3,10.7c3.8,0,7.6,0,11.4,0c4.1-7.9,8.8-15,18.7-19.2c11.5-4.8,21.4-11.9,30.1-20.2
	c5.8-5.5,11.6-11.3,20.4-13.6c2.1-0.5,3.7-2.4,5.5-3.6c1.9-1.3,3.7-2.9,5.9-3.8c9.6-4.1,14.8-10.9,17.5-19.5c0.7-2.3,2-5.1,4.1-6.4
	c9.6-6,14.7-15.1,21.3-23.1c2.2-2.7,1.8-4.6-1.7-5.9c-3.7-1.5-7.5-2.9-11.5-4.4c2.5-1.9,4.6-3.6,6.9-5.2c6.2-4.3,11.9-9.4,18.7-12.6
	c7.3-3.4,13.9-7.1,18.9-12.8c5-5.8,11.4-10.3,19.1-13.3c4.4-1.7,8.6-3.6,12.9-5.4c0-3.5,0-7,0-10.5c-4.1,1.9-8.1,3.8-12.2,5.6
	C587.2,137.6,575.9,143.4,566.4,152z M185.7,291.1c-5.3-2.3-9.9-6.1-15-8.9c-3.7-2-7.6-4-11.7-5.3c-9.9-3-20-5.5-29.7-8.1
	c2.7-8.3,9.2-13.4,15.2-18.8c6.1-5.4,10.6-11.4,11.4-19.3c0.2-2,2.3-4.5,4.4-5.4c5.3-2.5,11.1-4.4,16.8-6.2
	c6.7-2.2,12.9-4.9,16.3-10.6c6.9-11.8,18-19.8,31.3-25.8c7.1-3.2,12.7-7.9,17.4-13.4c2.8-3.3,5.4-7,9-9.6
	c11.4-8,17.7-19.1,26.7-29.6c-2.1,0.8-3.6,1.3-5,2c-14.5,6.7-25.6,16.5-34.4,28.2c-6.1,8.1-13.7,14.4-23.2,19.4
	c-9.6,5-18.5,10.7-26.1,18c-4.2,4-9.6,7.2-14.6,10.5c-3.2,2.1-6.7,3.8-10,5.8c-1.8,1.1-3.3,2.5-5.2,3.3
	c-9.6,4.1-14.5,11.1-17.3,19.7c-0.7,2.2-1.8,4.8-3.8,6.1c-9.6,6.3-14.8,15.4-21.3,23.6c-2.1,2.6-1.5,4.4,1.7,5.7
	c3.7,1.5,7.5,2.8,11.7,4.4c-2,1.5-3.5,2.8-5.1,4c-5.8,4.2-11.5,8.4-17.2,12.7c0,3.5,0,7,0,10.5c3.3-2.3,6.5-4.8,10.1-7
	c7.2-4.4,14.6-8.6,22-12.7c3.3-1.8,6.9-1.8,10.4-0.2c8.1,3.7,16,7.6,24.3,10.9c6.8,2.7,14,4.6,21,7.1c3.5,1.2,6.7,2.8,10.1,4.2
	c7.9,0,15.7,0,23.6,0c-5.3-2-10.4-4.8-15.9-5.7C203.4,299,194.6,295,185.7,291.1z M256.3,8.5c3.8,1.8,8.1,2.7,12.5,0.7
	c0.9-0.4,2.3-0.4,3.4-0.1c12.1,3.2,24.2,6.5,37.1,10c-1.5,0.8-2.1,1-2.2,1.3c-2.5,7.5-9.3,12.2-15.2,17.5
	c-5.5,5-10.3,10.3-10.7,17.6c-0.2,3.6-2.1,6-5.7,7.3c-5.9,2.2-11.8,4.2-17.8,6.1c-5.7,1.9-10.9,4.4-14,9.1
	c-7.3,11.2-17.5,20.2-28.5,28.6c-0.8,0.6-1.3,1.3-2,2c2.8,0.2,5.6,0.1,7.4-1c8.3-5.2,16.6-10.5,24.4-16.2
	c6.6-4.8,11.7-11.1,20.5-13.5c2.1-0.6,3.7-2.3,5.5-3.5c1.9-1.3,3.7-3,5.8-3.9c10-4.1,15.1-11.3,18-20.1c0.7-2.2,2-4.7,4-6
	c9.5-6.1,14.6-15.1,21.2-23.2c2-2.5,1.7-4.4-1.6-5.7c-3.8-1.5-7.6-2.9-11.6-4.5c2.2-1.6,4-3,5.9-4.4c8-6.1,15.4-12.8,25.8-16.3
	c4.4-1.5,7.6-5.5,11.4-8.4c-6.4,0-12.8,0-19.2,0c-10.5,8.8-21.1,17.3-35,22c-2.2,0.7-5.2,0.7-7.4,0.1c-11.9-3.6-23.8-7.1-35.4-11.4
	c-7.6-2.9-14.5-7.1-21.8-10.7c-7.9,0-15.7,0-23.6,0c7.3,4.5,14.5,9.2,22.1,13.4C238.3-0.1,247.3,4.3,256.3,8.5z M557.4,264
	c13.3-7.7,21.3-17.8,22.7-32c1.1-12.1,7.4-22.5,17.8-30.9c2.2-1.7,4.6-3.2,7.1-5.1c-10.2-0.6-18.8,2.9-25.6,10.5
	c-3.3,3.8-6,8-9.4,11.7c-9.9,10.7-20.2,21.3-30.2,32c-4.9,5.2-10.6,9.5-17.5,12.7c-3.6,1.7-7.1,4-9.9,6.7
	c-7.6,7.3-16.9,12.1-27.4,15.6c-5.4,1.8-10.9,3.4-16.3,5.2c-11.5,3.7-22.2,8.7-31.4,15.8c5.8,0,11.7,0,17.5,0
	c19.3-9.4,38.6-19,58-28.3c11.3-5.4,20-13.2,28.5-21.3c7.9-7.6,15.7-15.4,23.5-23.1c0.4,0.2,0.9,0.4,1.3,0.7
	c-2.6,4.9-4.9,10.1-8,14.8c-5.8,8.8-14.1,15.5-24.4,20.4c-7.9,3.7-14.8,8.3-20.3,14.5c-4.9,5.5-11.9,8.6-19.2,11.3
	c-9.4,3.5-18.7,7.3-28,11c7.6,0,15.1,0,22.7,0c3.9-1.3,7.7-2.5,12-3.9c-1,1.6-1.7,2.8-2.4,3.9c2.9,0,5.8,0,8.7,0
	c4.4-5,8.6-10.1,13.2-14.9C530.8,280.3,543.9,271.9,557.4,264z M586.8,235c-3.1,12.7-9.8,23.7-19.8,33.3c-4.7,4.5-9.7,8.3-16.5,10.6
	c-15.3,5.1-24.9,15.5-32.6,27.4c3.8,0,7.6,0,11.4,0c11.8-16.2,29.8-23.2,50.9-25.6c5-0.6,9.9-1.7,15.6-2
	c-5.2,3.9-10.3,7.9-15.6,11.8c-7.1,5.3-14.2,10.5-21.2,15.8c5.8,0,11.7,0,17.5,0c9.7-7,19.4-14,29.3-20.9c1.6-1.1,3.8-1.6,5.7-2.4
	c0-11.3,0-22.5,0-33.8c-3.7,4-7.2,8.2-11.2,11.9c-6.5,6-15,8.6-23.6,9.5c8.8-10.4,17.8-21.1,27-31.7c2.1-2.4,5.2-4.2,7.8-6.3
	c0-3.5,0-7,0-10.5c-3.1,2.6-6.2,5.1-9.4,7.7c-0.3-0.1-0.5-0.1-0.8-0.2c3.4-5.7,6.8-11.5,10.2-17.2c0-4.3,0-8.5,0-12.8
	c-1.6,1-3.3,1.9-4.8,3.1C595.3,211.3,589.8,222.7,586.8,235z M567.3,174.5c-4,2.6-8.2,5-12.7,6.9c-4.6,2-5.3,3.4-1.5,6.5
	c2.8,2.3,3.8,4.8,2.4,7.8c-1.5,3.2-2.9,6.6-5.2,9.4c-3.5,4.3-7.4,8.3-11.6,12.2c-5.6,5.2-9.5,10.9-9.7,18.3c-0.1,4.8-3,8.3-8.1,10.3
	c-2.4,1-4.7,1.9-7.2,2.7c-5.9,1.9-10.4,5.1-14.3,9.4c-7.8,8.6-17.4,15.3-29.5,19.2c-5.5,1.8-10.6,4.6-15.7,7.2
	c-1.8,0.9-3,2.7-4.5,4.1c2.2,0.5,3.8,0.4,5.2-0.1c10.3-3.1,20.6-6.2,30.8-9.5c6.7-2.1,12.2-5.6,16.6-10.5
	c5.1-5.7,10.6-11.5,18.7-13.7c8.3-2.3,12.4-6.9,14.1-13.8c0.6-2.2,1.4-4.4,1.7-6.6c0.5-3.4,2.7-5.5,5.6-7.7c4.6-3.4,8.9-7.1,13-10.9
	c3.5-3.3,6.3-7.2,9.7-10.6c5-5.1,11-8.9,18.6-10.7c9.2-2.2,18.4-4.6,27.6-6.9c0-3,0-6,0-9c-12.8,2.4-25.5,4.9-38.3,7.3
	c-0.2-0.3-0.4-0.5-0.6-0.8c4.9-3.8,9.8-7.6,14.9-11.3c7.9-5.7,16-11.4,24.1-17c0-3.5,0-7,0-10.5c-4.7,2.9-9.5,5.7-14.2,8.7
	C587.2,161.4,577.3,168.1,567.3,174.5z M167.1,60.1c7.5-4.2,15.9-7.2,23.9-10.8c4.9-2.2,9.8-4.4,14.5-6.8c5.7-2.9,11.3-5.9,17-8.9
	c1.5-0.8,2.9-1.5,4.4-2.3c-11.3,0.5-19.3-4.4-26.9-10.1c-2.1-1.6-4.3-3-6.4-4.5c-9.3-6.3-19.9-8.6-31.1-5.8
	c-10.7,2.7-20.8,6.8-31.4,9.8c-7.7,2.2-15.4,3.6-23.1,5.4c0,4.5,0,9,0,13.5c7.3,0.3,14-1.6,20.6-4c15.5-5.6,32-8.1,48.4-10.4
	c3.6-0.5,7.6,0.1,11.2,1c6.3,1.6,12.5,3.8,18.9,5.8c-2,0.5-4.1,1.1-6.2,1.5c-10.1,1.9-19,5.2-25,13.1c-1.9,2.5-5.3,4.3-8.4,5.8
	c-18.6,8.4-38.3,13.8-59.5,14.2c0,2.3,0,4.5,0,6.8c6.5-0.8,12.9-1.7,19.4-2.2C141.6,70,154.9,66.9,167.1,60.1z M213.4-0.8
	c5.2,1.3,9.5,3.4,13.5,6.5c10.1,7.8,21.8,12.6,35.6,13.6c6.4,0.5,12.7,2.5,19,4.1c2.3,0.6,4.3,1.8,6.4,2.8c0,0.5,0,0.9,0,1.4
	c-8.3,2-16.6,4-24.9,6.1c-2.1,0.5-4,1.3-5.9,2.2c-3.8,1.8-7.5,3.9-11.4,5.6c-5.4,2.3-9.3,5.7-12.6,10c-2.8,3.5-6.6,6.5-10.1,9.6
	c-2.2,2-4.6,3.8-6.9,5.7c0.4,0.4,0.8,0.9,1.2,1.3c6.4-3.7,13.1-7.2,19.1-11.3c5-3.4,9.2-7.6,13.9-11.4c5.1-4.1,12-6.5,16.4-5.9
	c-7.4,13.2-20.3,21.1-35.4,26.3c-6.2,2.1-10.8,4.7-14.6,9.2c-4.3,5.1-9.3,9.9-14,14.8c-0.9,0.9-1.8,1.8-2.8,2.8
	c0.2,0.3,0.5,0.7,0.7,1c7-3.1,14.5-5.7,20.9-9.6c15.8-9.5,31.1-19.7,46.6-29.5c3.4-2.1,5.8-4.6,6.1-8.2c0.5-5,3.5-8.1,8.7-10.3
	c6.2-2.6,11.8-6.2,16.2-10.9c-9.9-6.8-28.8-12.5-40.7-12.1c-6.8,0.2-12.7-1.5-18.5-4.6c-12-6.4-24.2-12.3-36.2-18.6
	c-4.4-2.6-8.5-5.5-12.7-8.1c-5,0-9.9,0-14.9,0c8.7,4.4,17.3,9,26.1,13.2C205.8-3.3,209.5-1.8,213.4-0.8z M126.1,158.2
	c7.7-9.4,15.1-18.9,21.6-28.9c10.5-16.2,19.1-33.4,40.2-42.5c8.8-3.8,14.8-11.1,20-18.4c-5.5,2.6-10.7,5.5-15.9,8.5
	c-11.7,6.7-24.1,12.2-38,14.5c-15.9,2.6-31.6,5.6-46,12.2c0,3.8,0,7.5,0,11.3c4.1-1.8,8.3-3.4,12.3-5.5c10.4-5.4,21.7-8.7,34-11.8
	c-9.5,8.8-13.8,19.4-19.3,29.4c-5.8,10.6-12.3,20.9-18.9,31.2c-1.9,2.9-5.3,5.2-8,7.7c0,1.3,0,2.5,0,3.8
	C115.2,167.1,121.7,163.6,126.1,158.2z M111.3,275.3c-2.3-2.2-3.3-4.7-2-7.2c2.5-4.7,5.1-9.5,8.5-13.8c3.3-4.2,7.7-7.8,11.5-11.7
	c3.5-3.5,5.7-7.6,5.7-12.3c0.1-7.3,4-12,12-14.4c2.6-0.8,5.3-1.6,7.5-2.9c3-1.7,6.1-3.5,8.3-5.9c8.6-9.6,19-16.9,32.1-21.8
	c11.3-4.2,21.1-10.3,27.9-19.7c2.6-3.6,6.6-6.6,10.3-9.6c4.3-3.4,9.1-6.5,13.6-9.8c-10.4,2-18.3,7.4-25.9,13.3
	c-6.8,5.2-13.8,10.3-21.3,14.8c-5.2,3.1-11.3,5-17.1,7.4c-8.3,3.5-16.1,7.3-21.7,14c-5.6,6.7-12.9,11.7-22.1,14.7
	c-2.9,0.9-5.6,3.7-7,6.2c-2,3.8-2.6,8.1-4.2,12.2c-0.9,2.3-1.9,4.8-3.8,6.5c-5,4.6-10.5,8.8-15.8,13.2c0,11.3,0,22.5,0,33.8
	c2-0.8,4-1.6,6-2.3C113.2,278.3,112.6,276.5,111.3,275.3z M599.1,78.4c-10.6-1.3-20.9,0-31,2.5c-15.1,3.8-30.5,5.3-46.1,4.8
	c-11.6-0.4-23.2-1.2-34.8-1.8c11.1,3.5,22.4,6.8,33.8,9.7c3.4,0.9,7.2,0.7,10.8,0.6c6.8-0.1,13.6-0.5,20.4-0.9c2-0.1,4.1-0.3,6-0.9
	c15.5-5.4,31.7-4.8,47.9-4.2c-26.4,6.4-52.2,14.4-79.6,17.1c6.4,0.1,12.8,0.3,19.2,0.1c22.7-0.7,44.8-3.6,65.7-11.6c0-5,0-10,0-15
	C607.2,78.6,603.1,78.9,599.1,78.4z M504.4,42.8c-1.9,2.1-2.9,4.7-4.8,7.9c7.9-1.9,13.1-5.6,18.4-9.3c4.5-3.1,9-6.2,13.6-9.3
	c5.1-3.5,10.6-6.6,15-10.6c5.4-4.9,11.2-9,18.1-12.1c4.8-2.1,9.3-4.6,14.1-6.6c11.7-5,20.2-13.1,29-21.1c-5.8,0-11.6,0-17.5,0
	c-5.1,6.6-11.7,11.8-20.3,14.9c-12.6,4.5-22.2,11.9-31.2,20.5c-6,5.8-13.4,10.6-20.3,15.7c0.5-1.9,1-3.9,1.6-5.8
	c5.3-15.9,12.3-31,27.3-42.4c1.1-0.8,1.8-1.9,2.7-2.9c-3.5,0-7,0-10.5,0c-9.9,8.3-17.2,17.9-19.7,29.7
	C517.5,22.9,512.7,33.5,504.4,42.8z M573.4,19.1c-3.5,0.9-7.4,1.1-10.3,2.7c-11.3,6.3-22.3,12.9-33.3,19.5c3.4,0.3,6.7,0.1,9.8-0.6
	c7.2-1.7,14.2-1.6,21.5-0.7c7.4,0.9,15,1.1,22.5,0.9c9.3-0.1,18.5-0.9,27.8-1.3c0-4.5,0-9,0-13.5c-17.8,2.9-35.7,5.9-53.5,8.8
	c16.9-8.1,34.8-13.4,53.5-16.4c0-3,0-6,0-9c-0.6,0.1-1.1,0.2-1.7,0.3C597.5,12.9,585.4,16,573.4,19.1z M576.1,51.4
	c-12-0.2-23.5,0.8-34.3,5.6c-8.1,3.6-16.1,7.5-24.3,11c-6.1,2.6-12.3,4.8-18.5,7.2c16.2-2.4,32.1-5.7,48-8.8
	c9.9-1.9,19.7-4.9,29.7-5.3c11.5-0.4,23.1,1.8,34.6-1.2c0-3.3,0-6.5,0-9.8c-1.1,0.2-2.2,0.6-3.4,0.6C597.3,51,586.7,51.6,576.1,51.4
	z M153.2,154.9c8.7-10.9,14.2-23.7,21.1-35.6c0.7-1.2,1.8-2.1,2.8-3.2c4.2-4.6,8.4-9.2,12.6-13.7c-0.3-0.2-0.7-0.4-1-0.7
	c-3.7,2.8-7.2,5.8-11.2,8.2c-11.8,7-19.6,16.5-24.5,28c-0.8,1.8-1.7,3.4-2.6,5.1c-3.4,6.2-7.2,12-14.4,15.6c-1.3,0.7-2.4,1.8-3.2,3
	c-5.6,8.4-15.4,12-24.8,16.2c0,3.3,0,6.5,0,9.8c3.1-1.2,6.2-2.2,9.2-3.5C132.7,177.6,143.8,166.5,153.2,154.9z M143.9,199.3
	c2.2-0.9,4.3-2.3,5.8-3.9c9.1-9.5,21.2-14.9,33.9-19.8c7.6-2.9,15-6.6,22-10.5c3.5-2,6.1-5.2,9.2-7.8c-0.4-0.5-0.9-1-1.3-1.6
	c-7.8,3.2-15.8,6-23.3,9.7c-11.4,5.6-22.1,12.1-33.6,17.4c-9.9,4.6-18.9,9.9-26.3,17c-7.5,7.2-14.8,14.4-22.3,21.6c0,3.5,0,7,0,10.5
	c3.7-4.2,7.5-8.3,11-12.6C125.8,211.2,133.1,203.7,143.9,199.3z M407.6,263h-7.2c-2.4,1.5-4.8,3.1-7,4.8
	c-7.9,6.2-16.5,11.4-26.3,15.2c-13.8,5.3-24.4,14.1-34.7,23.3c5.8,0,11.6,0,17.5,0c6.7-7.9,15.7-13,26-16.9
	C390.5,283.8,400.2,274.3,407.6,263z M152.4,3.5c2.9-1.7,6.8-2.1,10.2-3c6.2-1.7,12.4-3.3,19.5-5.2c-9.7-3.4-18.7-6.1-28-3
	c-10.6,3.6-20.9,8-31.4,12c-4.8,1.9-9.8,3.5-14.7,5.2c0,3,0,6,0,9c2.5-0.7,4.9-1.5,7.4-2.2C128.1,12.8,141.1,10.2,152.4,3.5z
	 M525.1,116.6c3.1,1.5,6.2,2.6,9.3,3.3c10.6,2.4,21.4,2.1,32.1,0.8c14.9-1.8,30.3-0.9,44.8-5.3c0-4,0-8,0-12
	C584.1,114.9,555.1,117.9,525.1,116.6z M172,78.4c5.4-1.3,10.4-3.9,15.6-5.9c-6.9,0.3-13.2,1.8-19.6,2.3c-20,1.5-40,2.6-60,3.8
	c0,5,0,10,0,15c12-4.4,24.1-8.6,37.2-10.4C154.2,82,163.2,80.5,172,78.4z M147.5,294.2c-2.4-0.1-5.3,0.6-7.4,1.7
	c-6.2,3.2-12.1,6.9-18.1,10.3c8.2,0,16.3,0,24.5,0c6-4.3,12.7-4.5,19.8-2.7c2.5,0.6,4.9,1.8,7.3,2.7c5.5,0,11.1,0,16.6,0
	c-0.7-0.6-1.4-1.3-2.1-1.8C176.1,296.4,161.9,294.7,147.5,294.2z M296.9-8c6.1-3.4,12.1-6.9,18.2-10.3c-8.2,0-16.3,0-24.5,0
	c-8.4,4.9-16.9,3.9-25.3,0c-6.1,0-12.2,0-18.3,0c10.6,7.5,23.3,10.1,36.5,11.4C288.1-6.4,292.7-5.7,296.9-8z M140.8,51.6
	c8.2-3.7,16.6-7.2,24.8-10.8c1.7-0.8,3.1-2,4.6-3c-0.1-0.4-0.3-0.8-0.4-1.1c-2.3,0.1-4.8-0.2-7,0.4c-6.3,1.8-12.8,3.5-18.7,6
	c-11.4,4.6-23.3,7.3-36.1,7c0,3.3,0,6.5,0,9.8c1.1-0.2,2.3-0.6,3.4-0.7C121.9,58.8,131.5,55.7,140.8,51.6z M347.6,282
	c-5.9,2.1-12.2,4.2-18.4,6.5c-6.3,2.4-12.7,4.8-18.8,7.7c-6.3,3-12.1,6.7-18.1,10.1c7.9,0,15.7,0,23.6,0c7-4.6,14-9.2,21.1-13.7
	C341.7,289.6,345.8,286.3,347.6,282z M539.8,78.6c9.1-1.3,18.2-3.2,27.3-4.7c3-0.5,6-1.1,9-1.1c10.7,0,21.4,0.2,32.2,0.3
	c1,0,2,0.2,3,0.3c0-2.3,0-4.5,0-6.8c-28.3,0.4-55.9,4.2-83,11.5C532.2,78.7,536.1,79.1,539.8,78.6z M217.8,290.3
	c-5.9-1.4-12.2-1.2-18.3-1.8c-0.1,0.5-0.2,1-0.3,1.4c9.9,3.2,19.9,6.3,29.7,9.7c5.6,1.9,10.9,4.4,16.3,6.7c6.1,0,12.2,0,18.3,0
	c-6.4-2.7-12.6-5.6-19.2-7.9C235.6,295.3,226.8,292.4,217.8,290.3z M493.2,19.8c3.8-1.7,6.5-2.9,9.2-4c7.4-3.1,12.2-8.1,13.5-15.1
	c1.4-7.7,4.7-14.3,12.4-18.9c-3.8,0-7.6,0-11.4,0c-2.8,5-5.6,10.1-8.4,15.1c-1.7,3.1-3.2,6.3-5.2,9.3
	C500.3,10.5,497,14.7,493.2,19.8z M144.7-18.3c-7.9,0-15.7,0-23.6,0c-4.4,3-8.7,6-13.1,9c0,2.8,0,5.5,0,8.3
	c3.8-1.5,7.6-2.9,11.2-4.6C127.8-9.7,136.2-14,144.7-18.3z M135.8,108.9c0.2-0.3,0-0.8,0-2c-9.7,6.6-18.7,12.9-27.8,19.1
	c0,3.5,0,7,0,10.5c0.9-0.3,1.9-0.6,2.7-1C121.6,128.4,129.6,119.3,135.8,108.9z M435.6-2.4c6.9-2.2,13.9-4.6,20.9-6.8
	c9.9-3.1,19.9-6,29.8-9c-7.3,0-14.6,0-21.8,0c-5.7,2.3-11.3,5.1-17.2,6.9C441.5-9.7,437.7-6.8,435.6-2.4z M543.6,2.6
	c10.6-6.9,21.2-13.9,31.8-20.8c-5.8,0-11.6,0-17.5,0c-5.1,6.8-10.2,13.6-15.3,20.3C543,2.2,543.3,2.4,543.6,2.6z M397.4,285.5
	c-10.5,6.9-21.1,13.8-31.6,20.7c5.8,0,11.7,0,17.5,0c5-6.8,10-13.5,15-20.3C397.9,285.8,397.6,285.7,397.4,285.5z M591.2,306.3
	c6.7,0,13.4,0,20.1,0c0-4.3,0-8.5,0-12.8c-2.5,1-4.9,2.1-7.4,3.1C598.6,298.8,594,301.7,591.2,306.3z M593.3,5.9
	c5.8-2,11.9-4.1,18-6.2c0-2.8,0-5.5,0-8.3C603.7-4.8,596.2-1,593.3,5.9z M121.6,136.6c-4.5,3-9.1,5.9-13.6,8.9c0,3.5,0,7,0,10.5
	c4.9-6.2,9.9-12.4,14.8-18.6C122.4,137.2,122,136.9,121.6,136.6z M399.8-18.3c-2,0-4.1,0-6.1,0c-4.8,4.7-9.6,9.3-14.4,14
	C387.6-7.5,394.9-11.6,399.8-18.3z M453.1-18.3c-5.5,0-11.1,0-16.6,0c-3.2,2.6-6.4,5.2-9.8,8c6.4-1.8,12.3-3.4,18.1-5.2
	C447.6-16.2,450.4-17.3,453.1-18.3z M540.5,306.3c3.5,0,7,0,10.5,0c2.6-3.7,5.2-7.4,7.8-11.1c-0.2-0.2-0.5-0.4-0.7-0.7
	C552.2,298.4,546.3,302.3,540.5,306.3z M393,122c7-5,14.9-9.1,22.5-13.3c3-1.7,6.4-1.8,10-0.5c8.2,2.9,16.7,5.2,24.8,8.1
	c8.3,3,16.7,5.9,24.4,9.8c13.3,6.7,27.4,10.9,42.6,12.4c1.9,0.2,3.9,0,5.8,0c0.1-0.4,0.2-0.7,0.3-1.1c-1.3-0.7-2.6-1.4-4-2
	c-12.8-5.6-25.3-11.6-36.8-19.2c-8.1-5.3-17.6-9-26.7-13.2c-3.6-1.7-7.6-2.2-11.8-0.5c-1.3,0.5-3.2,0.4-4.7,0
	c-11.6-3-23.2-6.1-34.5-9.1c2.3-8.1,8.4-13.1,14.4-18.2c1.1-1,2.2-2,3.2-3.1c4.9-4.8,8.2-10.2,8.8-16.8c0.2-2.1,2.4-4.7,4.6-5.7
	c5.6-2.6,11.6-4.5,17.6-6.4c7.1-2.2,12.4-6.1,16.4-11.7c3.7-5.2,8.1-10.1,12.7-14.6c4.9-4.8,10.6-9.1,15.9-13.6
	c-0.2-0.4-0.5-0.7-0.7-1.1c-2.4,0.6-5.2,0.6-7,1.8c-8.4,5.4-16.5,11-24.6,16.6c-5.5,3.8-10.7,8-16.2,11.8c-3.1,2.1-6.7,3.8-10,5.8
	c-2,1.2-3.8,2.8-5.9,3.8c-8.9,4-13.6,10.5-16.4,18.5c-0.9,2.6-2,5.7-4.3,7.1c-9.4,6.2-14.5,15.2-21,23.3c-2.4,3-1.6,4.7,2,6.1
	c3.6,1.3,7.3,2.7,11.2,4.2c-2.2,1.7-3.8,3.2-5.6,4.4c-6.9,4.6-11.6,11.3-20.2,14c-7.7,2.4-13.5,6.8-18.2,12.4
	c-5.4,6.3-12.1,11.1-20.6,14.1c-12.5,4.4-22.4,11.6-30.1,21c-3.5,4.2-6.4,8.7-9.6,13.1c0.4,0.3,0.8,0.5,1.2,0.8
	c5.8-3.8,12-7.2,17.2-11.4c8.1-6.5,17.2-11.4,26.9-15.9c6.1-2.8,12.4-5.7,17.8-9.5C374.2,137,383.1,129,393,122z M411.5,180.5
	c-7.3-6-15.8-8.8-25.9-6.7c-7.2,1.5-14.1,0.8-20.9-1.7c-3.3-1.2-6.9-2.2-10.4-2.6c-8.5-1.2-19.3,1.9-23.3,6.2
	c2.6,0.2,5.2,0.2,7.8,0.5c14.1,1.7,28.2,3.6,42.3,5.3c10.1,1.2,18.8,4.4,25.9,11.1c4.5,4.3,10.5,7.4,15.9,11c0.7,0.5,1.4,1,2.4,1.8
	c-8,2.9-15.3,6-22.9,8.3c-9.4,2.7-18.1,6.4-25.5,11.9c-12.6,9.4-27.3,13.1-43.8,13.3c-7.9,0.1-15.7,0.8-23.5,1.4H381
	c6-2.3,11.7-5.4,17.1-9.5c10.8-8.1,22.4-15.6,36.6-19.2c7.1-1.8,14.2-3.6,22.2-5.7c-3.2-0.8-5.5-1.4-7.9-1.9
	c-11.7-2.2-21.3-7.1-28.6-15.3C417.8,185.8,414.6,183.1,411.5,180.5z M359.4,272.1c10.1-0.7,18.7-3.9,26.7-9.1h-88.2
	c-14.2,4.7-28,4.1-41.4,0h-35c8.6,2.5,16.7,5.8,24.2,10.5c13.7,8.7,28.3,9.2,43.6,3.1c5.4-2.2,10.9-4.5,16.6-5.5
	c11.1-2,22.3-3.2,33.5-4.6c5-0.6,10-1.1,15.7-1.7c-0.9,0.6-1.1,0.8-1.3,0.9c-1.6,0.3-3.1,0.5-4.7,0.8c-20.5,3.9-40.6,8.7-57.7,20.1
	c-7.2,4.8-15.7,7.5-24.7,8.9c-3,0.4-6,0.4-10.3,0.7c11.1,3.8,21.6,5.1,31.5,2c12.2-3.9,23.8-9.1,35.5-14.2
	C334.9,278.9,346.1,273.1,359.4,272.1z M325.4,229.7c13.8-0.2,26.3-2.5,37.8-9.4c9.4-5.6,19.8-9.4,31-11.7c3.3-0.7,6.5-2,9.5-2.9
	c-3.1-2.1-6-4-8.7-6c-6.8-5.2-14.3-9-23.4-10.1c-4.9-0.6-9.9-1-14.7-1.9c-15.1-3-29.8-3.9-45.5-1.2c-26.4,4.5-50.7,12.7-73.9,23.8
	c-3.7,1.7-7.1,3.9-11.1,6.1c6.6-1.3,12.5-2.4,18.4-3.6c3.7-0.7,7.7-1,10.9-2.6c16.4-7.7,34.6-9.1,52.5-11.5
	c23.2-3.1,45.9,0.9,67.3,4.6c-5,2.4-10.6,5.4-16.6,7.9c-5.4,2.3-11,4.9-16.8,5.7c-12.7,1.7-25.7,2.4-38.5,3.6
	c-3.1,0.3-6.4,0.7-9.3,1.6c-10.4,3.4-20.7,7.1-31.1,10.6c-3.5,1.2-7.1,2.5-10.6,3.7c2.9,0,5.8-0.2,8.5-0.7
	C282.2,231.4,303.8,230,325.4,229.7z M234.6,199.3c11-4.2,22.1-8.5,32.5-13.6c16.6-8.2,29.6-19.2,34.4-36
	c2.3-7.9,8.3-14.2,14.8-20.1c5.9-5.4,11.5-10.9,17.3-16.4c-2,1.2-5.3,1.6-7.5,3.2c-5.6,3.9-11.5,7.8-15.9,12.6
	c-9.5,10.3-18,21.2-27.3,31.7c-2.7,3-6,5.7-9.6,8c-7.6,4.9-15.4,9.4-23.2,14c-11.8,7-23.9,13.8-35.5,21.1
	c-15.4,9.6-30.4,19.7-45.6,29.5c-3.3,2.1-5.9,4.5-6.2,8.2c-0.4,5.4-4,8.3-9.2,10.9c-5.7,2.8-10.7,6.6-16.8,10.5
	c26.7,9.2,50.9,20.6,79.2,22.7c-2.8-1.4-5.3-2.5-7.7-3.8c-3.6-2-7.6-3.8-10.7-6.3c-4.2-3.3-8.8-5.1-14.2-5.9
	c-9.1-1.4-18.2-3.1-27.2-5c-2.5-0.5-4.7-2-7.7-3.3c2.5-0.7,4-0.8,5.3-1.4c5.2-2.3,10.4-4.3,16.1-5.3v-11.1c0-1.6,1.3-2.8,2.8-2.8
	h3.3c7.9-9.1,18.6-15,31-19.1c4.9-1.6,8.8-3.7,11.7-7.3c1.7-2,3.1-4.2,4.6-6.4C226,203.8,229.6,201.2,234.6,199.3z M188.8,240.3h11
	c1.3-1.2,2.4-2.5,3.6-3.9c3.1-3.8,7.2-7.1,10.9-10.5c2.1-2,4.4-3.8,6.6-5.7c-13.1,3.8-22.6,11.5-31.6,19.7
	C189.1,240.1,189,240.2,188.8,240.3z M543.6,146.5c-0.9,3.2-3.7,4.8-7.3,5.8c-4.2,1.3-8.6,2.5-12.2,4.7c-5.8,3.4-11.3,3.7-17.7,1.6
	c-15.8-5-31.7-9.8-47.7-14.3c-12.2-3.4-25-3.7-37.8-3.9c1.9,0.9,3.8,1.6,5.9,2.1c18.6,4.3,36.7,9.4,53.6,17.6c5.7,2.7,12,4.5,18,6.6
	c11.7,4.2,22.8,3.3,33.1-3c15.9-9.9,31.7-19.9,47.5-29.9c4.2-2.7,8.1-5.8,12.2-8.9c-9.8,0-19-0.2-28.3,0.1
	c-12.2,0.4-24.5,1.8-36.5-0.7c-8-1.7-15.8-4.2-23.1-6.1c4.5,4.4,10.9,8,17.9,10.5c6.9,2.4,14.1,4.9,21.4,5.6
	c7.3,0.7,14.8-0.9,22.3-1.5c0.2,0.5,0.4,0.9,0.6,1.4c-4.7,2-9.2,4.3-14,6C547.6,141.4,544.7,142.8,543.6,146.5z M363.6,23.8
	c-3.4,2.4-5.8,4.3-8.6,5.8c-7.4,4.1-13.1,9.4-16.9,16.2c-1.2,2.1-2.8,4.1-4.5,5.9c-6.1,6.5-12.4,12.9-18.3,19.5
	c-6.1,6.8-12.8,12.9-22,16.7c-3.2,1.3-6,3.6-8.4,5.9c-6.2,6-13.7,10.4-22.2,13.6c-4.5,1.7-8.9,3.7-13.5,5.3
	c-4.5,1.5-7.1,4.4-9.3,8.3c2.2-0.7,3.9-1,5.4-1.6c13.5-5.8,27-11.6,40.3-17.6c4.7-2.1,9.4-4.7,13.1-7.9c8.3-7,16-14.5,23.8-21.9
	c5.1-4.8,10.1-9.7,15.2-14.6c0,2.1-0.9,3.6-1.5,5.3c-6,14.3-16.6,25.1-32.7,31.6c-2.9,1.2-5.6,2.7-8.2,4.2
	c-6.9,4.1-9.7,10.5-12.3,17.2c4.4-1.8,8.5-3.8,12.3-6.1c9.7-6,19.3-12.1,28.9-18.1c4.3-2.7,8.7-5.4,12.8-8.4
	c8.9-6.4,14.8-14.2,13.4-24.7c-1.1-8.1,1.2-15.3,5.6-22.3C358.4,32.3,360.7,28.5,363.6,23.8z M481.5,45.9c6.5-2.2,10.8-5.2,14.6-9.9
	c3.6-4.5,7.8-8.6,11.9-12.9c1.4-1.4,2.9-2.7,4.3-4.1c-9,2.3-17.7,5.1-24.7,10.6c-4,3.1-8.1,6.1-12.5,8.8
	c-10.3,6.5-20.9,12.7-31.1,19.3c-2.5,1.6-5.1,4.3-5.5,6.8c-0.8,6.1-4.4,9.5-10.4,12.3c-5.4,2.6-10.1,6.4-15.7,10
	c11.6,6.4,22.9,10.2,35,12.2c0.8,0.1,1.8,0.2,2.6,0c9.1-1.3,17,1,24.7,5.3c6.2,3.5,13.2,6,19.8,9c0.2-0.3,0.5-0.7,0.7-1
	c-4.9-3.5-9.8-7.1-14.8-10.4c-8.4-5.5-17.9-8.4-28.5-9.4c-6.9-0.6-13.6-2.5-20.3-4.1c-2.4-0.6-4.6-1.9-7.8-3.3
	c2.4-0.7,3.6-0.9,4.6-1.3c7.1-2.9,14.1-5.8,22.2-6.1c1.7-0.1,3.4-1.2,5.1-2c3.8-1.9,7.4-4,11.3-5.7c5.4-2.4,9.2-5.8,12.5-10.1
	c2.6-3.5,6.4-6.3,9.7-9.4c2.3-2,4.7-3.9,7.1-5.9c-0.3-0.2-0.5-0.5-0.8-0.7c-0.9,0.4-1.7,0.8-2.6,1.1c-10.8,4.3-19.2,11.1-27.3,18.4
	c-5.4,4.9-11.6,8.6-20,9.5C453.1,59.3,466.1,51.1,481.5,45.9z M243.3,285.9c0.1-0.4,0.3-0.9,0.4-1.3c-3.5-2.6-7.3-4.9-10.6-7.8
	c-7.8-6.8-16.9-11.5-27.6-13.8h-22.3c14.9,6.3,30.2,12.8,45.6,19.1C233.3,283.9,238.5,284.6,243.3,285.9z M231.7,236.9
	c17.6-7.1,35.3-13.9,53.1-20.7c3.3-1.3,6.7-2.4,10.3-3c13.3-2.2,26.6-4.2,39.9-6.2c-3.6-0.6-7.4-1.1-11.2-1.1
	c-6.4,0-12.8,0.6-19.2,0.3c-9.3-0.3-17.8,1.3-26.1,4.8c-14.2,5.9-27.7,13.1-43.3,16.4c-1.7,0.4-3.3,1-4.7,1.8
	c-7.1,4.2-15,7.3-22.4,11.2H226C227.8,239,229.6,237.7,231.7,236.9z M507.3,61.2c8.4-3.6,17.1-6.8,25.5-10.4
	c3.3-1.4,6.2-3.7,9.3-5.6c-1.1-1-1.7-1.3-2.2-1.2c-3.4,0.7-6.7,1.7-10.1,2.3c-18.3,3.2-34,11.5-49.4,19.9
	c-10.3,5.6-19.2,13.2-29.9,17.6c15.9,6.8,31.9,13.9,48.1,20.5c6.4,2.6,12.7,6.2,20.7,4.8c-4.6-3.5-9.2-6.7-13.5-10.2
	c-6.9-5.7-14.9-9.4-24.2-11.4c-4.9-1.1-9.6-2.9-14-4.3c10.7-5.7,21-11.2,31.2-16.8C501.8,64.9,504.3,62.5,507.3,61.2z M472.5,204.1
	c-10.6,5.6-20.9,11-31.2,16.5c-2.8,1.5-5.1,3.9-8,5.1c-8.1,3.4-16.4,6.3-24.5,9.7c-3.2,1.3-6.1,3.2-9.1,4.9c-0.7,0.4-1.3,0.8-2,1.1
	c0.3,0.6,0.7,1.2,1,1.8c4.1-1,8.3-1.8,12.4-2.9c1-0.3,2-0.5,2.9-0.8c8.7-2.7,17.6-5.2,25.8-8.9c11.7-5.2,23.1-10.9,33.4-18.2
	c5.1-3.7,11.2-6.3,16.9-9.5c-1.1-0.4-2.3-0.8-3.5-1.3c-13.7-5.7-27.4-11.5-41.1-17.1c-5.2-2.2-10.4-4.4-15.9-6.2
	c-2.4-0.8-5.4-0.5-8.1-0.6c7.7,6.3,14.8,12.7,23.3,17C453.5,199,463.5,201.1,472.5,204.1z M263.1,27.6c-1.6-0.6-2.8-1.1-4-1.5
	c-11.7-4.7-23.5-9.3-35.2-14c-6.8-2.8-13.3-6.1-20.2-8.7c-3-1.1-6.6-1.1-9.9-1.7c-0.1,0.3-0.2,0.6-0.4,0.9
	c7.8,5.5,14.9,12,23.5,16.4c8.6,4.3,18.7,6.5,27.8,9.6c-9.8,5.1-19.3,9.9-28.7,14.9c-4.2,2.2-7.8,5.3-12.1,7.2
	c-8.7,3.8-17.7,6.9-26.4,10.6c-2.8,1.2-5,3.3-7.5,5c0.3,0.4,0.6,0.9,0.9,1.3c4.3-1,8.5-2.3,12.8-3c17.7-2.9,32.7-11.1,47.6-18.9
	C242.1,40,251.2,32.3,263.1,27.6z"/></svg>