<?xml version="1.0" encoding="utf-8"?><!--Generator: Adobe Illustrator 19.0.0, SVG Export Plug-In . SVG Version: 6.00 Build 0)--><svg version="1.1" id="Layer_1" xmlns="http://www.w3.org/2000/svg" xmlns:xlink="http://www.w3.org/1999/xlink" x="0px" y="0px" viewBox="-35 126 215.9 38" style="enable-background:new -35 126 215.9 38" xml:space="preserve"><path id="XMLID_53_" d="M-34.5,163.6h26.6c2.4,0,4.6-0.8,6.6-2.5c2-1.7,3.2-3.7,3.6-6.1l1-5.6c0-0.2,0-0.4,0-0.6
	c0-1.1-0.6-2.3-1.7-3.7c1.9-1.6,3-3.1,3.2-4.3v-0.1l-35.4,0.4L-34.5,163.6z M-7.8,149.3l-0.5,3.1h-13.1l0.5-3.1H-7.8z M-5.8,137.6
	H5.3l0.4-2.5c0.1-0.5,0.1-1,0.1-1.5c0-2.1-0.7-3.8-2-5.1c-1.4-1.4-3.1-2-5.2-2H-28l-2,11.1h11.1H-5.8z M25.4,149.3h-5.8l3.8-8.9
	l-11.3,0.1l-9.8,23.1h11.2l2.1-5h10.5l0.3,5h11.2l-1.7-23.4l-11.2,0.1L25.4,149.3z M34.8,126.4H18.1l-4.7,11.2h22.3L34.8,126.4z
	 M39.1,163.6h31l1.9-11.2H52.2l2.2-12.5l-11.1,0.2L39.1,163.6z M56.8,126.4H45.7l-2,11.2h11.1L56.8,126.4z M90.8,126.4H79.7l-2,11.2
	h11.2L90.8,126.4z M73.1,163.6h31l2-11.2H86.2l2.3-12.9l-11.1,0.1L73.1,163.6z M107.1,163.6h31l1.9-11.2h-19.8l0.6-3.1h19.8l1.5-8.6
	h-19.9l0.3-1.7l-11.1,0.2L107.1,163.6z M142.6,137.6l2-11.2h-30.9l-2,11.2h11.1H142.6z M178.3,128.5c-1.4-1.4-3.1-2-5.2-2h-25.4
	l-2,11.1h11.1h11.8l-0.5,3.1h-11.8l0.4-2.1l-11.1,0.2l-4.4,24.9h11.1l2.5-14.2h11.8l-2.5,14.2h11.1l2.6-14.2c0-0.2,0-0.4,0-0.6
	c0-1.1-0.6-2.3-1.7-3.7c1.9-1.6,3-3.1,3.2-4.3l1-5.6c0.1-0.5,0.1-1,0.1-1.5C180.4,131.5,179.7,129.8,178.3,128.5z"/></svg>