<?xml version="1.0" encoding="utf-8"?><!--Generator: Adobe Illustrator 19.0.0, SVG Export Plug-In . SVG Version: 6.00 Build 0)--><svg version="1.1" id="Layer_1" xmlns="http://www.w3.org/2000/svg" xmlns:xlink="http://www.w3.org/1999/xlink" x="0px" y="0px" viewBox="-106 82.6 74.5 125.4" style="enable-background:new -106 82.6 74.5 125.4" xml:space="preserve"><path id="XMLID_27_" d="M-68.8,99.7l24.8,37.4c1.6,2.5,2.5,5.3,2.5,8.3v0.1v0.1c0,3-0.9,5.9-2.5,8.4l-24.8,37l-24.8-37
	c-1.7-2.5-2.6-5.4-2.5-8.4v-0.1v-0.1c0-3,0.8-5.8,2.5-8.3L-68.8,99.7 M-68.7,83.5h-0.2l-32.2,48.6c-2.7,4.1-4,8.8-4,13.4
	c0,4.8,1.4,9.4,4.1,13.5l32.2,48.2l32.2-48.2c2.7-4,4.1-8.7,4.1-13.5c0-4.6-1.3-9.3-4-13.4L-68.7,83.5L-68.7,83.5z M-68.8,136.7
	c4.7,0,8.6,3.9,8.6,8.6s-3.9,8.6-8.6,8.6s-8.6-3.9-8.6-8.6S-73.5,136.7-68.8,136.7z"/></svg>