<?xml version="1.0" encoding="utf-8"?><!--Generator: Adobe Illustrator 19.0.0, SVG Export Plug-In . SVG Version: 6.00 Build 0)--><svg version="1.1" id="Layer_1" xmlns="http://www.w3.org/2000/svg" xmlns:xlink="http://www.w3.org/1999/xlink" x="0px" y="0px" viewBox="-61 121.9 164.4 47.1" style="enable-background:new -61 121.9 164.4 47.1" xml:space="preserve"><path id="XMLID_3_" d="M-27.9,168l-1.4-0.4h-30.2l0.5-1.4v-41.6l-0.5-1.3h29.6l1.5-0.4v7.3l-1.4-0.3h-21.8v11.5h19.3l1.5-0.4v7.3
	l-1.6-0.4h-19.3V161h22.5l1.4-0.4v7.4H-27.9z M10.1,168L8,167.6h-29.3l0.4-1.4v-40.4l-0.4-2.5h8.4l-0.4,2.4v35.2H8l2.1-0.4V168z
	 M22.9,123.3l-0.4,1.4v41.5l0.4,1.4h-8.5l0.4-1.4v-41.5l-0.4-1.4H22.9z M50.3,166.1l0.4,1.5h-8.4l0.4-1.5V130H29.5l-1.9,0.4v-7.5
	l1.8,0.4H63l2.4-0.4v7.5L63,130H50.3V166.1z M101.9,168l-1.4-0.4H70.3l0.4-1.4v-41.6l-0.4-1.3h29.6l1.4-0.4v7.3l-1.4-0.3H78.1v11.5
	h19.3l1.5-0.4v7.3l-1.5-0.4H78V161h22.5l1.4-0.4V168z"/></svg>