<?xml version="1.0" encoding="utf-8"?><!--Generator: Adobe Illustrator 19.0.0, SVG Export Plug-In . SVG Version: 6.00 Build 0)--><svg version="1.1" id="Layer_1" xmlns="http://www.w3.org/2000/svg" xmlns:xlink="http://www.w3.org/1999/xlink" x="0px" y="0px" viewBox="-107 109 72 72" style="enable-background:new -107 109 72 72" xml:space="preserve"><path id="XMLID_1_" d="M-71,111.2c-4.6,0-9.1,1-13.1,2.7s-7.7,4.2-10.7,7.3s-5.5,6.7-7.3,10.7c-1.7,4-2.7,8.5-2.7,13.1
	s0.9,9.1,2.7,13.1c1.7,4,4.2,7.7,7.3,10.7s6.7,5.5,10.7,7.3c4,1.7,8.5,2.7,13.1,2.7s9.1-0.9,13.1-2.7c4-1.7,7.7-4.2,10.7-7.3
	s5.5-6.7,7.3-10.7c1.7-4,2.7-8.5,2.7-13.1s-0.9-9.1-2.7-13.1c-1.7-4-4.2-7.7-7.3-10.7s-6.7-5.5-10.7-7.3
	C-61.9,112.2-66.4,111.2-71,111.2z M-61,130c0.6,0,1.2,0.2,1.7,0.5s1,0.8,1.4,1.4c0.4,0.6,0.7,1.3,0.9,2.2c0.2,0.8,0.3,1.7,0.3,2.7
	s-0.1,1.8-0.3,2.7c-0.2,0.8-0.5,1.5-0.9,2.2s-0.9,1.1-1.4,1.4c-0.5,0.3-1.1,0.5-1.7,0.5s-1.2-0.2-1.7-0.5s-1-0.8-1.4-1.4
	s-0.7-1.3-0.9-2.2c-0.2-0.8-0.3-1.7-0.3-2.7s0.1-1.9,0.3-2.7s0.5-1.5,0.9-2.2c0.4-0.6,0.9-1.1,1.4-1.4S-61.6,130-61,130z M-81,130
	c0.6,0,1.2,0.2,1.7,0.5s1,0.8,1.4,1.4c0.4,0.6,0.7,1.3,0.9,2.2c0.2,0.8,0.3,1.7,0.3,2.7s-0.1,1.8-0.3,2.7c-0.2,0.8-0.5,1.5-0.9,2.2
	s-0.9,1.1-1.4,1.4c-0.5,0.3-1.1,0.5-1.7,0.5s-1.2-0.2-1.7-0.5s-1-0.8-1.4-1.4s-0.7-1.3-0.9-2.2c-0.2-0.8-0.3-1.7-0.3-2.7
	s0.1-1.9,0.3-2.7s0.5-1.5,0.9-2.2c0.4-0.6,0.9-1.1,1.4-1.4S-81.6,130-81,130z M-54.7,156.1c-0.7,1.4-1.6,2.7-2.7,3.9s-2.4,2.1-3.8,3
	c-1.4,0.8-2.9,1.5-4.6,1.9c-1.6,0.4-3.3,0.7-5.1,0.7c-1.7,0-3.4-0.2-5-0.7c-1.6-0.4-3.1-1.1-4.6-1.9s-2.7-1.8-3.8-3s-2-2.4-2.7-3.9
	c-0.2-0.4-0.3-0.8-0.4-1.2c-0.1-0.4-0.1-0.9-0.1-1.3s0.1-0.9,0.2-1.3c0.1-0.4,0.3-0.8,0.5-1.2s0.5-0.7,0.8-1s0.7-0.5,1-0.8
	c0.4-0.2,0.8-0.4,1.2-0.5s0.9-0.2,1.3-0.2h5.7h5.7h5.7h5.7c0.4,0,0.9,0.1,1.3,0.2s0.8,0.3,1.2,0.5s0.7,0.5,1,0.8s0.6,0.6,0.9,1
	s0.4,0.8,0.6,1.2s0.2,0.8,0.2,1.3c0,0.4,0,0.9-0.1,1.3C-54.4,155.3-54.5,155.7-54.7,156.1z"/></svg>