<?xml version="1.0" encoding="utf-8"?><!--Generator: Adobe Illustrator 19.0.0, SVG Export Plug-In . SVG Version: 6.00 Build 0)--><svg version="1.1" id="Layer_1" xmlns="http://www.w3.org/2000/svg" xmlns:xlink="http://www.w3.org/1999/xlink" x="0px" y="0px" viewBox="-107 109 72 72" style="enable-background:new -107 109 72 72" xml:space="preserve"><path id="XMLID_1_" d="M-71,109.2c-4.9,0-9.7,1-13.9,2.8c-4.3,1.8-8.1,4.4-11.4,7.7c-3.3,3.3-5.9,7.1-7.7,11.4
	c-1.8,4.3-2.8,9-2.8,13.9s1,9.7,2.8,13.9c1.8,4.3,4.4,8.1,7.7,11.4c3.2,3.2,7.1,5.9,11.4,7.7c4.3,1.8,9,2.8,13.9,2.8s9.7-1,13.9-2.8
	c4.3-1.8,8.1-4.4,11.4-7.7c3.2-3.2,5.9-7.1,7.7-11.4c1.8-4.3,2.8-9,2.8-13.9s-1-9.7-2.8-13.9s-4.4-8.1-7.7-11.4s-7.1-5.9-11.4-7.7
	C-61.3,110.2-66.1,109.2-71,109.2z M-81.6,143.4c-0.6,0-1.3-0.2-1.8-0.5s-1.1-0.9-1.5-1.5s-0.8-1.4-1-2.3c-0.2-0.9-0.4-1.8-0.4-2.9
	c0-1,0.1-2,0.4-2.9c0.2-0.9,0.6-1.6,1-2.3s0.9-1.2,1.5-1.5c0.6-0.4,1.2-0.5,1.8-0.5c0.7,0,1.3,0.2,1.8,0.5c0.6,0.4,1.1,0.9,1.5,1.5
	s0.8,1.4,1,2.3c0.2,0.9,0.4,1.8,0.4,2.9c0,1-0.1,2-0.4,2.9c-0.2,0.9-0.6,1.6-1,2.3c-0.4,0.6-0.9,1.2-1.5,1.5S-80.9,143.4-81.6,143.4
	z M-60.4,143.4c-0.7,0-1.3-0.2-1.8-0.5s-1.1-0.9-1.5-1.5s-0.8-1.4-1-2.3c-0.2-0.9-0.4-1.8-0.4-2.9c0-1,0.1-2,0.4-2.9
	c0.2-0.9,0.6-1.6,1-2.3c0.4-0.6,0.9-1.2,1.5-1.5c0.6-0.4,1.2-0.5,1.8-0.5s1.3,0.2,1.8,0.5c0.6,0.4,1.1,0.9,1.5,1.5s0.8,1.4,1,2.3
	c0.2,0.9,0.4,1.8,0.4,2.9c0,1-0.1,2-0.4,2.9c-0.2,0.9-0.6,1.6-1,2.3c-0.4,0.6-0.9,1.2-1.5,1.5S-59.8,143.4-60.4,143.4z"/></svg>