<?xml version="1.0" encoding="utf-8"?>
<!-- Generator: Adobe Illustrator 19.0.0, SVG Export Plug-In . SVG Version: 6.00 Build 0)  -->
<svg version="1.1" id="Layer_1" xmlns="http://www.w3.org/2000/svg" xmlns:xlink="http://www.w3.org/1999/xlink" x="0px" y="0px"
	 viewBox="108 -18 503.3 324" style="enable-background:new 108 -18 503.3 324;" xml:space="preserve">
<path id="XMLID_27_" d="M611.3,22.8l-10.5,11.5l5.4-52.3c-0.2,0-0.4,0-0.6,0h-1.9l-5.5,52.4l-0.2,3.2l-1.5-1.2L563.3,5l-2.1-2.4
	l-12-16.1l6.2-4.4H551l-3.7,2.6l-5.6-2.7h-6.1l10.3,4.8l-15.1,49.6L488.5-18h-3.2l16.9,21.8l-28.1,32.4L465.6-18H463l8.7,54.6
	L411.5-1l13.3-17h-3.2L410.2-3.4V-18h-2.5v11.4L401.6-18h-2.9l8.9,16.5l6.7,6.5l35.9,32.8h-70.8l1.1-55.8H378l-1,54.8L323.3,1.9
	L343-18h-3.6l-49.7,50l7.1-50h-2.5L287,33L254.2,3.1L241.6-14l5.3-4h-4.3l-2.9,2.2l-4.9-2.2h-6.3l9.7,4.4l-14.3,50L181.2-18H178
	l15.8,20.1l-26.5,32.5l-9-52.6h-2.5l9.1,53L108-0.3v4.6l36,32l-25.8,0.6L108,8.7v7.4l7.5,20.9l-7.5,0.1v2.6l37.1-0.7l-23.8,45
	L108,70.5v3.6l6,6.1l2.5,2.5l-3.1-1.6l-5.4-2.3v2.8l11.8,5.2l-9.5,18.9L108,95.2v11.3l14,62.1l-14-3.8v2.7l12.1,3.3l-12.1,6v2.9
	l15-7.5l22.5,60.6L108,216.4v2.8l37.2,16.4L108,261.2v3.1l37.9-26.2l-14.2,67.7h2.5l14.2-67.7l33.1,41.5l-42.3,26.2h4.9l33.9-21
	l2.1-1.4l-1.4,2.2L167,305.9h2.9l13.3-22.9l8.2,22.9h2.6l-8.4-23.5l36.3,16.7l-9.1,6.8h4.3l7.5-5.6l11.3,5.6h5.9l-16-7.9v-35h-2.5
	v33.9l-37.7-17.3l15.2-16.6h-3.5l-13.9,15.1l-12.3-15.4l-1.3-1.7l-19.4-24.3h71.1l-3.4,3.7h3.5l1.6-1.7v1.7h2.5v-1.2l0.9,1.2h3.2
	l-2.1-2.8l-0.5-0.7l-1.1-1.5l31.6-37.2l-3.6,42.1h2.5l3.1-36.4l0.2-3.3l0.8,3.2l10.8,36.5h2.6l-12.6-42.8l48.2,34l0.6,3.1l-0.6,5.7
	h2.5l0.7-7l18.1,7h7.2l-23.2-9l55.5-28.7l20.1,37.7h2.9L374,203.7l77.3,36.6l-36.1,21.8l-1.2,0.7l-6.4,3.9l-2-3.7h-2.9l1.6,3.1
	l-7.9-3.1h-7.2l13.7,5.3l-96.2,26.8L310,263h-2.5l-4.3,42.9h2.5l0.8-8.1l38.1-10.6l-17.1,18.6h3.5l17.6-19.1l10.7,19.1h2.9
	l-11.4-20.3l54.3-15.1l-14.6,35.4h2.7l11.8-28.7l1.1-2.9l-0.1,3.1l0.1,28.5h2.5l-0.1-33.2l21.7,33.2h3l-24.2-37l43.2-26.1l-14,63.1
	h2.6l14-62.9l32.7,39.8l-38.1,23.1h5l31.7-19.3l-10.3,19.3h3.1l4-7.9l6.7-12.6l2.1,2.5l-7.9,10.7l-4.9,7.3h2.6l12.8-17.2l35.9-44.9
	l-0.3,54.9l-32.2,7.2h12l17-3.8l-4.1,3.8h3.8l2.5-2.3l-0.6,2.3h2.6l1-4.3l8.3,4.3h5.7l-12.9-6.7l-0.6-0.4v-1.4l0.3-53.8l24.8,30.9
	l23.9,31.2h3.2l-24.9-32.5L566,207l0.2-3l0.8,2.9l30,99h2.6l-31.8-105l43.5,27.9v-3.1L568,197.9l20-13.4l2.7-1.6l20.6,17v-2.3
	L593,182.1l0.7-1.9l16.7-37.1l0.9,1.6v-6l-0.1-1.2L600.5,42l10.7,11.7v-3.8l-6.2-6.8l0.6-0.9l5.7,2.2v-2.8l-10.2-3.9l10.2-11.1
	L611.3,22.8L611.3,22.8z M556.9,85.8l-1.3-2l-14.5-28.2l55.3-13.2l-28.3,54.5L556.9,85.8z M596.9,128.9l-62.5,41.4L556,88.5
	L596.9,128.9z M562,7.2l34.3,32.5l-54.8,13.1L562,7.2z M547.9-11.1l12,16.1l-24.2,27.2l-0.9-0.5L547.9-11.1z M554.8,14.6l0.9,0.6
	l-16.4,36.6l-6.4-12.5L554.8,14.6z M531.1,41.5l22.6,44l-91.4,49.8l-0.7-0.8L531.1,41.5z M304.7,139.7l102.4-57.8l1.2,0.5l18,89
	l-53-15.1l0.1-0.1L304.7,139.7z M301.8,143.1l33,55.3l-57-3.9L301.8,143.1z M286.7,166.9l6.4-35l7.1,8.7l-12.5,26.7L286.7,166.9z
	 M304.3,142.3l64.5,15.5l-31.6,39.7L304.3,142.3z M357.6,106.9l-63.1-66.2l0.6-0.9l32.6,12.8l0.2,0.1l0.8,0.3l0.4,0.1l0,0l74.8,27.7
	L357.6,106.9z M416,107.6l-4.9-24.2l14.8,5.5L416,107.6z M450.6,47.3l1,0.3l-6.8,83.3l-27.7-20.1L450.6,47.3z M417.3,114.1
	l35.3,25.6l1.2,0.9l-0.7,0.9l-24.4,29L417.3,114.1z M454.5,42.8L488.7,94l-0.9,1.2l-40.5,35.1L454.5,42.8z M518.9,53.5l-28.2,37.7
	L476.5,41L518.9,53.5z M506.6,47.2v-1.1l21.5-4.9l-7.6,10.1L506.6,47.2z M504.8,7.1L529,38.3l-28.4,6.5L504.8,7.1z M502.2,7.7
	l-4.1,36.9L475.9,38L502.2,7.7z M473.7,40.4l0.3,1.1l11.9,41.9l-0.9,0.5l-29.1-43.5H473.7z M425.8,12l0.6-0.9l42.3,26.7H454
	l-2.2-2.1L425.8,12z M451.4,40.4l-24.1,45.7l-46.1-45.7C381.2,40.4,451.4,40.4,451.4,40.4z M377.8,40.5l42.9,42.6l-0.5,0.9
	l-86.7-32.1L377.8,40.5z M375,38.6l-44.8,11.5l-6.4-44.8L375,38.6z M321,4.1l6.5,45.6l-37.4-14.6L321,4.1z M355.3,108.2L302.6,138
	l-13-98.8L355.3,108.2z M287.2,40.1l12.6,96.1l-5.1-6.3l-3.8-4.2L262,96.3L287.2,40.1z M290.4,128.8l-63.8,40.6l22.1-83L290.4,128.8
	z M260.1,94.3l-10.5-10.7l-1.3-2l-14.7-27.9l52-16.1L260.1,94.3z M285.4,35L234,50.9l19.7-44.8L285.4,35z M240.3-11.5L251.7,4
	L229,31.6l-0.9-0.5L240.3-11.5z M246,14.9l0.9,0.6l-15.2,34.6L226,39.3L246,14.9z M224.3,41.5l6.9,13.1l0,0l15.2,28.8l-89.6,48.9
	l-2.7,1.7l2-2.5L224.3,41.5z M171.4,105.3l5.2-4.8l-4.4,5.6l-22.5,29.7l-7.8-5.5L171.4,105.3z M141.3,127.4l6.9-86l33.2,52
	L141.3,127.4z M213.7,51.3L199,46.6l0.1-1.1l22.4-4.5L213.7,51.3z M222.2,38.2l-29.5,5.9l4.2-38L222.2,38.2z M194.5,5.2l-4.3,38.5
	l-21.5-6.9L194.5,5.2z M212,53.5L183.6,91l-15.2-51.4L212,53.5z M165.6,38.9L178.3,82l-0.9,0.5l-27.8-43.6H165.6z M119.5,11.2
	l-5.6-4.7l6.2,3.8l41.9,26h-14.1l0,0h-0.2L119.5,11.2z M122.7,86.8l21.7-41l1.2-2.3l-0.3,2.7l-6.6,81.8l-27.2-19L122.7,86.8z
	 M111.9,112.3l36.2,25.4l-23.8,29.9L111.9,112.3z M146.8,226v2.7l-1-2.5l-20.6-55.5l23.5-29.6L146.8,226z M151.1,140.2l36.9,31.7
	l-8.5,12.1l-4.5,6.5l-25.9,40.3L151.1,140.2z M193.8,178.3l-1.1-2.5l1.9,1.9l18.8,16.2l-6.7,15L193.8,178.3z M203.7,208.1
	l-24.9-18.6l10.6-15.3L203.7,208.1z M160.8,145.1l-3.1-2.7l3.7,1.7l61.4,28.6l-8.3,18.5L160.8,145.1z M173.9,234h-23.8l25.5-39.6
	L173.9,234z M178.2,192.3l26.3,19.6l-28.1,20.8L178.2,192.3z M179,234l27.4-20.4l15.5,20.4H179z M223.2,231.6l-15.1-19.9l14.1-31.5
	l1,0.2V231.6z M223.7,170.4l-70.9-33l93.3-50.9L223.7,170.4z M225.7,228.6v-3.2v-50.8l16,10.2l-15,40.8L225.7,228.6z M256,196.4
	l-26,30.5l-2.2,2.8l1.3-3.4l14.8-40.2l13.5,8.6L256,196.4z M258.9,192.5l-2.9-1.7l-29.1-18.6l62.3-39.6L258.9,192.5z M263.7,188.5
	l24.3-48l1,0.4l-6.5,35.8l-18,12.6l-1.8,1.3L263.7,188.5z M281.6,180.4l-6.4,13.8l-12-0.8L281.6,180.4z M311.7,229.7L263.9,196
	l70.7,4.9L311.7,229.7z M371.3,199.3l-0.2,0.1l-0.6,0.3l-1.2,0.6l0,0l-50.5,26.1l-0.6-0.8l53.3-67l52.8,15L371.3,199.3z
	 M374.1,200.8l53.2-25.9l24.4,62.6L374.1,200.8z M453,234.1l-1-2.8l-22.5-57.8l24.9-29.6l-1.4,87.2V234.1z M453.6,137.3l-5.7-4.1
	l28.9-25.1l0.7,0.8l-21.9,29.3l-0.3,0.6L453.6,137.3z M456.8,143l38.4,30.6l-39.9,62.2L456.8,143z M486.6,195.4l23.9,17.7
	l-29.3,21.7L486.6,195.4z M486.4,192l10.3-16l13.2,33.5L486.4,192z M499.9,177.3l20.7,17l-7.7,15.7L499.9,177.3z M498,172.5
	L498,172.5l-30.9-24.6l-4.2-3l67.7,29l-8.9,18.1L498,172.5z M482.8,197.6l1.3-2.2l-0.4,2.6l-5.6,40.9h-21.8L482.8,197.6z
	 M493.2,285.8l-36.4-44.4h71.8L493.2,285.8z M480.2,238.9l32.2-23.9l16.4,23.9H480.2z M530.9,181.1l-0.9,55.1l-15.9-23.3l0.3-0.6
	l16.4-33.5v2.3H530.9z M531.5,171.5l-72.9-31.2l94.8-51.6L531.5,171.5z M532.7,228.9l0.8-53.2l14.6,10.9l-14.5,42.5l-1.1,3.2
	L532.7,228.9z M550.3,188.2l12.4,9.2l0.9,0.6l0.2,0.1l-0.4,0.6l-26.8,33l-2,2.5l1.1-3L550.3,188.2z M557.3,270.6l-24.4-30.4L564,202
	L557.3,270.6z M565.1,195.9l-1.3-0.9l-29.3-21.7l61.2-40.5L565.1,195.9z M591.3,179.1l-22.5,15.1l27.9-57.7l-0.4,3.2L591.3,179.1z
	 M594.7,171.9l0.5-3.6l4.6-36.4l8.9,8.8L594.7,171.9z M608.6,137L570,98.7l28.3-54.4L608.6,137z M278.3,263l12.7,42.9h2.6L280.9,263
	H278.3z M254.7,263h-2.5l-0.5,6.4l-4.8-6.4h-3.2l32.3,42.9h3.1l-25.2-33.5L254.7,263z M113.7-18c-0.2,0-0.3,0-0.4,0l-5.3,7v4.2
	l8.5-11.2H113.7z M108,278.3l18.2,27.6h3L108,273.7V278.3z"/>
</svg>
