<?xml version="1.0" encoding="utf-8"?>
<!-- Generator: Adobe Illustrator 19.0.0, SVG Export Plug-In . SVG Version: 6.00 Build 0)  -->
<svg version="1.1" id="Layer_1" xmlns="http://www.w3.org/2000/svg" xmlns:xlink="http://www.w3.org/1999/xlink" x="0px" y="0px"
	 viewBox="108 -18 503.3 324" style="enable-background:new 108 -18 503.3 324;" xml:space="preserve">
<path d="M584.1,175.2L584.1,175.2h-2.8h-2.7l0,0h-2.7h-2.7v-2.7v-2.8V167v-2.7v-2.8h2.7h2.7l0,0h2.7v2.8v2.7h2.8v-2.7v-2.8l0,0v-2.7
	h-2.8h-2.7l0,0h-2.7h-2.7h-2.8v2.7l0,0v2.8v2.7v2.7v2.8v2.7v2.7h2.8h2.7h2.7l0,0h2.7h2.8l0,0h2.7v2.7v2.8v2.7l0,0v2.7v2.7h-2.7l0,0
	h-2.8h-2.7v-2.7v-2.7h-2.7v2.7v2.7v2.8h2.7l0,0h2.7h2.8l0,0h2.7h2.7v-2.8v-2.7v-2.7l0,0v-2.7v-2.8v-2.7v-2.7h-2.7H584.1z M584.1,197
	L584.1,197h-2.8h-2.7l0,0h-2.7h-2.7v-2.7v-2.8v-2.7v-2.7l0,0v-2.7h2.7h2.7l0,0h2.7v2.7l0,0v2.7h2.8v-2.7l0,0v-2.7v-2.8h-2.8h-2.7
	l0,0h-2.7h-2.7h-2.8v2.8v2.7l0,0v2.7v2.7v2.8v2.7v2.7h2.8h2.7h2.7l0,0h2.7h2.8l0,0h2.7v2.8v2.7v2.7v2.7l0,0v2.8h-2.7l0,0h-2.8h-2.7
	v-2.8l0,0v-2.7h-2.7v2.7l0,0v2.8v2.7h2.7l0,0h2.7h2.8l0,0h2.7h2.7v-2.7v-2.8l0,0v-2.7v-2.7v-2.7v-2.8V197h-2.7H584.1z M584.1,262.5
	L584.1,262.5h-2.8h-2.7l0,0h-2.7h-2.7v-2.8V257v-2.7v-2.7v-2.8h2.7h2.7l0,0h2.7v2.8v2.7h2.8v-2.7v-2.8v-2.7h-2.8h-2.7l0,0h-2.7h-2.7
	h-2.8v2.7v2.8v2.7v2.7v2.7v2.8v2.7h2.8h2.7h2.7l0,0h2.7h2.8l0,0h2.7v2.7l0,0l0,0v2.8v2.7v2.7l0,0v2.7v2.8l0,0v2.7h-2.7h-2.8h-2.7
	h-2.7h-2.7v-2.7l0,0v-2.8v-2.7h2.7h2.7v-2.7h-2.7h-2.7h-2.8v2.7l0,0v2.7v2.8l0,0v2.7v2.7h2.8h2.7h2.7h2.7h2.8h2.7h2.7v-2.7v-2.7l0,0
	l0,0v-2.8l0,0v-2.7l0,0l0,0v-2.7l0,0v-2.7l0,0v-2.8l0,0l0,0v-2.7l0,0v-2.7h-2.7H584.1z M584.1,153.4L584.1,153.4h-2.8h-2.7l0,0h-2.7
	h-2.7v-2.8v-2.7v-2.7v-2.8v-2.7h2.7h2.7l0,0h2.7v2.7v2.8h2.8v-2.8v-2.7V137h-2.8h-2.7l0,0h-2.7h-2.7h-2.8v2.7v2.7v2.8v2.7v2.7v2.8
	v2.7h2.8h2.7h2.7l0,0h2.7h2.8l0,0h2.7v2.7v2.7l0,0v2.8v2.7v2.7h-2.7l0,0h-2.8h-2.7V167v-2.7h-2.7v2.7v2.7v2.8h2.7l0,0h2.7h2.8l0,0
	h2.7h2.7v-2.8V167v-2.7v-2.8l0,0v-2.7v-2.7v-2.7h-2.7H584.1z M584.1,240.7L584.1,240.7h-2.8h-2.7l0,0h-2.7h-2.7v-2.8v-2.7v-2.7v-2.8
	l0,0V227h2.7h2.7l0,0h2.7v2.7l0,0v2.8h2.8v-2.8l0,0V227v-2.7h-2.8h-2.7l0,0h-2.7h-2.7h-2.8v2.7v2.7l0,0v2.8v2.7v2.7v2.8v2.7h2.8h2.7
	h2.7l0,0h2.7h2.8l0,0h2.7v2.7v2.7v2.8v2.7v2.7h-2.7l0,0h-2.8h-2.7v-2.7v-2.7h-2.7v2.7v2.7v2.7h2.7l0,0h2.7h2.8l0,0h2.7h2.7V257v-2.7
	v-2.7v-2.8v-2.7v-2.7l0,0v-2.7h-2.7H584.1z M584.1,218.8L584.1,218.8h-2.8h-2.7l0,0h-2.7h-2.7v-2.7v-2.7v-2.8l0,0v-2.7v-2.7h2.7h2.7
	l0,0h2.7v2.7v2.7h2.8v-2.7v-2.7v-2.7h-2.8h-2.7l0,0h-2.7h-2.7h-2.8v2.7v2.7v2.7l0,0v2.8v2.7v2.7v2.8h2.8h2.7h2.7l0,0h2.7h2.8l0,0
	h2.7v2.7v2.7v2.7l0,0v2.8v2.7h-2.7l0,0h-2.8h-2.7v-2.7v-2.8h-2.7v2.8v2.7v2.7h2.7l0,0h2.7h2.8l0,0h2.7h2.7v-2.7v-2.7v-2.8l0,0V227
	v-2.7v-2.7v-2.8h-2.7H584.1z M584.1,66.1L584.1,66.1h-2.8h-2.7l0,0h-2.7h-2.7v-2.8l0,0v-2.7v-2.7v-2.7v-2.8h2.7h2.7l0,0h2.7v2.8v2.7
	h2.8v-2.7v-2.8v-2.7h-2.8h-2.7l0,0h-2.7h-2.7h-2.8v2.7v2.8v2.7v2.7v2.7l0,0v2.8v2.7h2.8h2.7h2.7l0,0h2.7h2.8l0,0h2.7v2.7v2.7V77v2.7
	v2.7h-2.7l0,0h-2.8h-2.7v-2.7V77h-2.7v2.7v2.7v2.8h2.7l0,0h2.7h2.8l0,0h2.7h2.7v-2.8v-2.7V77v-2.8v-2.7v-2.7v-2.7h-2.7H584.1z
	 M584.1,131.5L584.1,131.5h-2.8h-2.7l0,0h-2.7h-2.7v-2.7v-2.7v-2.7v-2.8v-2.7h2.7h2.7l0,0h2.7v2.7v2.8h2.8v-2.8v-2.7v-2.7h-2.8h-2.7
	l0,0h-2.7h-2.7h-2.8v2.7v2.7v2.8v2.7v2.7v2.7l0,0v2.8h2.8h2.7h2.7l0,0h2.7h2.8l0,0h2.7v2.7v2.7v2.7v2.8v2.7h-2.7l0,0h-2.8h-2.7v-2.7
	v-2.8h-2.7v2.8v2.7v2.7h2.7l0,0h2.7h2.8l0,0h2.7h2.7v-2.7v-2.7v-2.8v-2.7V137v-2.7v-2.8h-2.7H584.1z M584.1,44.2L584.1,44.2h-2.8
	h-2.7l0,0h-2.7h-2.7v-2.7v-2.7v-2.7v-2.8v-2.7h2.7h2.7l0,0h2.7v2.7v2.8h2.8v-2.8v-2.7v-2.7h-2.8h-2.7l0,0h-2.7h-2.7h-2.8v2.7v2.7
	v2.8v2.7v2.7v2.7V47h2.8h2.7h2.7l0,0h2.7h2.8l0,0h2.7v2.7v2.7v2.8v2.7v2.7h-2.7l0,0h-2.8h-2.7v-2.7v-2.7h-2.7v2.7v2.7v2.7h2.7l0,0
	h2.7h2.8l0,0h2.7h2.7v-2.7v-2.7v-2.7v-2.8v-2.7V47v-2.8h-2.7H584.1z M584.1,109.7L584.1,109.7h-2.8h-2.7l0,0h-2.7h-2.7V107v-2.7
	v-2.8v-2.7v-2.7h2.7h2.7l0,0h2.7v2.7v2.7h2.8v-2.7v-2.7v-2.8h-2.8h-2.7l0,0h-2.7h-2.7h-2.8v2.8v2.7v2.7v2.8v2.7v2.7v2.7h2.8h2.7h2.7
	l0,0h2.7h2.8l0,0h2.7v2.8v2.7v2.7v2.8v2.7h-2.7l0,0h-2.8h-2.7v-2.7v-2.8h-2.7v2.8v2.7v2.7h2.7l0,0h2.7h2.8l0,0h2.7h2.7v-2.7v-2.7
	v-2.8v-2.7v-2.7v-2.8v-2.7h-2.7H584.1z M584.1,87.9L584.1,87.9h-2.8h-2.7l0,0h-2.7h-2.7v-2.7v-2.8v-2.7V77v-2.8h2.7h2.7l0,0h2.7V77
	v2.7h2.8V77v-2.8v-2.7h-2.8h-2.7l0,0h-2.7h-2.7h-2.8v2.7V77v2.7v2.7v2.8v2.7v2.7h2.8h2.7h2.7l0,0h2.7h2.8l0,0h2.7v2.7v2.8v2.7v2.7
	v2.8h-2.7l0,0h-2.8h-2.7v-2.8v-2.7h-2.7v2.7v2.8v2.7h2.7l0,0h2.7h2.8l0,0h2.7h2.7v-2.7v-2.8v-2.7v-2.7v-2.8v-2.7v-2.7h-2.7H584.1z
	 M136.7,273.4H134v2.7v2.7v2.8h2.7l0,0h2.7h2.8l0,0h2.7h2.7v-2.8v-2.7v-2.7v-2.7v-2.8l0,0v-2.7l0,0v-2.7h-2.7h-2.7l0,0h-2.8h-2.7
	l0,0H134h-2.7v-2.8V257v-2.7v-2.7v-2.8h2.7h2.7l0,0h2.7v2.8v2.7h2.8v-2.7v-2.8v-2.7h-2.8h-2.7l0,0H134h-2.7h-2.8v2.7v2.8v2.7v2.7
	v2.7v2.8v2.7h2.8h2.7h2.7l0,0h2.7h2.8l0,0h2.7v2.7l0,0v2.8v2.7v2.7v2.7h-2.7l0,0h-2.8h-2.7v-2.7V273.4z M147.6,257v-2.7v-2.7v-2.8
	v-2.7v-2.7l0,0v-2.7h-2.7h-2.7l0,0h-2.8h-2.7l0,0H134h-2.7v-2.8v-2.7v-2.7v-2.8l0,0V227h2.7h2.7l0,0h2.7v2.7l0,0v2.8h2.8v-2.8l0,0
	V227v-2.7h-2.8h-2.7l0,0H134h-2.7h-2.8v2.7v2.7l0,0v2.8v2.7v2.7v2.8v2.7h2.8h2.7h2.7l0,0h2.7h2.8l0,0h2.7v2.7v2.7v2.8v2.7v2.7h-2.7
	l0,0h-2.8h-2.7v-2.7v-2.7H134v2.7v2.7v2.7h2.7l0,0h2.7h2.8l0,0h2.7h2.7V257z M147.6,213.4v-2.8l0,0v-2.7v-2.7v-2.7v-2.8V197h-2.7
	h-2.7l0,0h-2.8h-2.7l0,0H134h-2.7v-2.7v-2.8v-2.7v-2.7l0,0v-2.7h2.7h2.7l0,0h2.7v2.7l0,0v2.7h2.8v-2.7l0,0v-2.7v-2.8h-2.8h-2.7l0,0
	H134h-2.7h-2.8v2.8v2.7l0,0v2.7v2.7v2.8v2.7v2.7h2.8h2.7h2.7l0,0h2.7h2.8l0,0h2.7v2.8v2.7v2.7v2.7l0,0v2.8h-2.7l0,0h-2.8h-2.7v-2.8
	l0,0v-2.7H134v2.7l0,0v2.8v2.7h2.7l0,0h2.7h2.8l0,0h2.7h2.7V213.4z M128.5,25.1h2.8h2.7h2.7l0,0h2.7h2.8l0,0h2.7v2.8v2.7v2.7v2.8
	v2.7h-2.7l0,0h-2.8h-2.7v-2.7v-2.8H134v2.8v2.7v2.7h2.7l0,0h2.7h2.8l0,0h2.7h2.7v-2.7v-2.7v-2.8v-2.7v-2.7v-2.8v-2.7h-2.7h-2.7l0,0
	h-2.8h-2.7l0,0H134h-2.7l0,0v-5.5v-2.7l0,0v-2.8V8.7l0,0V6V3.2h2.7h2.7h2.7h2.8l0,0h2.7V6v2.7l0,0v2.7h-2.7l0,0h-2.8v2.8h2.8l0,0
	h2.7h2.7v-2.8V8.7l0,0V6V3.2V0.5h-2.7h-2.7l0,0h-2.8h-2.7H134h-2.7h-2.8v2.7V6v2.7l0,0v2.7v2.8l0,0v2.7V25.1L128.5,25.1L128.5,25.1
	L128.5,25.1z M147.6,191.5v-2.7v-2.7l0,0v-2.7v-2.8v-2.7v-2.7h-2.7h-2.7l0,0h-2.8h-2.7l0,0H134h-2.7v-2.7v-2.8V167v-2.7v-2.8h2.7
	h2.7l0,0h2.7v2.8v2.7h2.8v-2.7v-2.8l0,0v-2.7h-2.8h-2.7l0,0H134h-2.7h-2.8v2.7l0,0v2.8v2.7v2.7v2.8v2.7v2.7h2.8h2.7h2.7l0,0h2.7h2.8
	l0,0h2.7v2.7v2.8v2.7l0,0v2.7v2.7h-2.7l0,0h-2.8h-2.7v-2.7v-2.7H134v2.7v2.7v2.8h2.7l0,0h2.7h2.8l0,0h2.7h2.7V191.5z M147.6,104.3
	v-2.8v-2.7v-2.7v-2.8v-2.7v-2.7h-2.7h-2.7l0,0h-2.8h-2.7l0,0H134h-2.7v-2.7v-2.8v-2.7V77v-2.8h2.7h2.7l0,0h2.7V77v2.7h2.8V77v-2.8
	v-2.7h-2.8h-2.7l0,0H134h-2.7h-2.8v2.7V77v2.7v2.7v2.8v2.7v2.7h2.8h2.7h2.7l0,0h2.7h2.8l0,0h2.7v2.7v2.8v2.7v2.7v2.8h-2.7l0,0h-2.8
	h-2.7v-2.8v-2.7H134v2.7v2.8v2.7h2.7l0,0h2.7h2.8l0,0h2.7h2.7V104.3z M147.6,235.2v-2.7v-2.8l0,0V227v-2.7v-2.7v-2.8h-2.7h-2.7l0,0
	h-2.8h-2.7l0,0H134h-2.7v-2.7v-2.7v-2.8l0,0v-2.7v-2.7h2.7h2.7l0,0h2.7v2.7v2.7h2.8v-2.7v-2.7v-2.7h-2.8h-2.7l0,0H134h-2.7h-2.8v2.7
	v2.7v2.7l0,0v2.8v2.7v2.7v2.8h2.8h2.7h2.7l0,0h2.7h2.8l0,0h2.7v2.7v2.7v2.7l0,0v2.8v2.7h-2.7l0,0h-2.8h-2.7v-2.7v-2.8H134v2.8v2.7
	v2.7h2.7l0,0h2.7h2.8l0,0h2.7h2.7V235.2z M147.6,82.4v-2.7V77v-2.8v-2.7v-2.7v-2.7h-2.7h-2.7l0,0h-2.8h-2.7l0,0H134h-2.7v-2.8l0,0
	v-2.7v-2.7v-2.7v-2.8h2.7h2.7l0,0h2.7v2.8v2.7h2.8v-2.7v-2.8v-2.7h-2.8h-2.7l0,0H134h-2.7h-2.8v2.7v2.8v2.7v2.7v2.7l0,0v2.8v2.7h2.8
	h2.7h2.7l0,0h2.7h2.8l0,0h2.7v2.7v2.7V77v2.7v2.7h-2.7l0,0h-2.8h-2.7v-2.7V77H134v2.7v2.7v2.8h2.7l0,0h2.7h2.8l0,0h2.7h2.7V82.4z
	 M147.6,169.7V167v-2.7v-2.8l0,0v-2.7v-2.7v-2.7h-2.7h-2.7l0,0h-2.8h-2.7l0,0H134h-2.7v-2.8v-2.7v-2.7v-2.8v-2.7h2.7h2.7l0,0h2.7
	v2.7v2.8h2.8v-2.8v-2.7V137h-2.8h-2.7l0,0H134h-2.7h-2.8v2.7v2.7v2.8v2.7v2.7v2.8v2.7h2.8h2.7h2.7l0,0h2.7h2.8l0,0h2.7v2.7v2.7l0,0
	v2.8v2.7v2.7h-2.7l0,0h-2.8h-2.7V167v-2.7H134v2.7v2.7v2.8h2.7l0,0h2.7h2.8l0,0h2.7h2.7V169.7z M147.6,60.6v-2.7v-2.7v-2.8v-2.7V47
	v-2.8h-2.7h-2.7l0,0h-2.8h-2.7l0,0H134h-2.7v-2.7v-2.7v-2.7v-2.8v-2.7h2.7h2.7l0,0h2.7v2.7v2.8h2.8v-2.8v-2.7v-2.7h-2.8h-2.7l0,0
	H134h-2.7h-2.8v2.7v2.7v2.8v2.7v2.7v2.7V47h2.8h2.7h2.7l0,0h2.7h2.8l0,0h2.7v2.7v2.7v2.8v2.7v2.7h-2.7l0,0h-2.8h-2.7v-2.7v-2.7H134
	v2.7v2.7v2.7h2.7l0,0h2.7h2.8l0,0h2.7h2.7V60.6z M147.6,147.9v-2.7v-2.8v-2.7V137v-2.7v-2.8h-2.7h-2.7l0,0h-2.8h-2.7l0,0H134h-2.7
	v-2.7v-2.7v-2.7v-2.8v-2.7h2.7h2.7l0,0h2.7v2.7v2.8h2.8v-2.8v-2.7v-2.7h-2.8h-2.7l0,0H134h-2.7h-2.8v2.7v2.7v2.8v2.7v2.7v2.7l0,0
	v2.8h2.8h2.7h2.7l0,0h2.7h2.8l0,0h2.7v2.7v2.7v2.7v2.8v2.7h-2.7l0,0h-2.8h-2.7v-2.7v-2.8H134v2.8v2.7v2.7h2.7l0,0h2.7h2.8l0,0h2.7
	h2.7V147.9z M147.6,126.1v-2.7v-2.8v-2.7v-2.7v-2.8v-2.7h-2.7h-2.7l0,0h-2.8h-2.7l0,0H134h-2.7V107v-2.7v-2.8v-2.7v-2.7h2.7h2.7l0,0
	h2.7v2.7v2.7h2.8v-2.7v-2.7v-2.8h-2.8h-2.7l0,0H134h-2.7h-2.8v2.8v2.7v2.7v2.8v2.7v2.7v2.7h2.8h2.7h2.7l0,0h2.7h2.8l0,0h2.7v2.8v2.7
	v2.7v2.8v2.7h-2.7l0,0h-2.8h-2.7v-2.7v-2.8H134v2.8v2.7v2.7h2.7l0,0h2.7h2.8l0,0h2.7h2.7V126.1z M376.7,270.7h2.8h2.7l0,0h2.7v2.7
	v2.7l0,0v2.7h-2.7l0,0h-2.7v2.8h2.7l0,0h2.7h2.8v-2.8v-2.7l0,0v-2.7v-2.7v-2.8h-2.8h-2.7l0,0h-2.7h-2.8H374h-2.7h-2.7v2.8v2.7v2.7
	l0,0v2.7v2.8l0,0v2.7h-2.8h-2.7h-2.7h-2.7h-2.8v-2.7l0,0v-2.8v-2.7h2.8h2.7v-2.7h-2.7h-2.8h-2.7v2.7l0,0v2.7v2.8l0,0v2.7v2.7h2.7
	h2.8h2.7h2.7h2.7h2.8l0,0h2.7v-2.7v-2.7l0,0v-2.8v-2.7l0,0v-2.7v-2.7h2.7H376.7z M529.5,270.7h2.7h2.8h2.7v2.7v2.7l0,0v2.7H535h-2.8
	v2.8h2.8h2.7h2.7v-2.8v-2.7l0,0v-2.7v-2.7v-2.8h-2.7H535h-2.8h-2.7h-2.7h-2.7h-2.8v2.8v2.7v2.7l0,0v2.7v2.8l0,0v2.7h-2.7h-2.7h-2.8
	h-2.7h-2.7v-2.7l0,0v-2.8v-2.7h2.7h2.7v-2.7h-2.7h-2.7H505v2.7l0,0v2.7v2.8l0,0v2.7v2.7h2.7h2.7h2.7h2.8h2.7h2.7h2.8v-2.7v-2.7l0,0
	v-2.8v-2.7l0,0v-2.7v-2.7h2.7H529.5z M352.2,270.7h2.7h2.8h2.7h2.7v2.7v2.7l0,0v2.7h-2.7h-2.7v2.8h2.7h2.7h2.7v-2.8v-2.7l0,0v-2.7
	v-2.7v-2.8h-2.7h-2.7h-2.7h-2.8h-2.7h-2.7h-2.8v2.8v2.7v2.7l0,0v2.7v2.8l0,0v2.7H344l0,0h-2.7h-2.7h-2.8h-2.7v-2.7l0,0v-2.7v-2.8
	h2.7h2.8v-2.7l0,0l0,0h-2.8h-2.7h-2.7v2.7l0,0v2.7v2.8l0,0v2.7v2.7l0,0l0,0h2.7h2.7h2.8h2.7h2.7h2.8h2.7v-2.7v-2.7l0,0v-2.7v-2.8
	l0,0v-2.7v-2.7l0,0H352.2z M507.7,270.7h2.7h2.7h2.8v2.7v2.7l0,0v2.7h-2.8h-2.7v2.8h2.7h2.8h2.7v-2.8v-2.7l0,0v-2.7v-2.7v-2.8h-2.7
	h-2.8h-2.7h-2.7H505h-2.8h-2.7v2.8v2.7v2.7l0,0v2.7v2.8l0,0v2.7h-2.7H494h-2.7h-2.7h-2.7v-2.7l0,0v-2.8v-2.7h2.7h2.7v-2.7h-2.7h-2.7
	h-2.8v2.7l0,0v2.7v2.8l0,0v2.7v2.7h2.8h2.7h2.7h2.7h2.8h2.7h2.7v-2.7v-2.7l0,0v-2.8v-2.7l0,0v-2.7v-2.7h2.8H507.7z M548.6,270.7h2.7
	h2.8h2.7h2.7v2.7v2.7l0,0v2.7h-2.7h-2.7v2.8h2.7h2.7h2.7v-2.8v-2.7l0,0v-2.7v-2.7v-2.8h-2.7h-2.7h-2.7h-2.8h-2.7l0,0h-2.7h-2.7v2.8
	v2.7v2.7l0,0v2.7v2.8l0,0v2.7h-2.8h-2.7H535h-2.8h-2.7v-2.7l0,0v-2.8v-2.7h2.7h2.8v-2.7h-2.8h-2.7h-2.7v2.7l0,0v2.7v2.8l0,0v2.7v2.7
	h2.7h2.7h2.8h2.7h2.7h2.8h2.7v-2.7v-2.7l0,0v-2.8v-2.7l0,0v-2.7v-2.7H548.6z M573.2,270.7h2.7h2.7h2.7v2.7v2.7l0,0v2.7h-2.7h-2.7
	v2.8h2.7h2.7h2.8v-2.8v-2.7l0,0v-2.7v-2.7v-2.8h-2.8h-2.7h-2.7h-2.7h-2.8h-2.7H565v2.8v2.7v2.7l0,0v2.7v2.8l0,0v2.7h-2.8h-2.7h-2.7
	h-2.7h-2.8v-2.7l0,0v-2.8v-2.7h2.8h2.7v-2.7h-2.7h-2.8h-2.7v2.7l0,0v2.7v2.8l0,0v2.7v2.7h2.7h2.8h2.7h2.7h2.7h2.8h2.7v-2.7v-2.7l0,0
	v-2.8v-2.7l0,0v-2.7v-2.7h2.7H573.2z M485.9,270.7h2.7h2.7h2.7v2.7v2.7l0,0v2.7h-2.7h-2.7v2.8h2.7h2.7h2.8v-2.8v-2.7l0,0v-2.7v-2.7
	v-2.8H494h-2.7h-2.7h-2.7h-2.8h-2.7l0,0h-2.7v2.8v2.7v2.7l0,0v2.7v2.8l0,0v2.7H475h-2.8h-2.7h-2.7H464v-2.7l0,0v-2.8v-2.7h2.8h2.7
	v-2.7h-2.7H464h-2.7v2.7l0,0v2.7v2.8l0,0v2.7v2.7h2.7h2.8h2.7h2.7h2.8h2.7h2.7v-2.7v-2.7l0,0v-2.8v-2.7l0,0v-2.7v-2.7h2.7H485.9z
	 M398.6,270.7h2.7l0,0h2.7h2.8v2.7v2.7l0,0v2.7H404h-2.7v2.8h2.7h2.8h2.7v-2.8v-2.7l0,0v-2.7v-2.7v-2.8h-2.7H404h-2.7l0,0h-2.7h-2.8
	h-2.7h-2.7v2.8v2.7v2.7l0,0v2.7v2.8l0,0v2.7h-2.7h-2.8h-2.7l0,0h-2.7h-2.8v-2.7l0,0v-2.8v-2.7h2.8h2.7v-2.7h-2.7h-2.8H374v2.7l0,0
	v2.7v2.8l0,0v2.7v2.7h2.7h2.8h2.7l0,0h2.7h2.8h2.7h2.7v-2.7v-2.7l0,0v-2.8v-2.7l0,0v-2.7v-2.7h2.7H398.6z M420.4,270.7h2.7h2.8l0,0
	h2.7v2.7v2.7l0,0v2.7h-2.7l0,0h-2.8v2.8h2.8l0,0h2.7h2.7v-2.8v-2.7l0,0v-2.7v-2.7v-2.8h-2.7h-2.7l0,0h-2.8h-2.7h-2.7h-2.8h-2.7v2.8
	v2.7v2.7l0,0v2.7v2.8l0,0v2.7h-2.7h-2.7H404h-2.7l0,0h-2.7v-2.7l0,0v-2.8v-2.7h2.7l0,0h2.7v-2.7h-2.7l0,0h-2.7h-2.8v2.7l0,0v2.7v2.8
	l0,0v2.7v2.7h2.8h2.7l0,0h2.7h2.8h2.7h2.7h2.7v-2.7v-2.7l0,0v-2.8v-2.7l0,0v-2.7v-2.7h2.8H420.4z M442.2,270.7h2.7h2.8h2.7v2.7v2.7
	l0,0v2.7h-2.7h-2.8v2.8h2.8h2.7l0,0h2.7v-2.8v-2.7l0,0v-2.7v-2.7v-2.8h-2.7l0,0h-2.7h-2.8h-2.7h-2.7h-2.7H434v2.8v2.7v2.7l0,0v2.7
	v2.8l0,0v2.7h-2.7h-2.7h-2.7l0,0h-2.8h-2.7v-2.7l0,0v-2.8v-2.7h2.7h2.8v-2.7h-2.8h-2.7h-2.7v2.7l0,0v2.7v2.8l0,0v2.7v2.7h2.7h2.7
	h2.8l0,0h2.7h2.7h2.7h2.8v-2.7v-2.7l0,0v-2.8v-2.7l0,0v-2.7v-2.7h2.7H442.2z M464,270.7h2.8h2.7h2.7v2.7v2.7l0,0v2.7h-2.7h-2.7v2.8
	h2.7h2.7h2.8v-2.8v-2.7l0,0v-2.7v-2.7v-2.8h-2.8h-2.7h-2.7H464h-2.7h-2.7h-2.7v2.8v2.7v2.7l0,0v2.7v2.8l0,0v2.7h-2.8h-2.7l0,0h-2.7
	h-2.8h-2.7v-2.7l0,0v-2.8v-2.7h2.7h2.8v-2.7h-2.8h-2.7h-2.7v2.7l0,0v2.7v2.8l0,0v2.7v2.7h2.7h2.7h2.8h2.7l0,0h2.7h2.8h2.7v-2.7v-2.7
	l0,0v-2.8v-2.7l0,0v-2.7v-2.7h2.7H464z M308.6,270.7h2.7h2.7h2.8h2.7v2.7v2.7l0,0v2.8h-2.7H314v2.7h2.8h2.7h2.7v-2.7v-2.8l0,0v-2.7
	v-2.7v-2.8h-2.7h-2.7H314h-2.7h-2.7l0,0h-2.8h-2.7v2.8v2.7v2.7l0,0v2.8v2.7l0,0v2.7h-2.7h-2.7h-2.8h-2.7h-2.7v-2.7l0,0v-2.7v-2.8
	h2.7h2.7v-2.7h-2.7h-2.7h-2.8v2.7l0,0v2.8v2.7l0,0v2.7v2.7h2.8h2.7h2.7h2.8h2.7h2.7h2.7v-2.7v-2.7l0,0v-2.7v-2.8l0,0v-2.7v-2.7
	H308.6z M158.5,270.7h2.8l0,0h2.7h2.7v2.7v2.7l0,0v2.8H164h-2.7v2.7h2.7h2.7h2.7v-2.7v-2.8l0,0v-2.7v-2.7v-2.8h-2.7H164h-2.7l0,0
	h-2.8h-2.7h-2.7h-2.8v2.8v2.7v2.7l0,0v2.8v2.7l0,0v2.7h-2.7l0,0h-2.7h-2.7l0,0h-2.8h-2.7l0,0H134h-2.7v-2.7v-2.8v-2.7v-2.7v-2.7h2.7
	h2.7l0,0h2.7v2.7v2.7h2.8v-2.7v-2.7v-2.8h-2.8h-2.7l0,0H134h-2.7h-2.8v2.8v2.7v2.7v2.7v2.8v2.7v2.7h2.8h2.7h2.7l0,0h2.7h2.8l0,0h2.7
	h2.7l0,0h2.7h2.8v-2.7v-2.7l0,0v-2.7v-2.8l0,0v-2.7v-2.7h2.7H158.5z M245.8,270.7h2.8h2.7h2.7v2.7v2.7l0,0v2.8h-2.7h-2.7v2.7h2.7
	h2.7h2.7v-2.7v-2.8l0,0v-2.7v-2.7v-2.8H254h-2.7h-2.7h-2.8h-2.7h-2.7l0,0h-2.8v2.8v2.7v2.7l0,0v2.8v2.7l0,0v2.7h-2.7h-2.7h-2.7h-2.8
	H224v-2.7l0,0v-2.7v-2.8h2.7h2.8v-2.7h-2.8H224h-2.7v2.7l0,0v2.8v2.7l0,0v2.7v2.7h2.7h2.7h2.8h2.7h2.7h2.7h2.8v-2.7v-2.7l0,0v-2.7
	v-2.8l0,0v-2.7v-2.7h2.7H245.8z M267.6,270.7h2.8h2.7h2.7v2.7v2.7l0,0v2.8h-2.7h-2.7v2.7h2.7h2.7h2.8v-2.7v-2.8l0,0v-2.7v-2.7v-2.8
	h-2.8h-2.7h-2.7h-2.8h-2.7h-2.7h-2.7v2.8v2.7v2.7l0,0v2.8v2.7l0,0v2.7h-2.8H254h-2.7h-2.7h-2.8v-2.7l0,0v-2.7v-2.8h2.8h2.7v-2.7
	h-2.7h-2.8h-2.7v2.7l0,0v2.8v2.7l0,0v2.7v2.7h2.7h2.8h2.7h2.7h2.7h2.8h2.7v-2.7v-2.7l0,0v-2.7v-2.8l0,0v-2.7v-2.7h2.7H267.6z
	 M333.1,270.7h2.7h2.8h2.7v2.7v2.7l0,0v2.7h-2.7h-2.8v2.8l0,0l0,0h2.8h2.7h2.7v-2.7v-2.8l0,0v-2.7v-2.7v-2.8l0,0l0,0h-2.7h-2.7h-2.8
	h-2.7h-2.7h-2.8h-2.7v2.8v2.7v2.7l0,0v2.7v2.8l0,0v2.7l0,0h-2.7h-2.7h-2.7H314h-2.7v-2.7l0,0v-2.7v-2.8h2.7h2.8v-2.7H314h-2.7h-2.7
	v2.7l0,0v2.8v2.7l0,0v2.7v2.7h2.7h2.7h2.8h2.7h2.7h2.7h2.8v-2.7v-2.7l0,0v-2.7v-2.8l0,0v-2.7v-2.7h2.7H333.1z M289.5,270.7h2.7h2.7
	h2.8v2.7v2.7l0,0v2.8h-2.8h-2.7v2.7h2.7h2.8h2.7v-2.7v-2.8l0,0v-2.7v-2.7v-2.8h-2.7h-2.8h-2.7h-2.7h-2.8H284h-2.7v2.8v2.7v2.7l0,0
	v2.8v2.7l0,0v2.7h-2.7h-2.8h-2.7h-2.7h-2.8v-2.7l0,0v-2.7v-2.8h2.8h2.7v-2.7h-2.7h-2.8h-2.7v2.7l0,0v2.8v2.7l0,0v2.7v2.7h2.7h2.8
	h2.7h2.7h2.8h2.7h2.7v-2.7v-2.7l0,0v-2.7v-2.8l0,0v-2.7v-2.7h2.7H289.5z M224,270.7h2.7h2.8h2.7v2.7v2.7l0,0v2.8h-2.7h-2.8v2.7h2.8
	h2.7h2.7v-2.7v-2.8l0,0v-2.7v-2.7v-2.8h-2.7h-2.7h-2.8H224h-2.7h-2.8h-2.7v2.8v2.7v2.7l0,0v2.8v2.7l0,0v2.7h-2.7h-2.7l0,0h-2.8h-2.7
	h-2.7v-2.7l0,0v-2.7v-2.8h2.7h2.7v-2.7h-2.7h-2.7h-2.7v2.7l0,0v2.8v2.7l0,0v2.7v2.7h2.7h2.7h2.7h2.8l0,0h2.7h2.7h2.7v-2.7v-2.7l0,0
	v-2.7v-2.8l0,0v-2.7v-2.7h2.8H224z M180.4,270.7h2.7h2.7l0,0h2.7v2.7v2.7l0,0v2.8h-2.7l0,0h-2.7v2.7h2.7l0,0h2.7h2.8v-2.7v-2.8l0,0
	v-2.7v-2.7v-2.8h-2.8h-2.7l0,0h-2.7h-2.7h-2.8h-2.7h-2.7v2.8v2.7v2.7l0,0v2.8v2.7l0,0v2.7h-2.8h-2.7H164h-2.7l0,0h-2.8v-2.7l0,0
	v-2.7v-2.8h2.8l0,0h2.7v-2.7h-2.7l0,0h-2.8h-2.7v2.7l0,0v2.8v2.7l0,0v2.7v2.7h2.7h2.8l0,0h2.7h2.7h2.7h2.8h2.7v-2.7v-2.7l0,0v-2.7
	v-2.8l0,0v-2.7v-2.7h2.7H180.4z M202.2,270.7h2.7h2.7h2.8v2.7v2.7l0,0v2.8h-2.8h-2.7v2.7h2.7h2.8l0,0h2.7v-2.7v-2.8l0,0v-2.7v-2.7
	v-2.8h-2.7l0,0h-2.8h-2.7h-2.7h-2.7h-2.8H194v2.8v2.7v2.7l0,0v2.8v2.7l0,0v2.7h-2.7h-2.8h-2.7l0,0h-2.7h-2.7v-2.7l0,0v-2.7v-2.8h2.7
	h2.7v-2.7h-2.7h-2.7h-2.8v2.7l0,0v2.8v2.7l0,0v2.7v2.7h2.8h2.7h2.7l0,0h2.7h2.8h2.7h2.7v-2.7v-2.7l0,0v-2.7v-2.8l0,0v-2.7v-2.7h2.8
	H202.2z M406.8,16.9H404h-2.7l0,0h-2.7v-2.8l0,0v-2.7V8.7h2.7l0,0h2.7V6h-2.7l0,0h-2.7h-2.8v2.7l0,0v2.7v2.7l0,0v2.8v2.7h2.8h2.7
	l0,0h2.7h2.8h2.7h2.7h2.7v-2.7v-2.8l0,0v-2.7V8.7l0,0V6V3.2h2.8h2.7h2.7h2.8l0,0h2.7V6v2.7l0,0v2.7h-2.7l0,0h-2.8v2.7h2.8l0,0h2.7
	h2.7v-2.7V8.7l0,0V6V3.2V0.5h-2.7h-2.7l0,0h-2.8h-2.7h-2.7h-2.8h-2.7v2.7V6v2.7l0,0v2.7v2.7l0,0v2.8h-2.7H406.8z M450.4,16.9
	L450.4,16.9h-2.7h-2.8h-2.7v-2.8l0,0v-2.7V8.7h2.7h2.8V6h-2.8h-2.7h-2.7v2.7l0,0v2.7v2.7l0,0v2.8v2.7h2.7h2.7h2.8h2.7l0,0h2.7h2.8
	h2.7v-2.7v-2.8l0,0v-2.7V8.7l0,0V6V3.2h2.7h2.7h2.8h2.7h2.7V6v2.7l0,0v2.7h-2.7h-2.7v2.7h2.7h2.7h2.8v-2.7V8.7l0,0V6V3.2V0.5h-2.8
	h-2.7h-2.7H464h-2.7h-2.7h-2.7v2.7V6v2.7l0,0v2.7v2.7l0,0v2.8h-2.8H450.4z M428.6,16.9h-2.7l0,0h-2.8h-2.7v-2.8l0,0v-2.7V8.7h2.7
	h2.8V6h-2.8h-2.7h-2.7v2.7l0,0v2.7v2.7l0,0v2.8v2.7h2.7h2.7h2.8l0,0h2.7h2.7h2.7h2.8v-2.7v-2.8l0,0v-2.7V8.7l0,0V6V3.2h2.7h2.7h2.7
	h2.8h2.7V6v2.7l0,0v2.7h-2.7h-2.8v2.7h2.8h2.7l0,0h2.7v-2.7V8.7l0,0V6V3.2V0.5h-2.7l0,0h-2.7h-2.8h-2.7h-2.7h-2.7H434v2.7V6v2.7l0,0
	v2.7v2.7l0,0v2.8h-2.7H428.6z M363.1,16.9h-2.7h-2.7h-2.8v-2.8l0,0v-2.7V8.7h2.8h2.7V6h-2.7h-2.8h-2.7v2.7l0,0v2.7v2.7l0,0v2.8v2.7
	h2.7h2.8h2.7h2.7h2.7h2.8l0,0h2.7v-2.7v-2.8l0,0v-2.7V8.7l0,0V6V3.2h2.7h2.7h2.8h2.7l0,0h2.7V6v2.7l0,0v2.7h-2.7l0,0h-2.7v2.7h2.7
	l0,0h2.7h2.8v-2.7V8.7l0,0V6V3.2V0.5h-2.8h-2.7l0,0h-2.7h-2.8H374h-2.7h-2.7v2.7V6v2.7l0,0v2.7v2.7l0,0v2.8h-2.8H363.1z M344,16.9
	h-2.7h-2.7h-2.8h-2.7v-2.7l0,0v-2.8V8.7h2.7h2.8V6l0,0l0,0h-2.8h-2.7h-2.7v2.7l0,0v2.7v2.7l0,0v2.8v2.7l0,0l0,0h2.7h2.7h2.8h2.7h2.7
	h2.8h2.7v-2.7v-2.7l0,0v-2.8V8.7l0,0V6V3.2l0,0h2.7h2.7h2.8h2.7h2.7V6v2.7l0,0v2.7h-2.7h-2.7v2.7h2.7h2.7h2.7v-2.7V8.7l0,0V6V3.2
	V0.5h-2.7h-2.7h-2.7h-2.8h-2.7h-2.7h-2.8v2.7V6v2.7l0,0v2.7v2.7l0,0v2.8H344z M537.7,16.9H535h-2.8h-2.7v-2.8l0,0v-2.7V8.7h2.7h2.8
	V6h-2.8h-2.7h-2.7v2.7l0,0v2.7v2.7l0,0v2.8v2.7h2.7h2.7h2.8h2.7h2.7h2.8h2.7v-2.7v-2.8l0,0v-2.7V8.7l0,0V6V3.2h2.7l0,0h2.7h2.8h2.7
	h2.7V6v2.7l0,0v2.7h-2.7h-2.7v2.7h2.7h2.7h2.7v-2.7V8.7l0,0V6V3.2V0.5h-2.7h-2.7h-2.7h-2.8h-2.7l0,0h-2.7h-2.7v2.7V6v2.7l0,0v2.7
	v2.7l0,0v2.8h-2.8H537.7z M384.9,16.9h-2.7l0,0h-2.7h-2.8v-2.8l0,0v-2.7V8.7h2.8h2.7V6h-2.7h-2.8H374v2.7l0,0v2.7v2.7l0,0v2.8v2.7
	h2.7h2.8h2.7l0,0h2.7h2.8h2.7h2.7v-2.7v-2.8l0,0v-2.7V8.7l0,0V6V3.2h2.7h2.8h2.7l0,0h2.7h2.8V6v2.7l0,0v2.7H404h-2.7v2.7h2.7h2.8
	h2.7v-2.7V8.7l0,0V6V3.2V0.5h-2.7H404h-2.7l0,0h-2.7h-2.8h-2.7h-2.7v2.7V6v2.7l0,0v2.7v2.7l0,0v2.8h-2.7H384.9z M472.2,16.9h-2.7
	h-2.7H464v-2.8l0,0v-2.7V8.7h2.8h2.7V6h-2.7H464h-2.7v2.7l0,0v2.7v2.7l0,0v2.8v2.7h2.7h2.8h2.7h2.7h2.8h2.7h2.7v-2.7v-2.8l0,0v-2.7
	V8.7l0,0V6V3.2h2.7h2.8h2.7h2.7h2.7V6v2.7l0,0v2.7h-2.7h-2.7v2.7h2.7h2.7h2.8v-2.7V8.7l0,0V6V3.2V0.5H494h-2.7h-2.7h-2.7h-2.8h-2.7
	l0,0h-2.7v2.7V6v2.7l0,0v2.7v2.7l0,0v2.8H475H472.2z M494,16.9h-2.7h-2.7h-2.7v-2.8l0,0v-2.7V8.7h2.7h2.7V6h-2.7h-2.7h-2.8v2.7l0,0
	v2.7v2.7l0,0v2.8v2.7h2.8h2.7h2.7h2.7h2.8h2.7h2.7v-2.7v-2.8l0,0v-2.7V8.7l0,0V6V3.2h2.8h2.7h2.7h2.7h2.8V6v2.7l0,0v2.7h-2.8h-2.7
	v2.7h2.7h2.8h2.7v-2.7V8.7l0,0V6V3.2V0.5h-2.7h-2.8h-2.7h-2.7H505h-2.8h-2.7v2.7V6v2.7l0,0v2.7v2.7l0,0v2.8h-2.7H494z M515.9,16.9
	h-2.8h-2.7h-2.7v-2.8l0,0v-2.7V8.7h2.7h2.7V6h-2.7h-2.7H505v2.7l0,0v2.7v2.7l0,0v2.8v2.7h2.7h2.7h2.7h2.8h2.7h2.7h2.8v-2.7v-2.8l0,0
	v-2.7V8.7l0,0V6V3.2h2.7h2.7h2.7h2.8h2.7V6v2.7l0,0v2.7H535h-2.8v2.7h2.8h2.7h2.7v-2.7V8.7l0,0V6V3.2V0.5h-2.7H535h-2.8h-2.7h-2.7
	h-2.7h-2.8v2.7V6v2.7l0,0v2.7v2.7l0,0v2.8h-2.7H515.9z M254,16.9h-2.7h-2.7h-2.8v-2.7l0,0v-2.8V8.7h2.8h2.7V6h-2.7h-2.8h-2.7v2.7
	l0,0v2.7v2.8l0,0v2.7v2.7h2.7h2.8h2.7h2.7h2.7h2.8h2.7v-2.7v-2.7l0,0v-2.8V8.7l0,0V6V3.2h2.7h2.7h2.8h2.7h2.7V6v2.7l0,0v2.7h-2.7
	h-2.7v2.8h2.7h2.7h2.8v-2.8V8.7l0,0V6V3.2V0.5h-2.8h-2.7h-2.7h-2.8h-2.7h-2.7h-2.7v2.7V6v2.7l0,0v2.7v2.8l0,0v2.7h-2.8H254z
	 M188.5,16.9h-2.7l0,0h-2.7h-2.7v-2.7l0,0v-2.8V8.7h2.7h2.7V6h-2.7h-2.7h-2.8v2.7l0,0v2.7v2.8l0,0v2.7v2.7h2.8h2.7h2.7l0,0h2.7h2.8
	h2.7h2.7v-2.7v-2.7l0,0v-2.8V8.7l0,0V6V3.2h2.8h2.7h2.7h2.7h2.8V6v2.7l0,0v2.7h-2.8h-2.7v2.8h2.7h2.8l0,0h2.7v-2.8V8.7l0,0V6V3.2
	V0.5h-2.7l0,0h-2.8h-2.7h-2.7h-2.7h-2.8H194v2.7V6v2.7l0,0v2.7v2.8l0,0v2.7h-2.7H188.5z M166.7,16.9H164h-2.7l0,0h-2.8v-2.7l0,0
	v-2.8V8.7h2.8l0,0h2.7V6h-2.7l0,0h-2.8h-2.7v2.7l0,0v2.7v2.8l0,0v2.7v2.7h2.7h2.8l0,0h2.7h2.7h2.7h2.8h2.7v-2.7v-2.7l0,0v-2.8V8.7
	l0,0V6V3.2h2.7h2.8h2.7h2.7l0,0h2.7V6v2.7l0,0v2.7h-2.7l0,0h-2.7v2.8h2.7l0,0h2.7h2.8v-2.8V8.7l0,0V6V3.2V0.5h-2.8h-2.7l0,0h-2.7
	h-2.7h-2.8h-2.7h-2.7v2.7V6v2.7l0,0v2.7v2.8l0,0v2.7h-2.8H166.7z M210.4,16.9L210.4,16.9h-2.8h-2.7h-2.7v-2.7l0,0v-2.8V8.7h2.7h2.7
	V6h-2.7h-2.7h-2.7v2.7l0,0v2.7v2.8l0,0v2.7v2.7h2.7h2.7h2.7h2.8l0,0h2.7h2.7h2.7v-2.7v-2.7l0,0v-2.8V8.7l0,0V6V3.2h2.8h2.7h2.7h2.8
	h2.7V6v2.7l0,0v2.7h-2.7h-2.8v2.8h2.8h2.7h2.7v-2.8V8.7l0,0V6V3.2V0.5h-2.7h-2.7h-2.8H224h-2.7h-2.8h-2.7v2.7V6v2.7l0,0v2.7v2.8l0,0
	v2.7h-2.7H210.4z M144.9,16.9h-2.7l0,0h-2.8h-2.7v-2.7l0,0v-2.8V8.7h2.7h2.8V6h-2.8h-2.7H134v2.7l0,0v2.7v2.8l0,0v2.7v2.7h2.7h2.7
	h2.8l0,0h2.7h2.7h2.7h2.8v-2.7v-2.7l0,0v-2.8V8.7l0,0V6V3.2h2.7h2.7h2.8l0,0h2.7h2.7V6v2.7l0,0v2.7H164h-2.7v2.8h2.7h2.7h2.7v-2.8
	V8.7l0,0V6V3.2V0.5h-2.7H164h-2.7l0,0h-2.8h-2.7h-2.7h-2.8v2.7V6v2.7l0,0v2.7v2.8l0,0v2.7h-2.7H144.9z M297.7,16.9h-2.8h-2.7h-2.7
	v-2.7l0,0v-2.8V8.7h2.7h2.7V6h-2.7h-2.7h-2.8v2.7l0,0v2.7v2.8l0,0v2.7v2.7h2.8h2.7h2.7h2.8h2.7h2.7h2.7v-2.7v-2.7l0,0v-2.8V8.7l0,0
	V6V3.2h2.8l0,0h2.7h2.7h2.8h2.7V6v2.7l0,0v2.7h-2.7H314v2.8h2.8h2.7h2.7v-2.8V8.7l0,0V6V3.2V0.5h-2.7h-2.7H314h-2.7h-2.7l0,0h-2.8
	h-2.7v2.7V6v2.7l0,0v2.7v2.8l0,0v2.7h-2.7H297.7z M322.2,16.9h-2.7h-2.7H314h-2.7v-2.7l0,0v-2.8V8.7h2.7h2.8V6H314h-2.7h-2.7v2.7
	l0,0v2.7v2.8l0,0v2.7v2.7h2.7h2.7h2.8h2.7h2.7h2.7h2.8v-2.7v-2.7l0,0v-2.8V8.7l0,0V6V3.2h2.7h2.7h2.7h2.8h2.7V6v2.7l0,0v2.7h-2.7
	h-2.8v2.7l0,0v0.1h2.8h2.7h2.7v-2.8V8.7l0,0V6V3.2V0.5l0,0l0,0h-2.7h-2.7h-2.8h-2.7h-2.7h-2.8h-2.7v2.7V6v2.7l0,0v2.7v2.7l0,0v2.8
	l0,0H322.2z M275.8,16.9h-2.7h-2.7h-2.8v-2.7l0,0v-2.8V8.7h2.8h2.7V6h-2.7h-2.8h-2.7v2.7l0,0v2.7v2.8l0,0v2.7v2.7h2.7h2.8h2.7h2.7
	h2.8h2.7h2.7v-2.7v-2.7l0,0v-2.8V8.7l0,0V6V3.2h2.7h2.8h2.7h2.7h2.8V6v2.7l0,0v2.7h-2.8h-2.7v2.8h2.7h2.8h2.7v-2.8V8.7l0,0V6V3.2
	V0.5h-2.7h-2.8h-2.7h-2.7h-2.8H284h-2.7v2.7V6v2.7l0,0v2.7v2.8l0,0v2.7h-2.7H275.8z M232.2,16.9h-2.7h-2.8H224v-2.7l0,0v-2.8V8.7
	h2.7h2.8V6h-2.8H224h-2.7v2.7l0,0v2.7v2.8l0,0v2.7v2.7h2.7h2.7h2.8h2.7h2.7h2.7h2.8v-2.7v-2.7l0,0v-2.8V8.7l0,0V6V3.2h2.7h2.7h2.8
	h2.7h2.7V6v2.7l0,0v2.7h-2.7h-2.7v2.8h2.7h2.7h2.7v-2.8V8.7l0,0V6V3.2V0.5H254h-2.7h-2.7h-2.8h-2.7h-2.7l0,0h-2.8v2.7V6v2.7l0,0v2.7
	v2.8l0,0v2.7h-2.7H232.2z M581.4,14.2h2.7v-2.8V8.7V6h-2.7l0,0h-2.8h-2.7l0,0h-2.7h-2.7v2.7v2.7v2.8v2.7v2.7l0,0v2.8l0,0v2.7h2.7
	h2.7l0,0h2.7h2.8l0,0h2.7h2.7v2.7v2.7v2.8V36v2.7h-2.7h-2.7l0,0h-2.8V36v-2.7h-2.7V36v2.7v2.8h2.7h2.8l0,0h2.7h2.7h2.7v-2.8V36v-2.7
	v-2.8v-2.7v-2.7v-2.7h-2.7h-2.7h-2.7l0,0h-2.8h-2.7l0,0h-2.7v-2.8l0,0v-2.7v-2.7v-2.8V8.7h2.7l0,0h2.7h2.8v2.7V14.2z M559.5,16.9
	h-2.7l0,0h-2.7h-2.7v-2.7v-2.8l0,0V8.7h2.7h2.7V6h-2.7h-2.7h-2.8v2.7v2.7l0,0v2.8v2.7v2.7h2.8h2.7h2.7l0,0h2.7h2.8h2.7h2.7v-2.7
	v-2.7v-2.8l0,0V8.7V6l0,0V3.2h2.8v0.1h2.7h2.7l0,0h2.7h2.8l0,0h2.7h2.7V6v2.7v2.7v2.8v2.7h-2.7h-2.7l0,0h-2.8v-2.7v-2.8h-2.7v2.8
	v2.7v2.7h2.7h2.8l0,0h2.7h2.7h2.7v-2.7v-2.7v-2.8V8.7V6V3.3V0.5h-2.7h-2.7h-2.7l0,0h-2.8h-2.7l0,0h-2.7h-2.7l0,0h-2.8H565v2.7V6l0,0
	v2.7v2.7l0,0v2.8v2.7h-2.7H559.5z"/>
</svg>
