<?xml version="1.0" encoding="utf-8"?>
<!-- Generator: Adobe Illustrator 19.0.0, SVG Export Plug-In . SVG Version: 6.00 Build 0)  -->
<svg version="1.1" id="Layer_1" xmlns="http://www.w3.org/2000/svg" xmlns:xlink="http://www.w3.org/1999/xlink" x="0px" y="0px"
	 viewBox="108 -18 503.3 324" style="enable-background:new 108 -18 503.3 324;" xml:space="preserve">
<path id="XMLID_8_" d="M213.5,86l-16.2,28l16.2,28.1h32.4l16.2-28.1l-16.2-28H213.5z M244.1,138.9h-28.7L201,114l14.4-24.9h28.7
	l14.4,24.9L244.1,138.9z M321.5,33l-12.1,21l12.1,21h24.3l12.1-21l-12.1-21H321.5z M343.9,71.9h-20.6L313,54.1l10.3-17.9h20.6
	l10.3,17.9L343.9,71.9z M325.5,40l-8.1,14l8.1,14h16.2l8.1-14l-8.1-14H325.5z M339.9,64.9h-12.5l-6.3-10.8l6.3-10.8h12.5l6.3,10.8
	L339.9,64.9z M317.4,26l-16.2,28.1l16.2,28.1h32.4L366,54.1L349.8,26H317.4z M348,78.9h-28.7L304.9,54l14.4-24.9H348L362.4,54
	L348,78.9z M329.6,47.1l-4,7l4,7h8.1l4-7l-4-7H329.6z M335.8,57.9h-4.4l-2.2-3.8l2.2-3.8h4.4l2.2,3.8L335.8,57.9z M421.5,26
	l-16.2,28.1l16.2,28.1h32.4l16.2-28.1L453.9,26H421.5z M452,78.9h-28.7L409,54.1l14.4-24.9H452l14.4,24.9L452,78.9z M369.4,56
	l-16.2,28l16.2,28.1h32.4L418,84l-16.2-28H369.4z M400,108.9h-28.7L356.9,84l14.4-24.9H400L414.4,84L400,108.9z M381.6,77l-4,7l4,7
	h8.1l4-7l-4-7H381.6z M387.8,87.8h-4.4l-2.2-3.8l2.2-3.8h4.4L390,84L387.8,87.8z M225.7,107l-4,7l4,7h8.1l4-7l-4-7H225.7z
	 M231.9,117.8h-4.4l-2.2-3.8l2.2-3.8h4.4l2.2,3.8L231.9,117.8z M277.7,77l-4,7l4,7h8.1l4-7l-4-7H277.7z M283.9,87.8h-4.4l-2.2-3.8
	l2.2-3.8h4.4l2.2,3.8L283.9,87.8z M373.5,63l-12.1,21l12.1,21h24.3l12.1-21l-12.1-21H373.5z M395.9,101.9h-20.6L365,84l10.3-17.9
	h20.6L406.2,84L395.9,101.9z M273.6,70l-8.1,14l8.1,14h16.2l8.1-14l-8.1-14H273.6z M288,94.9h-12.5l-6.3-10.8l6.3-10.8H288l6.3,10.8
	L288,94.9z M221.6,40l-8.1,14l8.1,14h16.2l8.1-14l-8.1-14H221.6z M236,64.9h-12.5l-6.3-10.8l6.3-10.8H236l6.3,10.8L236,64.9z
	 M217.6,33l-12.1,21l12.1,21h24.3L254,54l-12.1-21H217.6z M240,71.9h-20.6L209.1,54l10.3-17.9H240L250.3,54L240,71.9z M213.5,26
	l-16.2,28.1l16.2,28.1h32.4l16.2-28.1L245.9,26H213.5z M244.1,78.9h-28.7L201,54.1l14.4-24.9h28.7l14.4,24.9L244.1,78.9z M221.6,100
	l-8.1,14l8.1,14h16.2l8.1-14l-8.1-14H221.6z M236,124.8h-12.5l-6.3-10.8l6.3-10.8H236l6.3,10.8L236,124.8z M225.7,47.1l-4,7l4,7h8.1
	l4-7l-4-7H225.7z M231.9,57.9h-4.4l-2.2-3.8l2.2-3.8h4.4l2.2,3.8L231.9,57.9z M269.6,63l-12.1,21l12.1,21h24.3L306,84l-12.1-21
	H269.6z M292,101.9h-20.6L261.1,84l10.3-17.9H292L302.3,84L292,101.9z M265.5,56l-16.2,28l16.2,28.1h32.4L314.1,84l-16.2-28H265.5z
	 M296.1,108.9h-28.7L253,84l14.4-24.9h28.7L310.5,84L296.1,108.9z M553.8,93h-24.3l-12.1,21l12.1,21h24.3l12.1-21L553.8,93z
	 M552,131.9h-20.6L521.1,114l10.3-17.9H552l10.3,17.9L552,131.9z M217.6,93l-12.1,21l12.1,21h24.3l12.1-21l-12.1-21H217.6z
	 M240,131.9h-20.6L209.1,114l10.3-17.9H240l10.3,17.9L240,131.9z M545.7,107h-8.1l-4,7l4,7h8.1l4-7L545.7,107z M543.9,117.8h-4.4
	l-2.2-3.8l2.2-3.8h4.4l2.2,3.8L543.9,117.8z M493.7,77h-8.1l-4,7l4,7h8.1l4-7L493.7,77z M491.9,87.8h-4.4l-2.2-3.8l2.2-3.8h4.4
	l2.2,3.8L491.9,87.8z M549.8,100h-16.2l-8.1,14l8.1,14h16.2l8.1-14L549.8,100z M547.9,124.8h-12.5l-6.3-10.8l6.3-10.8h12.5l6.3,10.8
	L547.9,124.8z M557.9,86h-32.4l-16.2,28l16.2,28.1h32.4l16.2-28.1L557.9,86z M556,138.9h-28.7L513,114l14.4-24.9H556l14.4,24.9
	L556,138.9z M429.6,40l-8.1,14l8.1,14h16.2l8.1-14l-8.1-14H429.6z M443.9,64.9h-12.5l-6.3-10.8l6.3-10.8h12.5l6.3,10.8L443.9,64.9z
	 M497.8,70h-16.2l-8.1,14l8.1,14h16.2l8.1-14L497.8,70z M496,94.9h-12.5l-6.3-10.8l6.3-10.8H496l6.3,10.8L496,94.9z M433.6,47.1
	l-4,7l4,7h8.1l4-7l-4-7H433.6z M439.9,57.9h-4.4l-2.2-3.8l2.2-3.8h4.4l2.2,3.8L439.9,57.9z M425.5,33l-12.1,21l12.1,21h24.3l12.1-21
	l-12.1-21H425.5z M448,71.9h-20.6L417.1,54l10.3-17.9H448L458.3,54L448,71.9z M505.9,56h-32.4l-16.2,28l16.2,28.1h32.4L522.1,84
	L505.9,56z M504.1,108.9h-28.7L461,84l14.4-24.9h28.7L518.5,84L504.1,108.9z M501.8,63h-24.3l-12.1,21l12.1,21h24.3l12.1-21
	L501.8,63z M500,101.9h-20.6L469.1,84l10.3-17.9H500L510.3,84L500,101.9z M377.6,70l-8.1,14l8.1,14h16.2l8.1-14l-8.1-14H377.6z
	 M391.9,94.9h-12.5l-6.3-10.8l6.3-10.8h12.5l6.3,10.8L391.9,94.9z M493.7,137h-8.1l-4,7l4,7h8.1l4-7L493.7,137z M491.9,147.8h-4.4
	l-2.2-3.8l2.2-3.8h4.4l2.2,3.8L491.9,147.8z M453.9,142.1l16.2-28.1l-16.2-28h-32.4l-16.2,28l16.2,28.1H453.9z M423.3,89.1H452
	l14.4,24.9L452,138.9h-28.7L409,114L423.3,89.1z M497.8,130h-16.2l-8.1,14l8.1,14h16.2l8.1-14L497.8,130z M496,154.8h-12.5
	l-6.3-10.8l6.3-10.8H496l6.3,10.8L496,154.8z M445.8,128l8.1-14l-8.1-14h-16.2l-8.1,14l8.1,14H445.8z M431.4,103.2h12.5l6.3,10.8
	l-6.3,10.8h-12.5l-6.3-10.8L431.4,103.2z M401.8,172l16.2-28l-16.2-28.1h-32.4L353.2,144l16.2,28.1h32.4V172z M371.3,119.1H400
	l14.4,24.9L400,168.9h-28.7L356.9,144L371.3,119.1z M397.8,165l12.1-21l-12.1-21h-24.3l-12.1,21l12.1,21H397.8z M375.3,126.1h20.6
	l10.3,17.9l-10.3,17.9h-20.6L365,144L375.3,126.1z M389.7,151l4-7l-4-7h-8.1l-4,7l4,7H389.7z M383.4,140.2h4.4l2.2,3.8l-2.2,3.8
	h-4.4l-2.2-3.8L383.4,140.2z M393.7,158l8.1-14l-8.1-14h-16.2l-8.1,14l8.1,14H393.7z M379.4,133.1h12.5l6.3,10.8l-6.3,10.8h-12.5
	l-6.3-10.8L379.4,133.1z M501.8,122.9h-24.3l-12.1,21l12.1,21h24.3l12.1-21L501.8,122.9z M500,161.8h-20.6L469.1,144l10.3-17.9H500
	l10.3,17.9L500,161.8z M505.9,115.9h-32.4L457.3,144l16.2,28.1h32.4l16.2-28.1L505.9,115.9z M504.1,168.9h-28.7L461,144l14.4-24.9
	h28.7l14.4,24.9L504.1,168.9z M449.8,135l12.1-21l-12.1-21h-24.3l-12.1,21l12.1,21H449.8z M427.4,96.2H448l10.3,17.9L448,131.9
	h-20.6L417.1,114L427.4,96.2z M585.6,70l-8.1,14l8.1,14h16.2l8.1-14l-8.1-14H585.6z M600,94.9h-12.5l-6.3-10.8l6.3-10.8H600
	l6.3,10.8L600,94.9z M577.5,115.9L561.3,144l16.2,28h32.4l1.4-2.4v-6.3l-3.2,5.6h-28.8L565,144l14.3-24.9h28.8l3.2,5.6v-6.4
	l-1.4-2.4H577.5z M589.7,77l-4,7l4,7h8.1l4-7l-4-7H589.7z M595.9,87.8h-4.4l-2.2-3.8l2.2-3.8h4.4l2.2,3.8L595.9,87.8z M441.7,121
	l4-7l-4-7h-8.1l-4,7l4,7H441.7z M435.5,110.2h4.4l2.2,3.8l-2.2,3.8h-4.4l-2.2-3.8L435.5,110.2z M577.5,56l-16.2,28l16.2,28.1h32.4
	l1.4-2.4v-6.4l-3.2,5.6h-28.8L565,84l14.3-24.8h28.8l3.2,5.5v-6.3l-1.4-2.4H577.5z M581.6,63l-12.2,21l12.2,21.1h24.3l5.4-9.4v-6.4
	l-7.3,12.6h-20.6L573.1,84l10.3-17.8H604l7.3,12.6v-6.4l-5.4-9.4H581.6z M589.7,137l-4,7l4,7h8.1l4-7l-4-7H589.7z M595.9,147.8h-4.4
	l-2.2-3.8l2.2-3.8h4.4l2.2,3.8L595.9,147.8z M557.9,26h-32.4l-16.2,28.1l16.2,28.1h32.4l16.2-28.1L557.9,26z M556,78.9h-28.7
	L513,54.1l14.4-24.9H556l14.4,24.9L556,78.9z M545.7,47.1h-8.1l-4,7l4,7h8.1l4-7L545.7,47.1z M543.9,57.9h-4.4l-2.2-3.8l2.2-3.8h4.4
	l2.2,3.8L543.9,57.9z M581.6,122.9L569.4,144l12.2,21h24.3l5.4-9.4v-6.3l-7.3,12.5h-20.6L573.1,144l10.3-17.9H604l7.3,12.6v-6.3
	l-5.4-9.5H581.6z M549.8,40h-16.2l-8.1,14l8.1,14h16.2l8.1-14L549.8,40z M547.9,64.9h-12.5l-6.3-10.8l6.3-10.8h12.5l6.3,10.8
	L547.9,64.9z M553.8,33h-24.3l-12.1,21l12.1,21h24.3l12.1-21L553.8,33z M552,71.9h-20.6L521.1,54l10.3-17.9H552L562.3,54L552,71.9z
	 M585.6,130l-8.1,14l8.1,14h16.2l8.1-14l-8.1-14H585.6z M600,154.8h-12.5l-6.3-10.8l6.3-10.8H600l6.3,10.8L600,154.8z M285.8,137
	h-8.1l-4,7l4,7h8.1l4-7L285.8,137z M283.9,147.8h-4.4l-2.2-3.8l2.2-3.8h4.4l2.2,3.8L283.9,147.8z M317.4,86l-16.2,28l16.2,28.1h32.4
	L366,114l-16.2-28H317.4z M348,138.9h-28.7L304.9,114l14.4-24.9H348l14.4,24.9L348,138.9z M321.5,93l-12.1,21l12.1,21h24.3l12.1-21
	l-12.1-21H321.5z M343.9,131.9h-20.6L313,114l10.3-17.9h20.6l10.3,17.9L343.9,131.9z M293.9,122.9h-24.3l-12.1,21l12.1,21h24.3
	l12.1-21L293.9,122.9z M292,161.8h-20.6L261.1,144l10.3-17.9H292l10.3,17.9L292,161.8z M325.5,100l-8.1,14l8.1,14h16.2l8.1-14
	l-8.1-14H325.5z M339.9,124.8h-12.5l-6.3-10.8l6.3-10.8h12.5l6.3,10.8L339.9,124.8z M314.1,144l-16.2-28.1h-32.4L249.3,144
	l16.2,28.1h32.4L314.1,144z M267.4,168.9L253,144l14.4-24.9h28.7l14.4,24.9l-14.4,24.9H267.4z M329.6,107l-4,7l4,7h8.1l4-7l-4-7
	H329.6z M335.8,117.8h-4.4l-2.2-3.8l2.2-3.8h4.4l2.2,3.8L335.8,117.8z M289.8,130h-16.2l-8.1,14l8.1,14h16.2l8.1-14L289.8,130z
	 M288,154.8h-12.5l-6.3-10.8l6.3-10.8H288l6.3,10.8L288,154.8z M258.4,240.3l3.7-6.4l-16.2-28h-32.4l-16.2,28l3.7,6.4h3.7l-3.7-6.4
	l14.3-24.9h28.8l14.3,24.9l-3.7,6.4H258.4z M345.8,195l12.1-21l-12.1-21h-24.3l-12.1,21l12.1,21H345.8z M323.3,156.1h20.6l10.3,17.9
	l-10.3,17.9h-20.6L313,174L323.3,156.1z M341.7,188l8.1-14l-8.1-14h-16.2l-8.1,14l8.1,14H341.7z M327.4,163.1h12.5l6.3,10.8
	l-6.3,10.8h-12.5l-6.3-10.8L327.4,163.1z M349.8,202l16.2-28l-16.2-28.1h-32.4L301.2,174l16.2,28.1h32.4V202z M319.3,149.1H348
	l14.4,24.9L348,198.8h-28.7L304.9,174L319.3,149.1z M337.7,180.9l4-7l-4-7h-8.1l-4,7l4,7H337.7z M331.4,170.1h4.4l2.2,3.8l-2.2,3.8
	h-4.4l-2.2-3.8L331.4,170.1z M453.9,202l16.2-28.1l-16.2-28.1h-32.4L405.3,174l16.2,28.1h32.4V202z M423.3,149.1H452l14.4,24.9
	L452,198.8h-28.7L409,174L423.3,149.1z M401.8,175.9h-32.4L353.2,204l16.2,28.1h32.4L418,204L401.8,175.9z M400,228.8h-28.7
	l-14.4-24.9l14.4-24.9H400l14.4,24.9L400,228.8z M389.7,196.9h-8.1l-4,7l4,7h8.1l4-7L389.7,196.9z M387.8,207.7h-4.4l-2.2-3.8
	l2.2-3.8h4.4l2.2,3.8L387.8,207.7z M225.7,226.9l-4,7l3.7,6.4h8.7l3.7-6.4l-4-7H225.7z M231.9,237.7h-4.4l-2.2-3.8l2.2-3.8h4.4
	l2.2,3.8L231.9,237.7z M285.8,196.9h-8.1l-4,7l4,7h8.1l4-7L285.8,196.9z M283.9,207.7h-4.4l-2.2-3.8l2.2-3.8h4.4l2.2,3.8
	L283.9,207.7z M397.8,182.9h-24.3l-12.1,21l12.1,21h24.3l12.1-21L397.8,182.9z M395.9,221.8h-20.6L365,203.9l10.3-17.9h20.6
	l10.3,17.9L395.9,221.8z M289.8,189.9h-16.2l-8.1,14l8.1,14h16.2l8.1-14L289.8,189.9z M288,214.8h-12.5l-6.3-10.8l6.3-10.8H288
	l6.3,10.8L288,214.8z M221.6,188h16.2l8.1-14l-8.1-14h-16.2l-8.1,14L221.6,188z M223.4,163.1H236l6.3,10.8l-6.3,10.8h-12.5
	l-6.3-10.8L223.4,163.1z M217.6,195h24.3l12.1-21l-12.1-21h-24.3l-12.1,21L217.6,195z M219.4,156.1H240l10.3,17.9L240,191.8h-20.6
	L209.1,174L219.4,156.1z M213.5,202h32.4l16.2-28.1l-16.2-28.1h-32.4L197.3,174L213.5,202z M215.3,149.1H244l14.4,24.9L244,198.9
	h-28.7L201,174L215.3,149.1z M242.2,240.3l3.7-6.4l-8.1-14h-16.2l-8.1,14l3.7,6.4h3.7l-3.7-6.4l6.2-10.8H236l6.2,10.8l-3.7,6.4
	H242.2z M225.7,180.9h8.1l4-7l-4-7h-8.1l-4,7L225.7,180.9z M227.5,170.1h4.4l2.2,3.8l-2.2,3.8h-4.4l-2.2-3.8L227.5,170.1z
	 M293.9,182.9h-24.3l-12.1,21l12.1,21h24.3l12.1-21L293.9,182.9z M292,221.8h-20.6l-10.3-17.9l10.3-17.9H292l10.3,17.9L292,221.8z
	 M297.9,175.9h-32.4L249.3,204l16.2,28.1h32.4l16.2-28.1L297.9,175.9z M296.1,228.8h-28.7L253,203.9l14.4-24.9h28.7l14.4,24.9
	L296.1,228.8z M553.8,254.9l12.1-21l-12.1-21h-24.3l-12.1,21l12.1,21H553.8z M531.4,216H552l10.3,17.9L552,251.8h-20.6l-10.3-17.9
	L531.4,216z M250.3,240.3l3.7-6.4l-12.2-21h-24.2l-12.2,21l3.7,6.4h3.7l-3.7-6.4l10.3-17.9H240l10.3,17.9l-3.7,6.4H250.3z
	 M545.7,240.9l4-7l-4-7h-8.1l-4,7l4,7H545.7z M539.5,230.1h4.4l2.2,3.8l-2.2,3.8h-4.4l-2.2-3.8L539.5,230.1z M493.7,210.9l4-7l-4-7
	h-8.1l-4,7l4,7H493.7z M487.5,200.1h4.4l2.2,3.8l-2.2,3.8h-4.4l-2.2-3.8L487.5,200.1z M549.8,247.9l8.1-14l-8.1-14h-16.2l-8.1,14
	l8.1,14H549.8z M535.4,223.1h12.5l6.3,10.8l-6.3,10.8h-12.5l-6.3-10.8L535.4,223.1z M557.9,262l16.2-28.1l-16.2-28.1h-32.4
	l-16.2,28.1l16.2,28.1H557.9z M527.3,209H556l14.4,24.9L556,258.8h-28.7L513,233.9L527.3,209z M445.8,188l8.1-14l-8.1-14h-16.2
	l-8.1,14l8.1,14H445.8z M431.4,163.1h12.5l6.3,10.8l-6.3,10.8h-12.5l-6.3-10.8L431.4,163.1z M497.8,217.9l8.1-14l-8.1-14h-16.2
	l-8.1,14l8.1,14H497.8z M483.4,193.1H496l6.3,10.8l-6.3,10.8h-12.5l-6.3-10.8L483.4,193.1z M441.7,180.9l4-7l-4-7h-8.1l-4,7l4,7
	H441.7z M435.5,170.1h4.4l2.2,3.8l-2.2,3.8h-4.4l-2.2-3.8L435.5,170.1z M449.8,195l12.1-21l-12.1-21h-24.3l-12.1,21l12.1,21H449.8z
	 M427.4,156.1H448l10.3,17.9L448,191.8h-20.6L417.1,174L427.4,156.1z M505.9,232l16.2-28.1l-16.2-28.1h-32.4l-16.2,28.1l16.2,28.1
	H505.9z M475.3,179.1H504l14.4,24.9L504,228.9h-28.7l-14.3-25L475.3,179.1z M501.8,225l12.1-21l-12.1-21h-24.3l-12.1,21l12.1,21
	H501.8z M479.4,186.1H500l10.3,17.9L500,221.8h-20.6l-10.3-17.9L479.4,186.1z M393.7,189.9h-16.2l-8.1,14l8.1,14h16.2l8.1-14
	L393.7,189.9z M391.9,214.8h-12.5l-6.3-10.8l6.3-10.8h12.5l6.3,10.8L391.9,214.8z M493.7,270.9l4-7l-4-7h-8.1l-4,7l4,7H493.7z
	 M487.5,260.1h4.4l2.2,3.8l-2.2,3.8h-4.4l-2.2-3.8L487.5,260.1z M453.9,262l16.2-28.1l-16.2-28h-32.4l-16.2,28l3.7,6.4h3.7l-3.7-6.4
	l14.3-24.9H452l14.4,24.9L452,258.8h-28.7l-7.2-12.6v6.4l5.4,9.4H453.9z M497.8,277.9l8.1-14l-8.1-14h-16.2l-8.1,14l8.1,14H497.8z
	 M483.4,253H496l6.3,10.8l-6.3,10.8h-12.5l-6.3-10.8L483.4,253z M445.8,247.9l8.1-14l-8.1-14h-16.2l-8.1,14l8.1,14H445.8z
	 M431.4,223.1h12.5l6.3,10.8l-6.3,10.8h-12.5l-6.3-10.8L431.4,223.1z M401.8,291.9l16.2-28.1l-2-3.5c-0.1,1.2-1,2.3-2.2,2.5l0.5,0.9
	L400,288.8h-28.7l-14.4-24.9l0.5-0.9h-3.7l-0.5,0.9l16.2,28.1h32.4V291.9z M369.4,235.8l-2.5,4.5h3.6l0.8-1.3H400l0.8,1.3h3.6
	l-2.6-4.5H369.4z M375.3,281.7L365,263.9l0.5-0.9h-3.6l-0.5,0.9l12.1,21h24.3l12.1-21l-0.5-0.9h-3.7l0.6,0.9l-10.4,17.8H375.3z
	 M378.1,263l-0.5,0.9l4,7h8.1l4-7l-0.5-0.9h-3.7l0.5,0.9l-2.2,3.8h-4.4l-2.2-3.8l0.6-0.9H378.1z M370,263l-0.5,0.9l8.1,14h16.1
	l8.1-14l-0.5-0.9h-3.7l0.5,0.9l-6.2,10.8h-12.5l-6.3-10.8l0.5-0.9H370z M501.8,284.9l12.1-21l-12.1-21h-24.3l-12.1,21l12.1,21H501.8
	z M479.4,246H500l10.3,17.9L500,281.7h-20.6l-10.3-17.9L479.4,246z M505.9,291.9l16.2-28.1l-16.2-28.1h-32.4l-16.2,28.1l16.2,28.1
	H505.9z M475.3,239H504l14.4,24.9L504,288.8h-28.7L461,263.9L475.3,239z M449.8,254.9l12.1-21l-12.1-21h-24.3l-12.1,21l12.1,21
	H449.8z M427.4,216H448l10.3,17.9L448,251.8h-20.6l-10.3-17.9L427.4,216z M585.6,189.9l-8.1,14l8.1,14h16.2l8.1-14l-8.1-14H585.6z
	 M600,214.8h-12.5l-6.3-10.8l6.3-10.8H600l6.3,10.8L600,214.8z M577.5,235.8l-16.2,28.1l16.2,28h32.4l1.4-2.4v-6.3l-3.2,5.6h-28.8
	L565,263.9l14.3-24.9h28.8l3.2,5.6v-6.4l-1.4-2.4H577.5z M589.7,196.9l-4,7l4,7h8.1l4-7l-4-7H589.7z M595.9,207.7h-4.4l-2.2-3.8
	l2.2-3.8h4.4l2.2,3.8L595.9,207.7z M441.7,240.9l4-7l-4-7h-8.1l-4,7l4,7H441.7z M435.5,230.1h4.4l2.2,3.8l-2.2,3.8h-4.4l-2.2-3.8
	L435.5,230.1z M577.5,175.9l-16.2,28l16.2,28.1h32.4l1.4-2.4v-6.4l-3.2,5.6h-28.8L565,203.9l14.3-24.8h28.8l3.2,5.5v-6.3l-1.4-2.4
	H577.5z M581.6,182.9l-12.2,21l12.2,21.1h24.3l5.4-9.4v-6.4l-7.3,12.6h-20.6l-10.3-17.9l10.3-17.8H604l7.3,12.6v-6.4l-5.4-9.4H581.6
	z M589.7,256.9l-4,7l4,7h8.1l4-7l-4-7H589.7z M595.9,267.7h-4.4l-2.2-3.8l2.2-3.8h4.4l2.2,3.8L595.9,267.7z M557.9,145.9h-32.4
	L509.3,174l16.2,28.1h32.4l16.2-28.1L557.9,145.9z M556,198.8h-28.7L513,174l14.4-24.9H556l14.4,24.9L556,198.8z M545.7,167h-8.1
	l-4,7l4,7h8.1l4-7L545.7,167z M543.9,177.8h-4.4l-2.2-3.8l2.2-3.8h4.4l2.2,3.8L543.9,177.8z M581.6,242.8l-12.2,21.1l12.2,21h24.3
	l5.4-9.4v-6.3l-7.3,12.5h-20.6l-10.3-17.8l10.3-17.9H604l7.3,12.6v-6.3l-5.4-9.5H581.6z M549.8,159.9h-16.2l-8.1,14l8.1,14h16.2
	l8.1-14L549.8,159.9z M547.9,184.8h-12.5l-6.3-10.8l6.3-10.8h12.5l6.3,10.8L547.9,184.8z M553.8,152.9h-24.3l-12.1,21l12.1,21h24.3
	l12.1-21L553.8,152.9z M552,191.8h-20.6L521.1,174l10.3-17.9H552l10.3,17.9L552,191.8z M585.6,249.9l-8.1,14l8.1,14h16.2l8.1-14
	l-8.1-14H585.6z M600,274.7h-12.5l-6.3-10.8l6.3-10.8H600l6.3,10.8L600,274.7z M274.2,263l-0.5,0.9l4,7h8.1l4-7l-0.5-0.9h-3.7
	l0.5,0.9l-2.2,3.8h-4.4l-2.2-3.8l0.5-0.9H274.2z M362.3,240.3l3.7-6.4l-16.2-28h-32.4l-16.2,28l3.7,6.4h3.7l-3.7-6.4l14.4-24.9H348
	l14.3,24.9l-3.7,6.4H362.3z M354.2,240.3l3.7-6.4l-12.1-21h-24.3l-12.2,21l3.7,6.4h3.7l-3.7-6.4l10.3-17.9h20.6l10.3,17.9l-3.7,6.4
	H354.2z M293.9,284.9l12.1-21l-0.5-0.9h-3.7l0.5,0.9L292,281.7h-20.6l-10.3-17.8l0.5-0.9h-3.7l-0.5,0.9l12.2,21H293.9z M346.1,240.3
	l3.7-6.4l-8.1-14h-16.2l-8.1,14l3.7,6.4h3.7l-3.7-6.4l6.3-10.8h12.5l6.2,10.8l-3.7,6.4H346.1z M297.9,291.9l16.2-28l-0.5-0.9h-3.7
	l0.5,0.9l-14.3,24.9h-28.7L253,263.9l0.5-0.9h-3.7l-0.5,0.9l16.2,28H297.9z M297.9,235.8h-32.4l-2.6,4.5h3.7l0.8-1.3h28.7l0.7,1.3
	h3.7L297.9,235.8z M329.6,226.9l-4,7l3.7,6.4h8.7l3.7-6.4l-4-7H329.6z M335.8,237.7h-4.4l-2.2-3.8l2.2-3.8h4.4l2.2,3.8L335.8,237.7z
	 M345.8,272.8h-24.3l-12.2,21.1l7,12.1h3.7l-7-12.1l10.3-17.9h20.6l10.3,17.9l-7,12.1h3.7l7-12.1L345.8,272.8z M341.7,279.8h-16.2
	l-8.1,14l7,12.1h18.3l7-12.1L341.7,279.8z M339.9,304.7h-12.5l-6.3-10.8l6.3-10.8h12.5l6.3,10.8L339.9,304.7z M349.8,265.8h-32.4
	l-16.2,28.1l7.1,12.1h3.6l-7-12.1l14.4-24.9H348l14.3,24.9l-7,12.1h3.7l7-12.1L349.8,265.8z M337.7,286.9h-8.1l-4,7l4,7h8.1l4-7
	L337.7,286.9z M335.8,297.7h-4.4l-2.2-3.8l2.2-3.8h4.4l2.2,3.8L335.8,297.7z M453.9,265.8h-32.4l-16.2,28.1l7,12.1h3.7l-7-12.1
	l14.3-24.9H452l14.4,24.9l-7,12.1h3.7l7-12.1L453.9,265.8z M369.4,295.8l-5.9,10.2h3.7l4.1-7H400l4.1,7h3.6l-5.9-10.2H369.4z
	 M373.5,302.8l-1.9,3.2h3.7l0,0h20.6h0.1h3.6l-1.8-3.2H373.5z M237.8,279.8h-16.2l-8.1,14l7,12.1h18.3l7-12.1L237.8,279.8z
	 M236,304.7h-12.5l-6.3-10.8l6.3-10.8H236l6.3,10.8L236,304.7z M241.8,272.8h-24.2l-12.2,21.1l7,12.1h3.7l-7-12.1l10.3-17.9H240
	l10.3,17.9l-7,12.1h3.7l7-12.1L241.8,272.8z M245.9,265.8h-32.4l-16.2,28.1l7,12.1h3.7l-7-12.1l14.3-24.9h28.8l14.3,24.9l-7,12.1
	h3.7l7-12.1L245.9,265.8z M233.7,286.9h-8.1l-4,7l4,7h8.1l4-7L233.7,286.9z M231.9,297.7h-4.4l-2.2-3.8l2.2-3.8h4.4l2.2,3.8
	L231.9,297.7z M269.6,302.8l-1.9,3.2h3.7l0,0H292l0,0h3.7l-1.8-3.2H269.6z M265.5,295.8l-5.9,10.2h3.7l4.1-7h28.7l4.1,7h3.6
	l-5.9-10.2H265.5z M445.8,279.8h-16.2l-8.1,14l7,12.1h18.3l7-12.1L445.8,279.8z M443.9,304.7h-12.5l-6.3-10.8l6.3-10.8h12.5
	l6.3,10.8L443.9,304.7z M441.7,286.9h-8.1l-4,7l4,7h8.1l4-7L441.7,286.9z M439.9,297.7h-4.4l-2.2-3.8l2.2-3.8h4.4l2.2,3.8
	L439.9,297.7z M449.8,272.8h-24.3l-12.1,21.1l7,12.1h3.7l-7-12.1l10.3-17.9H448l10.3,17.9l-7,12.1h3.6l7.1-12.1L449.8,272.8z
	 M473.5,295.8l-5.9,10.2h3.7l4-7h28.8l4,7h3.7l-5.9-10.2H473.5z M477.6,302.8l-1.9,3.2h3.7l0,0H500l0,0h3.7l-1.9-3.2H477.6z
	 M577.5,295.8l-5.9,10.2h3.7l4-7h28.8l3.2,5.5v-6.3l-1.4-2.4H577.5z M581.6,302.8l-1.9,3.2h3.7l0,0H604l0,0h3.7l-1.8-3.2H581.6z
	 M557.9,265.8h-32.4l-16.2,28.1l7,12.1h3.7l-7-12.1l14.3-24.9H556l14.4,24.9l-7,12.1h3.7l7-12.1L557.9,265.8z M545.7,286.9h-8.1
	l-4,7l4,7h8.1l4-7L545.7,286.9z M543.9,297.7h-4.4l-2.2-3.8l2.2-3.8h4.4l2.2,3.8L543.9,297.7z M549.8,279.8h-16.2l-8.1,14l7,12.1
	h18.3l7-12.1L549.8,279.8z M547.9,304.7h-12.5l-6.3-10.8l6.3-10.8h12.5l6.3,10.8L547.9,304.7z M553.8,272.8h-24.3l-12.1,21.1l7,12.1
	h3.7l-7-12.1l10.3-17.9H552l10.3,17.9l-7,12.1h3.7l7-12.1L553.8,272.8z M137.9,135l12.1-21l-12.1-21h-24.3l-5.6,9.6v6.4l7.4-12.8
	H136l10.3,17.8L136,131.9h-20.6L108,119v6.4l5.6,9.6H137.9z M129.7,121l4-7l-4-7h-8.1l-4,7l4,7H129.7z M123.5,110.2h4.4l2.2,3.8
	l-2.2,3.8h-4.4l-2.2-3.8L123.5,110.2z M133.8,128l8.1-14l-8.1-14h-16.2l-8.1,14l8.1,14H133.8z M119.5,103.2H132l6.3,10.8l-6.3,10.8
	h-12.5l-6.3-10.8L119.5,103.2z M141.9,142.1l16.2-28.1l-16.2-28h-32.4l-1.5,2.6v6.3l3.3-5.8h28.8l14.3,24.9l-14.3,24.9h-28.8
	l-3.3-5.8v6.3l1.5,2.7H141.9z M169.6,98h16.2l8.1-14l-8.1-14h-16.2l-8.1,14L169.6,98z M171.5,73.2H184l6.3,10.8L184,94.9h-12.5
	L165.2,84L171.5,73.2z M161.5,172h32.4l16.2-28.1l-16.2-28.1h-32.4L145.3,144L161.5,172z M163.4,119.1h28.7l14.4,24.9l-14.4,24.9
	h-28.7L149,144L163.4,119.1z M173.7,91h8.1l4-7l-4-7h-8.1l-4,7L173.7,91z M175.5,80.2h4.4l2.2,3.8l-2.2,3.8h-4.4l-2.2-3.8
	L175.5,80.2z M161.5,112.1h32.4L210.1,84l-16.2-28h-32.4l-16.2,28L161.5,112.1z M163.4,59.2h28.7L206.5,84l-14.4,24.9h-28.7L149,84
	L163.4,59.2z M165.6,105.1h24.3L202,84l-12.1-21h-24.3l-12.1,21L165.6,105.1z M167.4,66.2H188L198.3,84L188,101.9h-20.6L157.1,84
	L167.4,66.2z M173.7,151h8.1l4-7l-4-7h-8.1l-4,7L173.7,151z M175.5,140.2h4.4l2.2,3.8l-2.2,3.8h-4.4l-2.2-3.8L175.5,140.2z
	 M141.9,82.1l16.2-28L141.9,26h-32.4l-1.5,2.6V35l3.3-5.8h28.8l14.3,24.9l-14.3,24.8h-28.8l-3.3-5.8v6.4l1.5,2.6H141.9z M129.7,61
	l4-7l-4-7h-8.1l-4,7l4,7H129.7z M123.5,50.2h4.4l2.2,3.8l-2.2,3.8h-4.4l-2.2-3.8L123.5,50.2z M165.6,165h24.3l12.1-21l-12.1-21
	h-24.3l-12.1,21L165.6,165z M167.4,126.1H188l10.3,17.9L188,161.8h-20.6L157.1,144L167.4,126.1z M133.8,68.1l8.1-14l-8.1-14h-16.2
	l-8.1,14l8.1,14H133.8z M119.5,43.2H132l6.3,10.8L132,64.9h-12.5l-6.3-10.8L119.5,43.2z M137.9,75.1l12.1-21L137.9,33h-24.3
	l-5.6,9.7V49l7.4-12.8H136l10.3,17.9L136,71.9h-20.6L108,59.1v6.3l5.6,9.7H137.9z M169.6,158h16.2l8.1-14l-8.1-14h-16.2l-8.1,14
	L169.6,158z M171.5,133.1H184l6.3,10.8l-6.3,10.9h-12.5l-6.3-10.8L171.5,133.1z M213.4,22.2h32.4L262-5.9L254.9-18h-3.6l7,12.1
	L243.9,19h-28.7L200.8-5.9l7.1-12.1h-3.7l-7,12.1L213.4,22.2z M401.7-7.8l5.9-10.2h-3.7l-4,7h-28.8l-4-7h-3.7l5.9,10.2H401.7z
	 M225.5,1.1h8.1l4-7l-4-7h-8.1l-4,7L225.5,1.1z M227.4-9.7h4.4l2.2,3.8l-2.2,3.8h-4.4l-2.2-3.8L227.4-9.7z M397.6-14.8l1.9-3.2h-3.7
	l0,0h-20.6l0,0h-3.7l1.9,3.2H397.6z M221.5,8.2h16.2l8.1-14l-7-12.1h-18.3l-7,12.1L221.5,8.2z M223.3-16.7h12.5l6.3,10.8L235.8,5
	h-12.5L217-5.8L223.3-16.7z M293.7-14.8l1.9-3.2h-3.7l0,0h-20.6l0,0h-3.7l1.8,3.2H293.7z M297.8-7.8l5.9-10.2H300l-4.1,7h-28.7l-4-7
	h-3.7l5.9,10.2H297.8z M529.4,15.2h24.3l12.1-21.1l-7-12.1h-3.6l7,12.1L551.9,12h-20.7L520.9-5.9l7-12.1h-3.6l-7,12.1L529.4,15.2z
	 M217.4,15.2h24.3l12.1-21.1l-7-12.1h-3.6l7,12.1L239.9,12h-20.6L208.9-5.9L216-18h-3.7l-7,12.1L217.4,15.2z M537.5,1.1h8.1l4-7
	l-4-7h-8.1l-4,7L537.5,1.1z M539.4-9.7h4.4l2.2,3.8l-2.2,3.8h-4.4l-2.2-3.8L539.4-9.7z M533.5,8.2h16.2l8.1-14l-7-12.1h-18.3
	l-7,12.1L533.5,8.2z M535.3-16.7h12.5l6.3,10.8L547.8,5h-12.5L529-5.9L535.3-16.7z M525.4,22.2h32.3l16.2-28.1l-7-12.1h-3.6l7,12.1
	L555.9,19h-28.7L512.8-5.9l7-12.1h-3.6l-7,12.1L525.4,22.2z M505.8-7.8l5.9-10.2H508l-4.1,7h-28.7l-4.1-7h-3.6l5.9,10.2H505.8z
	 M501.7-14.8l1.9-3.2h-3.7l0,0h-20.6h-0.1h-3.6l1.8,3.2H501.7z M493.6,17.1h-8.1l-4,7l4,7h8.1l4-7L493.6,17.1z M491.8,27.9h-4.4
	l-2.2-3.8l2.2-3.8h4.4l2.2,3.8L491.8,27.9z M421.3,22.2h32.4l16.2-28.1l-7-12.1h-3.6l7,12.1L451.9,19h-28.7L408.8-5.9l7-12.1h-3.6
	l-7.1,12.1L421.3,22.2z M497.6,10.1h-16.2l-8.1,14l8.1,14h16.2l8.1-14L497.6,10.1z M495.8,35h-12.5L477,24.2l6.3-10.8h12.5l6.3,10.8
	L495.8,35z M429.5,8.2h16.2l8.1-14l-7-12.1h-18.3l-7,12.1L429.5,8.2z M431.3-16.7h12.5l6.3,10.8L443.8,5h-12.5L425-5.9L431.3-16.7z
	 M369.3-3.9l-16.2,28.1l16.2,28.1h32.4l16.2-28.1L401.7-3.9C401.7-3.9,369.3-3.9,369.3-3.9z M399.9,49h-28.7l-14.4-24.9l14.4-24.9
	h28.7l14.4,24.9L399.9,49z M373.4,3.1l-12.1,21l12.1,21h24.3l12.1-21l-12.1-21C397.7,3.1,373.4,3.1,373.4,3.1z M395.8,42h-20.6
	l-10.3-17.9l10.3-17.9h20.6l10.3,17.9L395.8,42z M381.5,17.1l-4,7l4,7h8.1l4-7l-4-7H381.5z M387.7,27.9h-4.4l-2.2-3.8l2.2-3.8h4.4
	l2.2,3.8L387.7,27.9z M377.4,10.1l-8.1,14l8.1,14h16.2l8.1-14l-8.1-14C393.6,10.1,377.4,10.1,377.4,10.1z M391.8,35h-12.5L373,24.1
	l6.3-10.8h12.5l6.3,10.8L391.8,35z M501.7,3.1h-24.3l-12.1,21l12.1,21h24.3l12.1-21L501.7,3.1z M499.9,42h-20.6L469,24.1l10.3-17.9
	h20.6l10.3,17.9L499.9,42z M505.8-3.9h-32.4l-16.2,28.1l16.2,28.1h32.4L522,24.1L505.8-3.9z M503.9,49h-28.7l-14.4-24.9l14.4-24.9
	h28.7l14.4,24.9L503.9,49z M425.4,15.2h24.3l12.1-21.1l-7-12.1h-3.7l7.1,12.1L447.8,12h-20.6L416.9-5.9l7-12.1h-3.6l-7,12.1
	L425.4,15.2z M577.4-3.9l-16.2,28l16.2,28.1h32.4l1.5-2.6v-6.4l-3.4,5.8h-28.7l-14.4-24.9l14.4-24.9h28.7l3.4,5.8v-6.3l-1.5-2.6
	H577.4z M433.5,1.1h8.1l4-7l-4-7h-8.1l-4,7L433.5,1.1z M435.3-9.7h4.4l2.2,3.8l-2.2,3.8h-4.4l-2.2-3.8L435.3-9.7z M607.9-11h-28.7
	l-4.1-7h-3.6l5.9,10.2h32.4l1.5-2.6v-6.3L607.9-11z M605.7-14.8l1.9-3.2h-3.7l0,0h-20.6h-0.1h-3.6l1.8,3.2H605.7z M589.5,17.1l-4,7
	l4,7h8.1l4-7l-4-7H589.5z M595.8,27.9h-4.4l-2.2-3.8l2.2-3.8h4.4l2.2,3.8L595.8,27.9z M581.4,3.1l-12.1,21l12.1,21.1h24.3l5.6-9.7
	v-6.3L603.9,42h-20.6L573,24.1l10.3-17.8h20.6l7.4,12.8v-6.4l-5.6-9.6H581.4z M585.5,10.1l-8.1,14l8.1,14h16.2l8.1-14l-8.1-14
	C601.7,10.1,585.5,10.1,585.5,10.1z M599.8,35h-12.5L581,24.2l6.3-10.8h12.5l6.3,10.8L599.8,35z M277.5,17.1l-4,7l4,7h8.1l4-7l-4-7
	H277.5z M283.8,27.9h-4.4l-2.2-3.8l2.2-3.8h4.4l2.2,3.8L283.8,27.9z M317.3,22.2h32.4l16.2-28.1l-7-12.1h-3.7l7,12.1L347.8,19h-28.7
	L304.8-5.9l7-12.1h-3.7l-7,12.1L317.3,22.2z M321.3,15.2h24.3l12.2-21.1l-7-12.1h-3.7l7,12.1L343.8,12h-20.6L312.9-5.9l7-12.1h-3.7
	l-7,12.1L321.3,15.2z M269.4,3.1l-12.1,21l12.1,21h24.3l12.1-21l-12.1-21C293.7,3.1,269.4,3.1,269.4,3.1z M291.9,42h-20.6L261,24.1
	l10.3-17.9h20.6l10.3,17.9L291.9,42z M325.4,8.2h16.2l8.1-14l-7-12.1h-18.3l-7,12.1L325.4,8.2z M327.2-16.7h12.5L346-5.9L339.7,5
	h-12.5L321-5.9L327.2-16.7z M265.4-3.9l-16.2,28.1l16.2,28.1h32.4L314,24.1L297.8-4h-32.4V-3.9z M295.9,49h-28.7l-14.4-24.9
	l14.4-24.9h28.7l14.4,24.9L295.9,49z M329.4,1.1h8.1l4-7l-4-7h-8.1l-4,7L329.4,1.1z M331.3-9.7h4.4l2.2,3.8l-2.2,3.8h-4.4l-2.2-3.8
	L331.3-9.7z M273.5,10.1l-8.1,14l8.1,14h16.2l8.1-14l-8.1-14C289.7,10.1,273.5,10.1,273.5,10.1z M287.8,35h-12.5L269,24.2l6.3-10.8
	h12.5l6.3,10.8L287.8,35z M108.3-18l-0.3,0.5v6.4l4-6.9H108.3z M137.7,15.2l12.2-21.1L142.8-18h-3.6l7,12.1L135.9,12h-20.6L108-0.6
	v6.4l5.4,9.4H137.7z M121.5,1.1h8.1l4-7l-4-7h-8.1l-4,7L121.5,1.1z M123.4-9.7h4.4l2.2,3.8L127.8-2h-4.4l-2.2-3.8L123.4-9.7z
	 M117.5,8.2h16.2l8.1-14L134.7-18h-18.3l-7,12.1L117.5,8.2z M119.3-16.7h12.5l6.3,10.8L131.8,5h-12.5l-6.2-10.9L119.3-16.7z
	 M141.8,22.2L158-5.9L150.9-18h-3.6l7,12.1L139.9,19h-28.7l-3.2-5.5v6.3l1.4,2.4H141.8z M161.4-3.9l-16.2,28l16.2,28.1h32.4
	L210,24.1l-16.2-28H161.4z M192,49h-28.8l-14.3-24.9l14.4-24.9H192l14.4,24.9L192,49z M193.8-7.8l5.9-10.2H196l-4,7h-28.8l-4-7h-3.7
	l5.9,10.2H193.8z M189.7-14.8l1.9-3.2h-3.7l0,0h-20.6l0,0h-3.7l1.9,3.2H189.7z M173.6,17.1l-4,7l4,7h8.1l4-7l-4-7H173.6z
	 M179.8,27.9h-4.4l-2.2-3.8l2.2-3.8h4.4l2.2,3.8L179.8,27.9z M165.5,3.1l-12.1,21l12.1,21h24.3l12.1-21l-12.1-21
	C189.8,3.1,165.5,3.1,165.5,3.1z M187.9,42h-20.6L157,24.1l10.3-17.9h20.6l10.3,17.9L187.9,42z M169.5,10.1l-8.1,14l8.1,14h16.2
	l8.1-14l-8.1-14C185.7,10.1,169.5,10.1,169.5,10.1z M183.8,35h-12.5L165,24.2l6.3-10.8h12.5l6.3,10.8L183.8,35z M137.9,254.9
	l12.1-21l-12.1-21h-24.3l-5.6,9.6v6.4l7.4-12.9H136l10.3,17.9L136,251.8h-20.6l-7.4-12.9v6.4l5.6,9.6H137.9z M129.7,240.9l4-7l-4-7
	h-8.1l-4,7l4,7H129.7z M123.5,230.1h4.4l2.2,3.8l-2.2,3.8h-4.4l-2.2-3.8L123.5,230.1z M133.8,247.9l8.1-14l-8.1-14h-16.2l-8.1,14
	l8.1,14H133.8z M119.5,223.1H132l6.3,10.8l-6.3,10.8h-12.5l-6.3-10.8L119.5,223.1z M141.9,262l16.2-28.1l-16.2-28h-32.4l-1.5,2.6
	v6.3l3.3-5.8h28.8l14.3,24.9l-14.3,24.9h-28.8L108,253v6.3l1.5,2.7H141.9z M169.6,217.9h16.2l8.1-14l-8.1-14h-16.2l-8.1,14
	L169.6,217.9z M171.5,193.1H184l6.3,10.8l-6.3,10.9h-12.5l-6.3-10.8L171.5,193.1z M161.5,291.9h32.4l16.2-28l-0.5-0.9h-3.7l0.6,0.9
	l-14.4,24.9h-28.7L149,263.9l14.4-24.9h28.7l0.7,1.3h3.7l-2.6-4.5h-32.4l-16.2,28.1L161.5,291.9z M173.7,210.9h8.1l4-7l-4-7h-8.1
	l-4,7L173.7,210.9z M175.5,200.1h4.4l2.2,3.8l-2.2,3.8h-4.4l-2.2-3.8L175.5,200.1z M161.5,232h32.4l16.2-28.1l-16.2-28.1h-32.4
	l-16.2,28.1L161.5,232z M163.4,179.1h28.7l14.4,24.9l-14.4,24.9h-28.7l-14.4-25L163.4,179.1z M165.6,225h24.3l12.1-21l-12.1-21
	h-24.3l-12.1,21L165.6,225z M167.4,186.1H188l10.3,17.9L188,221.8h-20.6l-10.3-17.9L167.4,186.1z M172.6,263c-0.7,0-1.4-0.3-1.9-0.8
	l-1,1.7l4,7h8.1l4-7l-0.5-0.9h-3.7l0.5,0.9l-2.2,3.8h-4.4l-2.2-3.8l0.5-0.9L172.6,263L172.6,263z M141.9,202l16.2-28l-16.2-28.1
	h-32.4l-1.5,2.6v6.4l3.3-5.8h28.8l14.3,24.9l-14.3,24.8h-28.8L108,193v6.4l1.5,2.6H141.9z M129.7,180.9l4-7l-4-7h-8.1l-4,7l4,7
	H129.7z M123.5,170.1h4.4l2.2,3.8l-2.2,3.8h-4.4l-2.2-3.8L123.5,170.1z M153.4,263.9l12.1,21h24.3l12.1-21l-0.5-0.9h-3.7l0.5,0.9
	L188,281.7h-20.6l-10.3-17.9l10.3-17.8h2.3v-2.9c0-0.1,0-0.2,0-0.3h-4.2L153.4,263.9z M133.8,188l8.1-14l-8.1-14h-16.2l-8.1,14
	l8.1,14H133.8z M119.5,163.1H132l6.3,10.8l-6.3,10.9h-12.5l-6.3-10.8L119.5,163.1z M137.9,195l12.1-21l-12.1-21.1h-24.3l-5.6,9.7
	v6.3l7.4-12.8H136l10.3,17.9L136,191.8h-20.6L108,179v6.3l5.6,9.7H137.9z M171.5,274.7l-6.3-10.8l4.5-7.8v-6.2h-0.1l-8,14l8,14h16.2
	l8.1-14l-0.5-0.9h-3.7l0.5,0.9l-6.2,10.8H171.5z M161.5,295.8l-5.9,10.2h3.7l4.1-7h28.7l4.1,7h3.6l-5.9-10.2H161.5z M165.6,302.8
	l-1.9,3.2h3.7l0,0H188h0.1h3.6l-1.8-3.2H165.6z M141.9,265.8h-32.4l-1.5,2.6v6.4l3.3-5.8h28.8l14.3,24.9l-7,12.1h3.7l7-12.1
	L141.9,265.8z M129.7,286.9h-8.1l-4,7l4,7h8.1l4-7L129.7,286.9z M127.9,297.7h-4.4l-2.2-3.8l2.2-3.8h4.4l2.2,3.8L127.9,297.7z
	 M133.8,279.8h-16.2l-8.1,14l7,12.1h18.3l7-12.1L133.8,279.8z M132,304.7h-12.5l-6.3-10.8l6.3-10.8H132l6.3,10.8L132,304.7z
	 M137.9,272.8h-24.3l-5.6,9.7v6.3l7.4-12.8H136l10.3,17.9l-7,12.1h3.7l7-12.1L137.9,272.8z M108,305.2l0.4,0.8h3.7l-4.1-7.1V305.2z
	 M266.1,263l-0.6,0.9l8.1,14h16.2l8.1-14l-0.5-0.9h-3.7l0.5,0.9l-6.2,10.8h-12.5l-6.3-10.8l0.5-0.9H266.1z"/>
</svg>
