<?xml version="1.0" encoding="utf-8"?>
<!-- Generator: Adobe Illustrator 19.0.0, SVG Export Plug-In . SVG Version: 6.00 Build 0)  -->
<svg version="1.1" id="Layer_1" xmlns="http://www.w3.org/2000/svg" xmlns:xlink="http://www.w3.org/1999/xlink" x="0px" y="0px"
	 viewBox="0 0 503.3 324" style="enable-background:new 0 0 503.3 324;" xml:space="preserve">
<path id="XMLID_1_" d="M382.2,137.9c0,70.9-25.7,135.8-68.3,186.1h-2.6c42.9-50.1,68.9-115.1,68.9-186.1c0-50-12.9-97-35.5-137.9
	h2.3C369.4,41,382.2,88,382.2,137.9z M335.6,0h-2.3c23.5,40.6,36.9,87.7,36.9,137.9c0,71.6-27.4,136.9-72.2,186.1h2.7
	c44.4-49.4,71.5-114.6,71.5-186.1C372.2,87.8,358.8,40.7,335.6,0z M324,0h-2.3c24.5,40.3,38.5,87.5,38.5,137.9
	c0,72.3-29,138-76,186.1h2.8c46.5-48.3,75.2-113.9,75.2-186.1C362.2,87.5,348.2,40.3,324,0z M352.2,137.9c0-50.7-14.7-98-40-137.9
	h-2.4c25.5,39.8,40.3,87.2,40.3,137.9c0,51.9-15.5,100.3-42.2,140.7c-0.1,0.8-0.6,1.5-1.3,1.9c-10.6,15.8-23,30.4-36.8,43.5h2.9
	C321.7,277,352.2,210.9,352.2,137.9z M340.2,137.9c0,44.4-11.8,86-32.4,122c0.2,0.4,0.3,0.8,0.3,1.2v2.3
	c21.7-36.9,34.1-79.7,34.1-125.5c0-51-15.4-98.4-41.9-137.9h-2.4C324.6,39.4,340.2,86.9,340.2,137.9z M296.7,281h-2.5
	c-11.3,15.8-24.5,30.3-39.2,43h3C272.6,311.2,285.5,296.8,296.7,281z M239.4,324h3.2c15.6-12.5,29.7-27,41.7-43h-2.5
	C269.6,297.1,255.3,311.5,239.4,324z M288.1,0h-2.5c28,38.8,44.5,86.5,44.5,137.9c0,43.9-12.1,85.1-33,120.4h2.3
	c20.8-35.4,32.7-76.5,32.7-120.4C332.2,86.6,315.9,39,288.1,0z M271.7,281h-2.6c-13.4,16.4-29.1,30.9-46.5,43h3.5
	C243.2,311.8,258.5,297.3,271.7,281z M320.2,137.9c0,44.2-12.8,85.5-34.8,120.4h2.4c21.8-35,34.4-76.2,34.4-120.4
	c0-51.8-17.3-99.6-46.5-137.9h-2.5C302.6,38.2,320.2,86,320.2,137.9z M204.1,324h3.9c19-11.7,36.1-26.2,50.7-43H256
	C241.1,297.9,223.6,312.4,204.1,324z M263,0h-2.6c31.1,37.5,49.8,85.5,49.8,137.9c0,44.5-13.5,86-36.7,120.4h2.4
	c22.9-34.5,36.3-75.9,36.3-120.4C312.2,85.7,293.7,37.6,263,0z M300.2,137.9c0,44.9-14.4,86.5-38.9,120.4h2.5
	c24.2-34,38.4-75.6,38.4-120.4c0-52.8-19.8-101.1-52.3-137.9h-2.7C280.1,36.6,300.2,84.9,300.2,137.9z M245.1,281h-2.8
	c-17,17.6-37.1,32.3-59.4,43h4.5C209.2,313.1,228.6,298.4,245.1,281z M156.6,324h6c25.8-9.6,49-24.3,68.5-43h-2.9
	C207.9,300.1,183.6,314.9,156.6,324z M0,310.5v2.3c8,4.3,16.3,8.1,24.9,11.3h6C20.1,320.4,9.8,315.8,0,310.5z M236.3,0h-2.8
	c35,35.5,56.7,84.2,56.7,137.9c0,45.3-15.4,87.1-41.3,120.4h2.5c25.6-33.4,40.8-75.2,40.8-120.4C292.2,84.4,270.9,35.7,236.3,0z
	 M280.2,137.9c0,45.9-16.7,87.9-44.2,120.4h2.6c27.2-32.7,43.6-74.7,43.6-120.4C282.2,83.5,259,34.4,222,0h-2.9
	C256.6,34.1,280.2,83.3,280.2,137.9z M104.5,324h18.7c35.1-5.6,67-20.8,92.9-43h-3.1C183.3,305.9,145.7,321.6,104.5,324z M83,324
	c-30.1-1.7-58.3-10.6-83-25v2.3c19.5,11.2,41.2,19.1,64.2,22.7H83z M93.8,314.3c-34.4,0-66.6-9.9-93.8-27v2.4
	c27.3,16.9,59.4,26.7,93.8,26.7c39.9,0,76.7-13.1,106.5-35.3h-3.4C167.8,301.9,132.2,314.3,93.8,314.3z M270.2,137.9
	c0,46.5-18.1,88.9-47.6,120.4h2.7c29.1-31.8,46.9-74,46.9-120.4c0-55.5-25.5-105.2-65.3-137.9h-3.2
	C244.2,32.4,270.2,82.1,270.2,137.9z M260.2,137.9c0,47.3-19.8,90.1-51.7,120.4h2.9c31.3-30.6,50.8-73.3,50.8-120.4
	c0-57-28.4-107.4-71.9-137.9h-3.5C231,29.9,260.2,80.6,260.2,137.9z M93.8,304.3c-34.7,0-67-10.7-93.8-29v2.4
	c26.8,18,59.1,28.6,93.8,28.6c32.5,0,62.9-9.3,88.7-25.3h-3.8C153.8,295.8,124.7,304.3,93.8,304.3z M250.2,137.9
	c0,48.4-22.1,91.7-56.7,120.4h3.1c34-29.1,55.6-72.3,55.6-120.4c0-59.1-32.5-110.7-80.5-137.9h-4.1
	C216.7,26.4,250.2,78.3,250.2,137.9z M93.8,294.3c-35.1,0-67.6-11.7-93.8-31.3v2.5c26.3,19.4,58.7,30.8,93.8,30.8
	c24.3,0,47.3-5.5,67.9-15.3h-4.8C137.6,289.6,116.2,294.3,93.8,294.3z M20,0h-4.1C10.4,3.1,5.1,6.6,0,10.3v2.5C6.3,8,13,3.8,20,0z
	 M93.8,284.3c-35.6,0-68.3-12.8-93.8-34v2.6c25.6,20.9,58.2,33.5,93.8,33.5c13.6,0,26.9-1.9,39.4-5.3h-8.4
	C114.8,283.2,104.4,284.3,93.8,284.3z M44.6,0h-5.7C24.7,5.7,11.6,13.4,0,22.9v2.6C13.1,14.6,28.2,5.9,44.6,0z M240.2,137.9
	c0,49.9-25.1,94-63.2,120.4h3.5c37.4-27,61.8-70.9,61.8-120.4c0-62.5-38.8-116-93.6-137.9h-5.7C199.5,20.2,240.2,74.4,240.2,137.9z
	 M93.8,1.5c75.2,0,136.4,61.2,136.4,136.4c0,52.1-29.3,97.4-72.4,120.4h4.1c41.9-23.8,70.2-68.9,70.2-120.4
	C232.2,65.5,176.3,6,105.5,0H82C50.5,2.7,22,15.9,0,36.2v2.7C24.5,15.7,57.5,1.5,93.8,1.5z M0,236.9v2.7
	c17.1,15.8,38.3,27.4,61.7,32.9v-2.1C38.2,264.8,17,253,0,236.9z M93.8,11.5c69.7,0,126.4,56.7,126.4,126.4
	c0,56.3-37,104.1-87.9,120.4h6.1c48.9-18.2,83.8-65.3,83.8-120.4c0-70.8-57.6-128.4-128.4-128.4c-37,0-70.3,15.7-93.8,40.8v2.9
	C23.1,27.6,56.6,11.5,93.8,11.5z M61.9,260.2c-24.2-6.3-45.6-19.6-61.9-37.6v2.9c16.4,17.6,37.7,30.5,61.7,36.7v-1.1
	C61.7,260.8,61.8,260.5,61.9,260.2z M93.8,21.5c64.2,0,116.4,52.2,116.4,116.4S157.9,254.3,93.8,254.3c-38.4,0-72.5-18.7-93.8-47.5
	v3.3c21.7,28.1,55.6,46.2,93.8,46.2c65.3,0,118.4-53.1,118.4-118.4S159,19.5,93.8,19.5C55.6,19.5,21.7,37.6,0,65.7V69
	C21.2,40.2,55.3,21.5,93.8,21.5z M93.8,31.5c58.7,0,106.4,47.7,106.4,106.4S152.4,244.3,93.8,244.3c-40.5,0-75.8-22.7-93.8-56.1v4.1
	c18.8,32.3,53.8,54,93.8,54c59.8,0,108.4-48.6,108.4-108.4c0-59.8-48.6-108.4-108.4-108.4c-40,0-75,21.8-93.8,54v4.1
	C18,54.2,53.3,31.5,93.8,31.5z M93.8,41.5c53.2,0,96.4,43.2,96.4,96.4s-43.2,96.4-96.4,96.4c-45.4,0-83.6-31.6-93.8-73.9v7.4
	c12.7,39.7,49.9,68.5,93.8,68.5c54.3,0,98.4-44.1,98.4-98.4c0-54.3-44.1-98.4-98.4-98.4C49.9,39.5,12.7,68.3,0,108v7.4
	C10.2,73.1,48.3,41.5,93.8,41.5z M5.4,137.9c0-48.7,39.7-88.4,88.4-88.4s88.4,39.7,88.4,88.4c0,48.7-39.7,88.4-88.4,88.4
	S5.4,186.7,5.4,137.9z M7.4,137.9c0,47.6,38.8,86.4,86.4,86.4s86.4-38.8,86.4-86.4s-38.8-86.4-86.4-86.4S7.4,90.3,7.4,137.9z
	 M15.4,137.9c0-43.2,35.2-78.4,78.4-78.4s78.4,35.2,78.4,78.4c0,43.2-35.2,78.4-78.4,78.4S15.4,181.1,15.4,137.9z M17.4,137.9
	c0,42.1,34.3,76.4,76.4,76.4s76.4-34.3,76.4-76.4c0-42.1-34.3-76.4-76.4-76.4S17.4,95.8,17.4,137.9z M25.4,137.9
	c0-37.7,30.7-68.4,68.4-68.4s68.4,30.7,68.4,68.4c0,37.7-30.7,68.4-68.4,68.4S25.4,175.6,25.4,137.9z M27.4,137.9
	c0,36.6,29.8,66.4,66.4,66.4s66.4-29.8,66.4-66.4c0-36.6-29.8-66.4-66.4-66.4S27.4,101.3,27.4,137.9z M35.4,137.9
	c0-32.2,26.2-58.4,58.4-58.4s58.4,26.2,58.4,58.4s-26.2,58.4-58.4,58.4S35.4,170.1,35.4,137.9z M37.4,137.9
	c0,31.1,25.3,56.4,56.4,56.4s56.4-25.3,56.4-56.4c0-31.1-25.3-56.4-56.4-56.4S37.4,106.8,37.4,137.9z M45.4,137.9
	c0-26.7,21.7-48.4,48.4-48.4s48.4,21.7,48.4,48.4s-21.7,48.4-48.4,48.4S45.4,164.6,45.4,137.9z M47.4,137.9
	c0,25.6,20.8,46.4,46.4,46.4s46.4-20.8,46.4-46.4c0-25.6-20.8-46.4-46.4-46.4S47.4,112.3,47.4,137.9z M55.4,137.9
	c0-21.2,17.2-38.4,38.4-38.4s38.4,17.2,38.4,38.4s-17.2,38.4-38.4,38.4S55.4,159.1,55.4,137.9z M57.4,137.9
	c0,20.1,16.3,36.4,36.4,36.4s36.4-16.3,36.4-36.4c0-20.1-16.3-36.4-36.4-36.4S57.4,117.8,57.4,137.9z M65.4,137.9
	c0-15.7,12.7-28.4,28.4-28.4s28.4,12.7,28.4,28.4c0,15.7-12.7,28.4-28.4,28.4S65.4,153.6,65.4,137.9z M67.4,137.9
	c0,14.6,11.8,26.4,26.4,26.4s26.4-11.8,26.4-26.4s-11.8-26.4-26.4-26.4S67.4,123.3,67.4,137.9z"/>
</svg>
